  0.6863799284E-01   0.000000000     : is =    1, ia =    1, ip =    1
  0.6863799284E-01   0.000000000     : is =    1, ia =    1, ip =    2
  0.4596545202       0.000000000     : is =    1, ia =    1, ip =    3
 -0.4937123610E-01   0.000000000     : is =    1, ia =    2, ip =    1
 -0.4937123610E-01   0.000000000     : is =    1, ia =    2, ip =    2
  0.2060939270       0.000000000     : is =    1, ia =    2, ip =    3
