  0.4959999939E-01   0.000000000     : is =    1, ia =    1, ip =    1
 -0.2064813715       0.000000000     : is =    1, ia =    1, ip =    2
 -0.4959999939E-01   0.000000000     : is =    1, ia =    1, ip =    3
  0.6877287819E-01   0.000000000     : is =    1, ia =    2, ip =    1
  0.4597482382       0.000000000     : is =    1, ia =    2, ip =    2
 -0.6877287819E-01   0.000000000     : is =    1, ia =    2, ip =    3
