  0.4601234001       0.000000000     : is =    1, ia =    1, ip =    1
 -0.6893274582E-01   0.000000000     : is =    1, ia =    1, ip =    2
  0.6893274582E-01   0.000000000     : is =    1, ia =    1, ip =    3
 -0.2060972827       0.000000000     : is =    1, ia =    2, ip =    1
 -0.4946302135E-01   0.000000000     : is =    1, ia =    2, ip =    2
  0.4946302135E-01   0.000000000     : is =    1, ia =    2, ip =    3
