  0.4600179758       0.000000000     : is =    1, ia =    1, ip =    1
 -0.6881647571E-01   0.000000000     : is =    1, ia =    1, ip =    2
 -0.6881647571E-01   0.000000000     : is =    1, ia =    1, ip =    3
 -0.2061552585       0.000000000     : is =    1, ia =    2, ip =    1
 -0.4956918962E-01   0.000000000     : is =    1, ia =    2, ip =    2
 -0.4956918962E-01   0.000000000     : is =    1, ia =    2, ip =    3
