 -0.6882678755E-01   0.000000000     : is =    1, ia =    1, ip =    1
  0.4598493455       0.000000000     : is =    1, ia =    1, ip =    2
  0.6882678755E-01   0.000000000     : is =    1, ia =    1, ip =    3
 -0.4951910432E-01   0.000000000     : is =    1, ia =    2, ip =    1
 -0.2060030776       0.000000000     : is =    1, ia =    2, ip =    2
  0.4951910432E-01   0.000000000     : is =    1, ia =    2, ip =    3
