   0.000000000       0.000000000     : is =    1, ia =    1, ip =    1
 -0.4076443011E-01 -0.4076778055E-01 : is =    1, ia =    1, ip =    2
   0.000000000       0.000000000     : is =    1, ia =    1, ip =    3
  0.5059535633      0.3510665043E-06 : is =    1, ia =    2, ip =    1
   0.000000000       0.000000000     : is =    1, ia =    2, ip =    2
  0.1127282380E-05  0.6118558268E-01 : is =    1, ia =    2, ip =    3
