  0.6289071247E-01  0.1271914972E-05 : is =    1, ia =    1, ip =    1
  0.4500240560     -0.1022511602E-05 : is =    1, ia =    1, ip =    2
 -0.9232869678E-05  0.2826005718E-01 : is =    1, ia =    1, ip =    3
 -0.6949275500E-05 -0.3391056768E-01 : is =    1, ia =    2, ip =    1
  0.1097510013E-04  0.1809045436     : is =    1, ia =    2, ip =    2
 -0.4286551240E-01  0.3159620045E-05 : is =    1, ia =    2, ip =    3
