 -0.2470911227E-01  0.1398386070E-01 : is =    1, ia =    1, ip =    1
 -0.2470911227E-01  0.1398386070E-01 : is =    1, ia =    1, ip =    2
  0.1079779301     -0.8744804113E-01 : is =    1, ia =    1, ip =    3
  0.3057521602E-01 -0.2973502909E-01 : is =    1, ia =    2, ip =    1
  0.3057521602E-01 -0.2973502909E-01 : is =    1, ia =    2, ip =    2
  0.5441876496     -0.2610065770E-03 : is =    1, ia =    2, ip =    3
