 -0.2514984274E-05  0.1145273021E-03 : is =    1, ia =    1, ip =    1
  0.3857997418      0.7901254374E-06 : is =    1, ia =    1, ip =    2
   0.000000000       0.000000000     : is =    1, ia =    1, ip =    3
 -0.4013314902E-01 -0.4012797934E-01 : is =    1, ia =    2, ip =    1
 -0.1794814217      0.1794915659     : is =    1, ia =    2, ip =    2
   0.000000000       0.000000000     : is =    1, ia =    2, ip =    3
