  0.1744908144E-01  0.1771253603E-01 : is =    1, ia =    1, ip =    1
 -0.1744908145E-01 -0.1771253603E-01 : is =    1, ia =    1, ip =    2
 -0.2850607152      0.8515679034E-01 : is =    1, ia =    1, ip =    3
  0.3573623830E-01  0.9114689468E-04 : is =    1, ia =    2, ip =    1
 -0.3573623826E-01 -0.9114689468E-04 : is =    1, ia =    2, ip =    2
  0.4204463157      0.1589336050E-03 : is =    1, ia =    2, ip =    3
