   0.000000000       0.000000000     : is =    1, ia =    1, ip =    1
  0.3858011848     -0.1093941757E-05 : is =    1, ia =    1, ip =    2
 -0.1236369583E-04  0.1140992527E-03 : is =    1, ia =    1, ip =    3
   0.000000000       0.000000000     : is =    1, ia =    2, ip =    1
 -0.1794862642      0.1794889903     : is =    1, ia =    2, ip =    2
 -0.4013902911E-01 -0.4012735478E-01 : is =    1, ia =    2, ip =    3
