 -0.7257317351E-01 -0.1617465005E-01 : is =    1, ia =    1, ip =    1
 -0.9396467131E-01  0.8969650812E-01 : is =    1, ia =    1, ip =    2
  0.2455090533E-01 -0.1384748925E-01 : is =    1, ia =    1, ip =    3
 -0.3374626576E-01  0.1826891865E-03 : is =    1, ia =    2, ip =    1
  0.4236884375     -0.2185288790E-03 : is =    1, ia =    2, ip =    2
  0.3044311971E-01  0.2974341836E-01 : is =    1, ia =    2, ip =    3
