  0.4204384764      0.1601170471E-03 : is =    1, ia =    1, ip =    1
  0.3570969771E-01  0.9292268775E-04 : is =    1, ia =    1, ip =    2
  0.3570969768E-01  0.9292268774E-04 : is =    1, ia =    1, ip =    3
 -0.8514015474E-01 -0.2850866478     : is =    1, ia =    2, ip =    1
 -0.1770063469E-01  0.1744919766E-01 : is =    1, ia =    2, ip =    2
 -0.1770063469E-01  0.1744919766E-01 : is =    1, ia =    2, ip =    3
