  0.2999931689E-06  0.2950590008E-01 : is =    1, ia =    1, ip =    1
 -0.2999931689E-06 -0.2950590008E-01 : is =    1, ia =    1, ip =    2
  0.4606521767     -0.4584303204E-06 : is =    1, ia =    1, ip =    3
  0.4843609846E-05  0.4460417482E-01 : is =    1, ia =    2, ip =    1
 -0.4843609846E-05 -0.4460417482E-01 : is =    1, ia =    2, ip =    2
 -0.1947194912      0.2508961674E-05 : is =    1, ia =    2, ip =    3
