 -0.1747682429E-01  0.1770980861E-01 : is =    1, ia =    1, ip =    1
  0.1747682429E-01 -0.1770980861E-01 : is =    1, ia =    1, ip =    2
 -0.2850370417     -0.8513402586E-01 : is =    1, ia =    1, ip =    3
 -0.3572815809E-01  0.7707009525E-04 : is =    1, ia =    2, ip =    1
  0.3572815809E-01 -0.7707009525E-04 : is =    1, ia =    2, ip =    2
  0.4204081969     -0.1626350192E-03 : is =    1, ia =    2, ip =    3
