   0.000000000       0.000000000     : is =    1, ia =    1, ip =    1
  0.4306568657E-06  0.6115184300E-01 : is =    1, ia =    1, ip =    2
  0.5059131766      0.1518759638E-05 : is =    1, ia =    1, ip =    3
 -0.4074657984E-01 -0.4075532790E-01 : is =    1, ia =    2, ip =    1
   0.000000000       0.000000000     : is =    1, ia =    2, ip =    2
   0.000000000       0.000000000     : is =    1, ia =    2, ip =    3
