  0.3329681178E-05  0.2825977732E-01 : is =    1, ia =    1, ip =    1
  0.6290677697E-01 -0.6703671865E-06 : is =    1, ia =    1, ip =    2
  0.4500266078     -0.1904215058E-05 : is =    1, ia =    1, ip =    3
 -0.4287268013E-01 -0.7969684565E-06 : is =    1, ia =    2, ip =    1
  0.3155552670E-06 -0.3390520512E-01 : is =    1, ia =    2, ip =    2
  0.9947656375E-06  0.1808968096     : is =    1, ia =    2, ip =    3
