 -0.1745095415E-01 -0.1770701287E-01 : is =    1, ia =    1, ip =    1
  0.1745095415E-01  0.1770701287E-01 : is =    1, ia =    1, ip =    2
 -0.2850610898      0.8515668849E-01 : is =    1, ia =    1, ip =    3
 -0.3573160415E-01 -0.9207917470E-04 : is =    1, ia =    2, ip =    1
  0.3573160415E-01  0.9207917470E-04 : is =    1, ia =    2, ip =    2
  0.4204451401      0.1591043268E-03 : is =    1, ia =    2, ip =    3
