 -0.1747652777E-01  0.1770395989E-01 : is =    1, ia =    1, ip =    1
 -0.1747652777E-01  0.1770395989E-01 : is =    1, ia =    1, ip =    2
 -0.2850461063     -0.8512564575E-01 : is =    1, ia =    1, ip =    3
 -0.3571266554E-01  0.7718980983E-04 : is =    1, ia =    2, ip =    1
 -0.3571266554E-01  0.7718980983E-04 : is =    1, ia =    2, ip =    2
  0.4204097342     -0.1637301711E-03 : is =    1, ia =    2, ip =    3
