 -0.1398359096E-01  0.2468813355E-01 : is =    1, ia =    1, ip =    1
 -0.1398359096E-01  0.2468813355E-01 : is =    1, ia =    1, ip =    2
 -0.8743625575E-01  0.1079669173     : is =    1, ia =    1, ip =    3
 -0.3055717456E-01 -0.2973443951E-01 : is =    1, ia =    2, ip =    1
 -0.3055717456E-01 -0.2973443951E-01 : is =    1, ia =    2, ip =    2
  0.5441892924      0.2620114952E-03 : is =    1, ia =    2, ip =    3
