 -0.3373491892E-01  0.2178184562E-03 : is =    1, ia =    1, ip =    1
 -0.3047206282E-01 -0.2973835243E-01 : is =    1, ia =    1, ip =    2
  0.4236633885     -0.2197352915E-03 : is =    1, ia =    1, ip =    3
 -0.7261242304E-01 -0.1617834677E-01 : is =    1, ia =    2, ip =    1
 -0.2453301327E-01  0.1385122302E-01 : is =    1, ia =    2, ip =    2
 -0.9397619545E-01  0.8965219587E-01 : is =    1, ia =    2, ip =    3
