 -0.3060556579E-01 -0.2972417773E-01 : is =    1, ia =    1, ip =    1
  0.5441195417      0.2666161755E-03 : is =    1, ia =    1, ip =    2
 -0.3060556579E-01 -0.2972417773E-01 : is =    1, ia =    1, ip =    3
 -0.1397632669E-01  0.2469338562E-01 : is =    1, ia =    2, ip =    1
 -0.8741311966E-01  0.1079194158     : is =    1, ia =    2, ip =    2
 -0.1397632669E-01  0.2469338562E-01 : is =    1, ia =    2, ip =    3
