  0.6872339103E-01  0.1068064021E-09 : is =    1, ia =    1, ip =    1
  0.4604505613     -0.4444709954E-09 : is =    1, ia =    1, ip =    2
 -0.6872339103E-01 -0.1068063418E-09 : is =    1, ia =    1, ip =    3
  0.5077742229E-01  0.4480720130E-10 : is =    1, ia =    2, ip =    1
 -0.2060161903     -0.3690389945E-09 : is =    1, ia =    2, ip =    2
 -0.5077742229E-01 -0.4480713782E-10 : is =    1, ia =    2, ip =    3
