  0.4604736829     -0.2816347033E-09 : is =    1, ia =    1, ip =    1
 -0.6874837924E-01 -0.1062290466E-09 : is =    1, ia =    1, ip =    2
  0.6874837924E-01  0.1062290780E-09 : is =    1, ia =    1, ip =    3
 -0.2059989513     -0.1106032033E-09 : is =    1, ia =    2, ip =    1
 -0.5078794796E-01 -0.6788002437E-10 : is =    1, ia =    2, ip =    2
  0.5078794797E-01  0.6788001909E-10 : is =    1, ia =    2, ip =    3
