 -0.1747494777E-01  0.1771533271E-01 : is =    1, ia =    1, ip =    1
 -0.2850366712     -0.8513412516E-01 : is =    1, ia =    1, ip =    2
 -0.1747494774E-01  0.1771533271E-01 : is =    1, ia =    1, ip =    3
 -0.3573279313E-01  0.7614071683E-04 : is =    1, ia =    2, ip =    1
  0.4204093735     -0.1624694491E-03 : is =    1, ia =    2, ip =    2
 -0.3573279317E-01  0.7614071683E-04 : is =    1, ia =    2, ip =    3
