   0.000000000       0.000000000     : is =    1, ia =    1, ip =    1
   0.000000000       0.000000000     : is =    1, ia =    1, ip =    2
 -0.4076638153E-01 -0.4077038996E-01 : is =    1, ia =    1, ip =    3
  0.5059459422     -0.2746635367E-05 : is =    1, ia =    2, ip =    1
  0.1430641197E-04  0.6119402370E-01 : is =    1, ia =    2, ip =    2
   0.000000000       0.000000000     : is =    1, ia =    2, ip =    3
