 -0.7257761126E-01 -0.1616964349E-01 : is =    1, ia =    1, ip =    1
 -0.2455287629E-01  0.1383644601E-01 : is =    1, ia =    1, ip =    2
 -0.9397835671E-01  0.8969577060E-01 : is =    1, ia =    1, ip =    3
 -0.3370957526E-01  0.1817767582E-03 : is =    1, ia =    2, ip =    1
 -0.3045687886E-01 -0.2974104948E-01 : is =    1, ia =    2, ip =    2
  0.4236949475     -0.2188367275E-03 : is =    1, ia =    2, ip =    3
