 -0.7256751399E-01 -0.1615751903E-01 : is =    1, ia =    1, ip =    1
 -0.2455082199E-01  0.1388067453E-01 : is =    1, ia =    1, ip =    2
  0.9400179200E-01 -0.8965963302E-01 : is =    1, ia =    1, ip =    3
  0.3371271842E-01 -0.2030625823E-03 : is =    1, ia =    2, ip =    1
  0.3047147439E-01  0.2973061586E-01 : is =    1, ia =    2, ip =    2
  0.4236654407     -0.2150322835E-03 : is =    1, ia =    2, ip =    3
