  0.3371382099E-01 -0.1779376052E-03 : is =    1, ia =    1, ip =    1
  0.3044161190E-01  0.2973934663E-01 : is =    1, ia =    1, ip =    2
  0.4236817162     -0.2155443760E-03 : is =    1, ia =    1, ip =    3
 -0.7257855394E-01 -0.1618184078E-01 : is =    1, ia =    2, ip =    1
 -0.2456134556E-01  0.1382665347E-01 : is =    1, ia =    2, ip =    2
  0.9399091282E-01 -0.8970839061E-01 : is =    1, ia =    2, ip =    3
