  0.2455581150E-01 -0.1383186356E-01 : is =    1, ia =    1, ip =    1
 -0.7258786768E-01 -0.1616070511E-01 : is =    1, ia =    1, ip =    2
 -0.9396646362E-01  0.8968674057E-01 : is =    1, ia =    1, ip =    3
  0.3048858861E-01  0.2974069589E-01 : is =    1, ia =    2, ip =    1
 -0.3371988308E-01  0.1816875763E-03 : is =    1, ia =    2, ip =    2
  0.4236953816     -0.2193652760E-03 : is =    1, ia =    2, ip =    3
