 -0.1383743666E-01 -0.2454561614E-01 : is =    1, ia =    1, ip =    1
 -0.1616727888E-01  0.7261029831E-01 : is =    1, ia =    1, ip =    2
 -0.8963871237E-01 -0.9396373299E-01 : is =    1, ia =    1, ip =    3
 -0.3050190933E-01 -0.2973679153E-01 : is =    1, ia =    2, ip =    1
  0.3372801421E-01 -0.2187888578E-03 : is =    1, ia =    2, ip =    2
  0.4236773943     -0.2219298385E-03 : is =    1, ia =    2, ip =    3
