 -0.6290369655E-01  0.1049510902E-06 : is =    1, ia =    1, ip =    1
  0.3433049823E-05  0.2822919591E-01 : is =    1, ia =    1, ip =    2
  0.4500232368     -0.1869366542E-05 : is =    1, ia =    1, ip =    3
 -0.3389209281E-01 -0.4107836229E-05 : is =    1, ia =    2, ip =    1
  0.5035840540E-05 -0.4283815087E-01 : is =    1, ia =    2, ip =    2
 -0.1809189975     -0.1383384273E-06 : is =    1, ia =    2, ip =    3
