   0.000000000       0.000000000     : is =    1, ia =    1, ip =    1
   0.000000000       0.000000000     : is =    1, ia =    1, ip =    2
 -0.4072157434E-01 -0.4071756263E-01 : is =    1, ia =    1, ip =    3
 -0.1429992785E-04  0.6110214031E-01 : is =    1, ia =    2, ip =    1
  0.5057870899      0.2748363799E-05 : is =    1, ia =    2, ip =    2
   0.000000000       0.000000000     : is =    1, ia =    2, ip =    3
