  0.2502015822E-02
  0.1749017665E-02
  0.1089906972E-02
  0.3486321963E-03
  0.2140759105E-03
  0.1702504760E-03
  0.1245575692E-03
  0.3155000154E-04
  0.9587544309E-05
  0.1388900594E-05
  0.5013157672E-06
  0.2611668537E-06
 
