 
(rotation matrices are in lattice coordinates)
 
 
Species :    1 (C), atom :    1
   1 : nsymsite
 
 Site symmetry :    1
  spatial rotation :
   1   0   0
   0   1   0
   0   0   1
  global spin rotation :
   1   0   0
   0   1   0
   0   0   1
 
 
Species :    1 (C), atom :    2
   1 : nsymsite
 
 Site symmetry :    1
  spatial rotation :
   1   0   0
   0   1   0
   0   0   1
  global spin rotation :
   1   0   0
   0   1   0
   0   0   1
 
 
Species :    1 (C), atom :    3
   1 : nsymsite
 
 Site symmetry :    1
  spatial rotation :
   1   0   0
   0   1   0
   0   0   1
  global spin rotation :
   1   0   0
   0   1   0
   0   0   1
 
 
Species :    1 (C), atom :    4
   1 : nsymsite
 
 Site symmetry :    1
  spatial rotation :
   1   0   0
   0   1   0
   0   0   1
  global spin rotation :
   1   0   0
   0   1   0
   0   0   1
 
 
Species :    1 (C), atom :    5
   1 : nsymsite
 
 Site symmetry :    1
  spatial rotation :
   1   0   0
   0   1   0
   0   0   1
  global spin rotation :
   1   0   0
   0   1   0
   0   0   1
 
 
Species :    1 (C), atom :    6
   1 : nsymsite
 
 Site symmetry :    1
  spatial rotation :
   1   0   0
   0   1   0
   0   0   1
  global spin rotation :
   1   0   0
   0   1   0
   0   0   1
 
 
Species :    1 (C), atom :    7
   1 : nsymsite
 
 Site symmetry :    1
  spatial rotation :
   1   0   0
   0   1   0
   0   0   1
  global spin rotation :
   1   0   0
   0   1   0
   0   0   1
 
 
Species :    1 (C), atom :    8
   1 : nsymsite
 
 Site symmetry :    1
  spatial rotation :
   1   0   0
   0   1   0
   0   0   1
  global spin rotation :
   1   0   0
   0   1   0
   0   0   1
