    -304.794570847    
    -304.794123974    
    -304.793968546    
    -304.793553846    
    -304.793686380    
    -304.793637733    
    -304.793603717    
    -304.793540997    
    -304.793531257    
    -304.793530733    
    -304.793530629    
    -304.793530690    
 
