    75 : nkpt; k-point, vkl, wkpt, nmat below
     1   0.000000000       0.000000000       0.000000000      0.6250000000E-02    1383
     2  0.1250000000       0.000000000       0.000000000      0.1250000000E-01    1385
     3  0.2500000000       0.000000000       0.000000000      0.1250000000E-01    1396
     4  0.3750000000       0.000000000       0.000000000      0.1250000000E-01    1402
     5  0.5000000000       0.000000000       0.000000000      0.6250000000E-02    1394
     6   0.000000000      0.2000000000       0.000000000      0.6250000000E-02    1384
     7  0.1250000000      0.2000000000       0.000000000      0.1250000000E-01    1382
     8  0.2500000000      0.2000000000       0.000000000      0.1250000000E-01    1399
     9  0.3750000000      0.2000000000       0.000000000      0.1250000000E-01    1404
    10  0.5000000000      0.2000000000       0.000000000      0.6250000000E-02    1406
    11   0.000000000      0.4000000000       0.000000000      0.6250000000E-02    1396
    12  0.1250000000      0.4000000000       0.000000000      0.1250000000E-01    1389
    13  0.2500000000      0.4000000000       0.000000000      0.1250000000E-01    1400
    14  0.3750000000      0.4000000000       0.000000000      0.1250000000E-01    1401
    15  0.5000000000      0.4000000000       0.000000000      0.6250000000E-02    1402
    16   0.000000000      0.6000000000       0.000000000      0.6250000000E-02    1396
    17  0.1250000000      0.6000000000       0.000000000      0.1250000000E-01    1389
    18  0.2500000000      0.6000000000       0.000000000      0.1250000000E-01    1400
    19  0.3750000000      0.6000000000       0.000000000      0.1250000000E-01    1401
    20  0.5000000000      0.6000000000       0.000000000      0.6250000000E-02    1402
    21   0.000000000      0.8000000000       0.000000000      0.6250000000E-02    1384
    22  0.1250000000      0.8000000000       0.000000000      0.1250000000E-01    1382
    23  0.2500000000      0.8000000000       0.000000000      0.1250000000E-01    1399
    24  0.3750000000      0.8000000000       0.000000000      0.1250000000E-01    1404
    25  0.5000000000      0.8000000000       0.000000000      0.6250000000E-02    1406
    26   0.000000000       0.000000000      0.2500000000      0.1250000000E-01    1399
    27  0.1250000000       0.000000000      0.2500000000      0.2500000000E-01    1389
    28  0.2500000000       0.000000000      0.2500000000      0.2500000000E-01    1391
    29  0.3750000000       0.000000000      0.2500000000      0.2500000000E-01    1381
    30  0.5000000000       0.000000000      0.2500000000      0.1250000000E-01    1388
    31   0.000000000      0.2000000000      0.2500000000      0.1250000000E-01    1390
    32  0.1250000000      0.2000000000      0.2500000000      0.2500000000E-01    1385
    33  0.2500000000      0.2000000000      0.2500000000      0.2500000000E-01    1393
    34  0.3750000000      0.2000000000      0.2500000000      0.2500000000E-01    1392
    35  0.5000000000      0.2000000000      0.2500000000      0.1250000000E-01    1396
    36   0.000000000      0.4000000000      0.2500000000      0.1250000000E-01    1388
    37  0.1250000000      0.4000000000      0.2500000000      0.2500000000E-01    1390
    38  0.2500000000      0.4000000000      0.2500000000      0.2500000000E-01    1394
    39  0.3750000000      0.4000000000      0.2500000000      0.2500000000E-01    1405
    40  0.5000000000      0.4000000000      0.2500000000      0.1250000000E-01    1402
    41   0.000000000      0.6000000000      0.2500000000      0.1250000000E-01    1388
    42  0.1250000000      0.6000000000      0.2500000000      0.2500000000E-01    1390
    43  0.2500000000      0.6000000000      0.2500000000      0.2500000000E-01    1394
    44  0.3750000000      0.6000000000      0.2500000000      0.2500000000E-01    1405
    45  0.5000000000      0.6000000000      0.2500000000      0.1250000000E-01    1402
    46   0.000000000      0.8000000000      0.2500000000      0.1250000000E-01    1390
    47  0.1250000000      0.8000000000      0.2500000000      0.2500000000E-01    1385
    48  0.2500000000      0.8000000000      0.2500000000      0.2500000000E-01    1393
    49  0.3750000000      0.8000000000      0.2500000000      0.2500000000E-01    1392
    50  0.5000000000      0.8000000000      0.2500000000      0.1250000000E-01    1396
    51   0.000000000       0.000000000      0.5000000000      0.6250000000E-02    1400
    52  0.1250000000       0.000000000      0.5000000000      0.1250000000E-01    1394
    53  0.2500000000       0.000000000      0.5000000000      0.1250000000E-01    1438
    54  0.3750000000       0.000000000      0.5000000000      0.1250000000E-01    1388
    55  0.5000000000       0.000000000      0.5000000000      0.6250000000E-02    1392
    56   0.000000000      0.2000000000      0.5000000000      0.6250000000E-02    1394
    57  0.1250000000      0.2000000000      0.5000000000      0.1250000000E-01    1388
    58  0.2500000000      0.2000000000      0.5000000000      0.1250000000E-01    1400
    59  0.3750000000      0.2000000000      0.5000000000      0.1250000000E-01    1398
    60  0.5000000000      0.2000000000      0.5000000000      0.6250000000E-02    1404
    61   0.000000000      0.4000000000      0.5000000000      0.6250000000E-02    1392
    62  0.1250000000      0.4000000000      0.5000000000      0.1250000000E-01    1392
    63  0.2500000000      0.4000000000      0.5000000000      0.1250000000E-01    1390
    64  0.3750000000      0.4000000000      0.5000000000      0.1250000000E-01    1396
    65  0.5000000000      0.4000000000      0.5000000000      0.6250000000E-02    1408
    66   0.000000000      0.6000000000      0.5000000000      0.6250000000E-02    1392
    67  0.1250000000      0.6000000000      0.5000000000      0.1250000000E-01    1392
    68  0.2500000000      0.6000000000      0.5000000000      0.1250000000E-01    1390
    69  0.3750000000      0.6000000000      0.5000000000      0.1250000000E-01    1396
    70  0.5000000000      0.6000000000      0.5000000000      0.6250000000E-02    1408
    71   0.000000000      0.8000000000      0.5000000000      0.6250000000E-02    1394
    72  0.1250000000      0.8000000000      0.5000000000      0.1250000000E-01    1388
    73  0.2500000000      0.8000000000      0.5000000000      0.1250000000E-01    1400
    74  0.3750000000      0.8000000000      0.5000000000      0.1250000000E-01    1398
    75  0.5000000000      0.8000000000      0.5000000000      0.6250000000E-02    1404
