  0.1075565921E-02
  0.7500832055E-03
  0.4291207940E-03
  0.1852355179E-03
  0.1203720965E-03
  0.8664844405E-04
  0.4741724297E-04
  0.1398379861E-04
  0.2111936513E-05
  0.1223412692E-05
  0.4237590125E-06
  0.2687640619E-07
 
