  0.1076701749E-02
  0.7509837304E-03
  0.4292813926E-03
  0.1854028922E-03
  0.1204558430E-03
  0.8669016848E-04
  0.4728401842E-04
  0.1389479009E-04
  0.2104136957E-05
  0.1206970459E-05
  0.4124660822E-06
  0.2113241031E-07
 
