  0.2268092878E-02
  0.1649470074E-02
  0.4892785931E-03
  0.2751589192E-03
  0.1300173224E-03
  0.8364198812E-04
  0.1163453169E-04
  0.7639986268E-05
  0.8264897837E-06
  0.6196564632E-06
  0.2387462221E-06
 
