   0.000000000       0.000000000     : is =    1, ia =    1, ip =    1
 -0.1792587110      0.1792587110     : is =    1, ia =    1, ip =    2
 -0.3968650734E-01 -0.3968650734E-01 : is =    1, ia =    1, ip =    3
   0.000000000       0.000000000     : is =    1, ia =    2, ip =    1
  0.3854908901       0.000000000     : is =    1, ia =    2, ip =    2
   0.000000000     -0.4942358831E-04 : is =    1, ia =    2, ip =    3
