  0.5440914106     -0.1026435547E-04 : is =    1, ia =    1, ip =    1
 -0.3067038543E-01  0.2981033357E-01 : is =    1, ia =    1, ip =    2
  0.3067038543E-01 -0.2981033357E-01 : is =    1, ia =    1, ip =    3
 -0.1080337205      0.8696412884E-01 : is =    1, ia =    2, ip =    1
 -0.2404906745E-01  0.1324071256E-01 : is =    1, ia =    2, ip =    2
  0.2404906745E-01 -0.1324071256E-01 : is =    1, ia =    2, ip =    3
