  0.4199421662     -0.7083876501E-04 : is =    1, ia =    1, ip =    1
  0.3575544709E-01 -0.2280917722E-04 : is =    1, ia =    1, ip =    2
  0.3575544709E-01 -0.2280917722E-04 : is =    1, ia =    1, ip =    3
 -0.8452751394E-01 -0.2845316213     : is =    1, ia =    2, ip =    1
 -0.1700872186E-01  0.1691294734E-01 : is =    1, ia =    2, ip =    2
 -0.1700872186E-01  0.1691294734E-01 : is =    1, ia =    2, ip =    3
