  0.4477382622       0.000000000     : is =    1, ia =    1, ip =    1
   0.000000000     -0.2794747234E-01 : is =    1, ia =    1, ip =    2
 -0.6250440447E-01   0.000000000     : is =    1, ia =    1, ip =    3
 -0.1805871832       0.000000000     : is =    1, ia =    2, ip =    1
   0.000000000      0.4130605082E-01 : is =    1, ia =    2, ip =    2
 -0.3216932684E-01   0.000000000     : is =    1, ia =    2, ip =    3
