 
+----------------------------+
| Real-space lattice vectors |
+----------------------------+
 
vector a1 :   -3.375995700      -3.375995700       0.000000000    
vector a2 :   -3.375995700       0.000000000       3.375995700    
vector a3 :    3.375995700      -6.751991400       3.375995700    
 
Stored column-wise as a matrix :
  -3.375995700      -3.375995700       3.375995700    
  -3.375995700       0.000000000      -6.751991400    
   0.000000000       3.375995700       3.375995700    
 
Inverse of matrix :
 -0.1481044540     -0.1481044540     -0.1481044540    
 -0.7405222702E-01  0.7405222702E-01  0.2221566811    
  0.7405222702E-01 -0.7405222702E-01  0.7405222702E-01
 
Unit cell volume :    153.9095774    
 
 
+----------------------------------+
| Reciprocal-space lattice vectors |
+----------------------------------+
 
vector b1 :  -0.9305677296     -0.9305677296     -0.9305677296    
vector b2 :  -0.4652838648      0.4652838648       1.395851594    
vector b3 :   0.4652838648     -0.4652838648      0.4652838648    
 
Stored column-wise as a matrix :
 -0.9305677296     -0.4652838648      0.4652838648    
 -0.9305677296      0.4652838648     -0.4652838648    
 -0.9305677296       1.395851594      0.4652838648    
 
Inverse of matrix :
 -0.5373064035     -0.5373064035       0.000000000    
 -0.5373064035       0.000000000      0.5373064035    
  0.5373064035      -1.074612807      0.5373064035    
 
Brillouin zone volume :    1.611661975    
