  24 : nsymcrys
 
Crystal symmetry, Bravais symmetry :    1   1
 inverse operations		     :    1   1
 spatial rotation and inverse (lattice coordinates):
   1   0   0        1   0   0
   0   1   0        0   1   0
   0   0   1        0   0   1
 spatial rotation and inverse (Cartesian coordinates):
   1.000000000       0.000000000       0.000000000            1.000000000       0.000000000       0.000000000    
   0.000000000       1.000000000       0.000000000            0.000000000       1.000000000       0.000000000    
   0.000000000       0.000000000       1.000000000            0.000000000       0.000000000       1.000000000    
 spatial translation and inverse (lattice coordinates) :
   0.000000000       0.000000000       0.000000000            0.000000000       0.000000000       0.000000000    
 spatial translation and inverse (Cartesian coordinates) :
   0.000000000       0.000000000       0.000000000            0.000000000       0.000000000       0.000000000    
 global spin rotation and inverse (lattice coordinates) :
   1   0   0        1   0   0
   0   1   0        0   1   0
   0   0   1        0   0   1
 global spin rotation and inverse (Cartesian coordinates) :
   1.000000000       0.000000000       0.000000000            1.000000000       0.000000000       0.000000000    
   0.000000000       1.000000000       0.000000000            0.000000000       1.000000000       0.000000000    
   0.000000000       0.000000000       1.000000000            0.000000000       0.000000000       1.000000000    
 
Crystal symmetry, Bravais symmetry :    2   2
 inverse operations		     :    3   7
 spatial rotation and inverse (lattice coordinates):
  -1  -1  -1        0   1  -1
   1   0   1       -1  -1   0
   0   0   1        0   0   1
 spatial rotation and inverse (Cartesian coordinates):
   0.000000000       0.000000000       1.000000000            0.000000000      -1.000000000       0.000000000    
  -1.000000000       0.000000000       0.000000000            0.000000000       0.000000000      -1.000000000    
   0.000000000      -1.000000000       0.000000000            1.000000000       0.000000000       0.000000000    
 spatial translation and inverse (lattice coordinates) :
   0.000000000       0.000000000       0.000000000            0.000000000       0.000000000       0.000000000    
 spatial translation and inverse (Cartesian coordinates) :
   0.000000000       0.000000000       0.000000000            0.000000000       0.000000000       0.000000000    
 global spin rotation and inverse (lattice coordinates) :
   1   0   0        1   0   0
   0   1   0        0   1   0
   0   0   1        0   0   1
 global spin rotation and inverse (Cartesian coordinates) :
   1.000000000       0.000000000       0.000000000            1.000000000       0.000000000       0.000000000    
   0.000000000       1.000000000       0.000000000            0.000000000       1.000000000       0.000000000    
   0.000000000       0.000000000       1.000000000            0.000000000       0.000000000       1.000000000    
 
Crystal symmetry, Bravais symmetry :    3   7
 inverse operations		     :    2   2
 spatial rotation and inverse (lattice coordinates):
   0   1  -1       -1  -1  -1
  -1  -1   0        1   0   1
   0   0   1        0   0   1
 spatial rotation and inverse (Cartesian coordinates):
   0.000000000      -1.000000000       0.000000000            0.000000000       0.000000000       1.000000000    
   0.000000000       0.000000000      -1.000000000           -1.000000000       0.000000000       0.000000000    
   1.000000000       0.000000000       0.000000000            0.000000000      -1.000000000       0.000000000    
 spatial translation and inverse (lattice coordinates) :
   0.000000000       0.000000000       0.000000000            0.000000000       0.000000000       0.000000000    
 spatial translation and inverse (Cartesian coordinates) :
   0.000000000       0.000000000       0.000000000            0.000000000       0.000000000       0.000000000    
 global spin rotation and inverse (lattice coordinates) :
   1   0   0        1   0   0
   0   1   0        0   1   0
   0   0   1        0   0   1
 global spin rotation and inverse (Cartesian coordinates) :
   1.000000000       0.000000000       0.000000000            1.000000000       0.000000000       0.000000000    
   0.000000000       1.000000000       0.000000000            0.000000000       1.000000000       0.000000000    
   0.000000000       0.000000000       1.000000000            0.000000000       0.000000000       1.000000000    
 
Crystal symmetry, Bravais symmetry :    4   8
 inverse operations		     :    4   8
 spatial rotation and inverse (lattice coordinates):
   0   1  -1        0   1  -1
   1   0   1        1   0   1
   0   0   1        0   0   1
 spatial rotation and inverse (Cartesian coordinates):
   1.000000000       0.000000000       0.000000000            1.000000000       0.000000000       0.000000000    
   0.000000000       0.000000000      -1.000000000            0.000000000       0.000000000      -1.000000000    
   0.000000000      -1.000000000       0.000000000            0.000000000      -1.000000000       0.000000000    
 spatial translation and inverse (lattice coordinates) :
   0.000000000       0.000000000       0.000000000            0.000000000       0.000000000       0.000000000    
 spatial translation and inverse (Cartesian coordinates) :
   0.000000000       0.000000000       0.000000000            0.000000000       0.000000000       0.000000000    
 global spin rotation and inverse (lattice coordinates) :
   1   0   0        1   0   0
   0   1   0        0   1   0
   0   0   1        0   0   1
 global spin rotation and inverse (Cartesian coordinates) :
   1.000000000       0.000000000       0.000000000            1.000000000       0.000000000       0.000000000    
   0.000000000       1.000000000       0.000000000            0.000000000       1.000000000       0.000000000    
   0.000000000       0.000000000       1.000000000            0.000000000       0.000000000       1.000000000    
 
Crystal symmetry, Bravais symmetry :    5   9
 inverse operations		     :    5   9
 spatial rotation and inverse (lattice coordinates):
   1   0   0        1   0   0
  -1  -1   0       -1  -1   0
   0   0   1        0   0   1
 spatial rotation and inverse (Cartesian coordinates):
   0.000000000       0.000000000       1.000000000            0.000000000       0.000000000       1.000000000    
   0.000000000       1.000000000       0.000000000            0.000000000       1.000000000       0.000000000    
   1.000000000       0.000000000       0.000000000            1.000000000       0.000000000       0.000000000    
 spatial translation and inverse (lattice coordinates) :
   0.000000000       0.000000000       0.000000000            0.000000000       0.000000000       0.000000000    
 spatial translation and inverse (Cartesian coordinates) :
   0.000000000       0.000000000       0.000000000            0.000000000       0.000000000       0.000000000    
 global spin rotation and inverse (lattice coordinates) :
   1   0   0        1   0   0
   0   1   0        0   1   0
   0   0   1        0   0   1
 global spin rotation and inverse (Cartesian coordinates) :
   1.000000000       0.000000000       0.000000000            1.000000000       0.000000000       0.000000000    
   0.000000000       1.000000000       0.000000000            0.000000000       1.000000000       0.000000000    
   0.000000000       0.000000000       1.000000000            0.000000000       0.000000000       1.000000000    
 
Crystal symmetry, Bravais symmetry :    6  10
 inverse operations		     :    6  10
 spatial rotation and inverse (lattice coordinates):
  -1  -1  -1       -1  -1  -1
   0   1   0        0   1   0
   0   0   1        0   0   1
 spatial rotation and inverse (Cartesian coordinates):
   0.000000000      -1.000000000       0.000000000            0.000000000      -1.000000000       0.000000000    
  -1.000000000       0.000000000       0.000000000           -1.000000000       0.000000000       0.000000000    
   0.000000000       0.000000000       1.000000000            0.000000000       0.000000000       1.000000000    
 spatial translation and inverse (lattice coordinates) :
   0.000000000       0.000000000       0.000000000            0.000000000       0.000000000       0.000000000    
 spatial translation and inverse (Cartesian coordinates) :
   0.000000000       0.000000000       0.000000000            0.000000000       0.000000000       0.000000000    
 global spin rotation and inverse (lattice coordinates) :
   1   0   0        1   0   0
   0   1   0        0   1   0
   0   0   1        0   0   1
 global spin rotation and inverse (Cartesian coordinates) :
   1.000000000       0.000000000       0.000000000            1.000000000       0.000000000       0.000000000    
   0.000000000       1.000000000       0.000000000            0.000000000       1.000000000       0.000000000    
   0.000000000       0.000000000       1.000000000            0.000000000       0.000000000       1.000000000    
 
Crystal symmetry, Bravais symmetry :    7   1
 inverse operations		     :    7   1
 spatial rotation and inverse (lattice coordinates):
   1   0   0        1   0   0
   0   1   0        0   1   0
   0   0   1        0   0   1
 spatial rotation and inverse (Cartesian coordinates):
   1.000000000       0.000000000       0.000000000            1.000000000       0.000000000       0.000000000    
   0.000000000       1.000000000       0.000000000            0.000000000       1.000000000       0.000000000    
   0.000000000       0.000000000       1.000000000            0.000000000       0.000000000       1.000000000    
 spatial translation and inverse (lattice coordinates) :
   0.000000000      0.5000000000      0.5000000000            0.000000000      0.5000000000      0.5000000000    
 spatial translation and inverse (Cartesian coordinates) :
   0.000000000      -3.375995700       3.375995700            0.000000000      -3.375995700       3.375995700    
 global spin rotation and inverse (lattice coordinates) :
   1   0   0        1   0   0
   0   1   0        0   1   0
   0   0   1        0   0   1
 global spin rotation and inverse (Cartesian coordinates) :
   1.000000000       0.000000000       0.000000000            1.000000000       0.000000000       0.000000000    
   0.000000000       1.000000000       0.000000000            0.000000000       1.000000000       0.000000000    
   0.000000000       0.000000000       1.000000000            0.000000000       0.000000000       1.000000000    
 
Crystal symmetry, Bravais symmetry :    8   2
 inverse operations		     :    9   7
 spatial rotation and inverse (lattice coordinates):
  -1  -1  -1        0   1  -1
   1   0   1       -1  -1   0
   0   0   1        0   0   1
 spatial rotation and inverse (Cartesian coordinates):
   0.000000000       0.000000000       1.000000000            0.000000000      -1.000000000       0.000000000    
  -1.000000000       0.000000000       0.000000000            0.000000000       0.000000000      -1.000000000    
   0.000000000      -1.000000000       0.000000000            1.000000000       0.000000000       0.000000000    
 spatial translation and inverse (lattice coordinates) :
   0.000000000      0.5000000000      0.5000000000            0.000000000      0.5000000000      0.5000000000    
 spatial translation and inverse (Cartesian coordinates) :
   0.000000000      -3.375995700       3.375995700            0.000000000      -3.375995700       3.375995700    
 global spin rotation and inverse (lattice coordinates) :
   1   0   0        1   0   0
   0   1   0        0   1   0
   0   0   1        0   0   1
 global spin rotation and inverse (Cartesian coordinates) :
   1.000000000       0.000000000       0.000000000            1.000000000       0.000000000       0.000000000    
   0.000000000       1.000000000       0.000000000            0.000000000       1.000000000       0.000000000    
   0.000000000       0.000000000       1.000000000            0.000000000       0.000000000       1.000000000    
 
Crystal symmetry, Bravais symmetry :    9   7
 inverse operations		     :    8   2
 spatial rotation and inverse (lattice coordinates):
   0   1  -1       -1  -1  -1
  -1  -1   0        1   0   1
   0   0   1        0   0   1
 spatial rotation and inverse (Cartesian coordinates):
   0.000000000      -1.000000000       0.000000000            0.000000000       0.000000000       1.000000000    
   0.000000000       0.000000000      -1.000000000           -1.000000000       0.000000000       0.000000000    
   1.000000000       0.000000000       0.000000000            0.000000000      -1.000000000       0.000000000    
 spatial translation and inverse (lattice coordinates) :
   0.000000000      0.5000000000      0.5000000000            0.000000000      0.5000000000      0.5000000000    
 spatial translation and inverse (Cartesian coordinates) :
   0.000000000      -3.375995700       3.375995700            0.000000000      -3.375995700       3.375995700    
 global spin rotation and inverse (lattice coordinates) :
   1   0   0        1   0   0
   0   1   0        0   1   0
   0   0   1        0   0   1
 global spin rotation and inverse (Cartesian coordinates) :
   1.000000000       0.000000000       0.000000000            1.000000000       0.000000000       0.000000000    
   0.000000000       1.000000000       0.000000000            0.000000000       1.000000000       0.000000000    
   0.000000000       0.000000000       1.000000000            0.000000000       0.000000000       1.000000000    
 
Crystal symmetry, Bravais symmetry :   10   8
 inverse operations		     :   10   8
 spatial rotation and inverse (lattice coordinates):
   0   1  -1        0   1  -1
   1   0   1        1   0   1
   0   0   1        0   0   1
 spatial rotation and inverse (Cartesian coordinates):
   1.000000000       0.000000000       0.000000000            1.000000000       0.000000000       0.000000000    
   0.000000000       0.000000000      -1.000000000            0.000000000       0.000000000      -1.000000000    
   0.000000000      -1.000000000       0.000000000            0.000000000      -1.000000000       0.000000000    
 spatial translation and inverse (lattice coordinates) :
   0.000000000      0.5000000000      0.5000000000            0.000000000      0.5000000000      0.5000000000    
 spatial translation and inverse (Cartesian coordinates) :
   0.000000000      -3.375995700       3.375995700            0.000000000      -3.375995700       3.375995700    
 global spin rotation and inverse (lattice coordinates) :
   1   0   0        1   0   0
   0   1   0        0   1   0
   0   0   1        0   0   1
 global spin rotation and inverse (Cartesian coordinates) :
   1.000000000       0.000000000       0.000000000            1.000000000       0.000000000       0.000000000    
   0.000000000       1.000000000       0.000000000            0.000000000       1.000000000       0.000000000    
   0.000000000       0.000000000       1.000000000            0.000000000       0.000000000       1.000000000    
 
Crystal symmetry, Bravais symmetry :   11   9
 inverse operations		     :   11   9
 spatial rotation and inverse (lattice coordinates):
   1   0   0        1   0   0
  -1  -1   0       -1  -1   0
   0   0   1        0   0   1
 spatial rotation and inverse (Cartesian coordinates):
   0.000000000       0.000000000       1.000000000            0.000000000       0.000000000       1.000000000    
   0.000000000       1.000000000       0.000000000            0.000000000       1.000000000       0.000000000    
   1.000000000       0.000000000       0.000000000            1.000000000       0.000000000       0.000000000    
 spatial translation and inverse (lattice coordinates) :
   0.000000000      0.5000000000      0.5000000000            0.000000000      0.5000000000      0.5000000000    
 spatial translation and inverse (Cartesian coordinates) :
   0.000000000      -3.375995700       3.375995700            0.000000000      -3.375995700       3.375995700    
 global spin rotation and inverse (lattice coordinates) :
   1   0   0        1   0   0
   0   1   0        0   1   0
   0   0   1        0   0   1
 global spin rotation and inverse (Cartesian coordinates) :
   1.000000000       0.000000000       0.000000000            1.000000000       0.000000000       0.000000000    
   0.000000000       1.000000000       0.000000000            0.000000000       1.000000000       0.000000000    
   0.000000000       0.000000000       1.000000000            0.000000000       0.000000000       1.000000000    
 
Crystal symmetry, Bravais symmetry :   12  10
 inverse operations		     :   12  10
 spatial rotation and inverse (lattice coordinates):
  -1  -1  -1       -1  -1  -1
   0   1   0        0   1   0
   0   0   1        0   0   1
 spatial rotation and inverse (Cartesian coordinates):
   0.000000000      -1.000000000       0.000000000            0.000000000      -1.000000000       0.000000000    
  -1.000000000       0.000000000       0.000000000           -1.000000000       0.000000000       0.000000000    
   0.000000000       0.000000000       1.000000000            0.000000000       0.000000000       1.000000000    
 spatial translation and inverse (lattice coordinates) :
   0.000000000      0.5000000000      0.5000000000            0.000000000      0.5000000000      0.5000000000    
 spatial translation and inverse (Cartesian coordinates) :
   0.000000000      -3.375995700       3.375995700            0.000000000      -3.375995700       3.375995700    
 global spin rotation and inverse (lattice coordinates) :
   1   0   0        1   0   0
   0   1   0        0   1   0
   0   0   1        0   0   1
 global spin rotation and inverse (Cartesian coordinates) :
   1.000000000       0.000000000       0.000000000            1.000000000       0.000000000       0.000000000    
   0.000000000       1.000000000       0.000000000            0.000000000       1.000000000       0.000000000    
   0.000000000       0.000000000       1.000000000            0.000000000       0.000000000       1.000000000    
 
Crystal symmetry, Bravais symmetry :   13   3
 inverse operations		     :   13   3
 spatial rotation and inverse (lattice coordinates):
  -1   0   0       -1   0   0
   0  -1   0        0  -1   0
   0   0  -1        0   0  -1
 spatial rotation and inverse (Cartesian coordinates):
  -1.000000000       0.000000000       0.000000000           -1.000000000       0.000000000       0.000000000    
   0.000000000      -1.000000000       0.000000000            0.000000000      -1.000000000       0.000000000    
   0.000000000       0.000000000      -1.000000000            0.000000000       0.000000000      -1.000000000    
 spatial translation and inverse (lattice coordinates) :
  0.7500000000      0.6250000000      0.8750000000           0.7500000000      0.6250000000      0.8750000000    
 spatial translation and inverse (Cartesian coordinates) :
  -1.687997850      -8.439989250       5.063993550           -1.687997850      -8.439989250       5.063993550    
 global spin rotation and inverse (lattice coordinates) :
   1   0   0        1   0   0
   0   1   0        0   1   0
   0   0   1        0   0   1
 global spin rotation and inverse (Cartesian coordinates) :
   1.000000000       0.000000000       0.000000000            1.000000000       0.000000000       0.000000000    
   0.000000000       1.000000000       0.000000000            0.000000000       1.000000000       0.000000000    
   0.000000000       0.000000000       1.000000000            0.000000000       0.000000000       1.000000000    
 
Crystal symmetry, Bravais symmetry :   14   4
 inverse operations		     :   14   4
 spatial rotation and inverse (lattice coordinates):
  -1   0   0       -1   0   0
   1   1   0        1   1   0
   0   0  -1        0   0  -1
 spatial rotation and inverse (Cartesian coordinates):
   0.000000000       0.000000000      -1.000000000            0.000000000       0.000000000      -1.000000000    
   0.000000000      -1.000000000       0.000000000            0.000000000      -1.000000000       0.000000000    
  -1.000000000       0.000000000       0.000000000           -1.000000000       0.000000000       0.000000000    
 spatial translation and inverse (lattice coordinates) :
  0.7500000000      0.6250000000      0.8750000000           0.7500000000      0.6250000000      0.8750000000    
 spatial translation and inverse (Cartesian coordinates) :
  -1.687997850      -8.439989250       5.063993550           -1.687997850      -8.439989250       5.063993550    
 global spin rotation and inverse (lattice coordinates) :
   1   0   0        1   0   0
   0   1   0        0   1   0
   0   0   1        0   0   1
 global spin rotation and inverse (Cartesian coordinates) :
   1.000000000       0.000000000       0.000000000            1.000000000       0.000000000       0.000000000    
   0.000000000       1.000000000       0.000000000            0.000000000       1.000000000       0.000000000    
   0.000000000       0.000000000       1.000000000            0.000000000       0.000000000       1.000000000    
 
Crystal symmetry, Bravais symmetry :   15   5
 inverse operations		     :   15   5
 spatial rotation and inverse (lattice coordinates):
   0  -1   1        0  -1   1
  -1   0  -1       -1   0  -1
   0   0  -1        0   0  -1
 spatial rotation and inverse (Cartesian coordinates):
  -1.000000000       0.000000000       0.000000000           -1.000000000       0.000000000       0.000000000    
   0.000000000       0.000000000       1.000000000            0.000000000       0.000000000       1.000000000    
   0.000000000       1.000000000       0.000000000            0.000000000       1.000000000       0.000000000    
 spatial translation and inverse (lattice coordinates) :
  0.7500000000      0.6250000000      0.8750000000           0.7500000000      0.6250000000      0.8750000000    
 spatial translation and inverse (Cartesian coordinates) :
  -1.687997850      -8.439989250       5.063993550           -1.687997850      -8.439989250       5.063993550    
 global spin rotation and inverse (lattice coordinates) :
   1   0   0        1   0   0
   0   1   0        0   1   0
   0   0   1        0   0   1
 global spin rotation and inverse (Cartesian coordinates) :
   1.000000000       0.000000000       0.000000000            1.000000000       0.000000000       0.000000000    
   0.000000000       1.000000000       0.000000000            0.000000000       1.000000000       0.000000000    
   0.000000000       0.000000000       1.000000000            0.000000000       0.000000000       1.000000000    
 
Crystal symmetry, Bravais symmetry :   16   6
 inverse operations		     :   17  11
 spatial rotation and inverse (lattice coordinates):
   0  -1   1        1   1   1
   1   1   0       -1   0  -1
   0   0  -1        0   0  -1
 spatial rotation and inverse (Cartesian coordinates):
   0.000000000       1.000000000       0.000000000            0.000000000       0.000000000      -1.000000000    
   0.000000000       0.000000000       1.000000000            1.000000000       0.000000000       0.000000000    
  -1.000000000       0.000000000       0.000000000            0.000000000       1.000000000       0.000000000    
 spatial translation and inverse (lattice coordinates) :
  0.7500000000      0.6250000000      0.8750000000           0.7500000000      0.6250000000      0.8750000000    
 spatial translation and inverse (Cartesian coordinates) :
  -1.687997850      -8.439989250       5.063993550           -1.687997850      -8.439989250       5.063993550    
 global spin rotation and inverse (lattice coordinates) :
   1   0   0        1   0   0
   0   1   0        0   1   0
   0   0   1        0   0   1
 global spin rotation and inverse (Cartesian coordinates) :
   1.000000000       0.000000000       0.000000000            1.000000000       0.000000000       0.000000000    
   0.000000000       1.000000000       0.000000000            0.000000000       1.000000000       0.000000000    
   0.000000000       0.000000000       1.000000000            0.000000000       0.000000000       1.000000000    
 
Crystal symmetry, Bravais symmetry :   17  11
 inverse operations		     :   16   6
 spatial rotation and inverse (lattice coordinates):
   1   1   1        0  -1   1
  -1   0  -1        1   1   0
   0   0  -1        0   0  -1
 spatial rotation and inverse (Cartesian coordinates):
   0.000000000       0.000000000      -1.000000000            0.000000000       1.000000000       0.000000000    
   1.000000000       0.000000000       0.000000000            0.000000000       0.000000000       1.000000000    
   0.000000000       1.000000000       0.000000000           -1.000000000       0.000000000       0.000000000    
 spatial translation and inverse (lattice coordinates) :
  0.7500000000      0.6250000000      0.8750000000           0.7500000000      0.6250000000      0.8750000000    
 spatial translation and inverse (Cartesian coordinates) :
  -1.687997850      -8.439989250       5.063993550           -1.687997850      -8.439989250       5.063993550    
 global spin rotation and inverse (lattice coordinates) :
   1   0   0        1   0   0
   0   1   0        0   1   0
   0   0   1        0   0   1
 global spin rotation and inverse (Cartesian coordinates) :
   1.000000000       0.000000000       0.000000000            1.000000000       0.000000000       0.000000000    
   0.000000000       1.000000000       0.000000000            0.000000000       1.000000000       0.000000000    
   0.000000000       0.000000000       1.000000000            0.000000000       0.000000000       1.000000000    
 
Crystal symmetry, Bravais symmetry :   18  12
 inverse operations		     :   18  12
 spatial rotation and inverse (lattice coordinates):
   1   1   1        1   1   1
   0  -1   0        0  -1   0
   0   0  -1        0   0  -1
 spatial rotation and inverse (Cartesian coordinates):
   0.000000000       1.000000000       0.000000000            0.000000000       1.000000000       0.000000000    
   1.000000000       0.000000000       0.000000000            1.000000000       0.000000000       0.000000000    
   0.000000000       0.000000000      -1.000000000            0.000000000       0.000000000      -1.000000000    
 spatial translation and inverse (lattice coordinates) :
  0.7500000000      0.6250000000      0.8750000000           0.7500000000      0.6250000000      0.8750000000    
 spatial translation and inverse (Cartesian coordinates) :
  -1.687997850      -8.439989250       5.063993550           -1.687997850      -8.439989250       5.063993550    
 global spin rotation and inverse (lattice coordinates) :
   1   0   0        1   0   0
   0   1   0        0   1   0
   0   0   1        0   0   1
 global spin rotation and inverse (Cartesian coordinates) :
   1.000000000       0.000000000       0.000000000            1.000000000       0.000000000       0.000000000    
   0.000000000       1.000000000       0.000000000            0.000000000       1.000000000       0.000000000    
   0.000000000       0.000000000       1.000000000            0.000000000       0.000000000       1.000000000    
 
Crystal symmetry, Bravais symmetry :   19   3
 inverse operations		     :   19   3
 spatial rotation and inverse (lattice coordinates):
  -1   0   0       -1   0   0
   0  -1   0        0  -1   0
   0   0  -1        0   0  -1
 spatial rotation and inverse (Cartesian coordinates):
  -1.000000000       0.000000000       0.000000000           -1.000000000       0.000000000       0.000000000    
   0.000000000      -1.000000000       0.000000000            0.000000000      -1.000000000       0.000000000    
   0.000000000       0.000000000      -1.000000000            0.000000000       0.000000000      -1.000000000    
 spatial translation and inverse (lattice coordinates) :
  0.7500000000      0.1250000000      0.3750000000           0.7500000000      0.1250000000      0.3750000000    
 spatial translation and inverse (Cartesian coordinates) :
  -1.687997850      -5.063993550       1.687997850           -1.687997850      -5.063993550       1.687997850    
 global spin rotation and inverse (lattice coordinates) :
   1   0   0        1   0   0
   0   1   0        0   1   0
   0   0   1        0   0   1
 global spin rotation and inverse (Cartesian coordinates) :
   1.000000000       0.000000000       0.000000000            1.000000000       0.000000000       0.000000000    
   0.000000000       1.000000000       0.000000000            0.000000000       1.000000000       0.000000000    
   0.000000000       0.000000000       1.000000000            0.000000000       0.000000000       1.000000000    
 
Crystal symmetry, Bravais symmetry :   20   4
 inverse operations		     :   20   4
 spatial rotation and inverse (lattice coordinates):
  -1   0   0       -1   0   0
   1   1   0        1   1   0
   0   0  -1        0   0  -1
 spatial rotation and inverse (Cartesian coordinates):
   0.000000000       0.000000000      -1.000000000            0.000000000       0.000000000      -1.000000000    
   0.000000000      -1.000000000       0.000000000            0.000000000      -1.000000000       0.000000000    
  -1.000000000       0.000000000       0.000000000           -1.000000000       0.000000000       0.000000000    
 spatial translation and inverse (lattice coordinates) :
  0.7500000000      0.1250000000      0.3750000000           0.7500000000      0.1250000000      0.3750000000    
 spatial translation and inverse (Cartesian coordinates) :
  -1.687997850      -5.063993550       1.687997850           -1.687997850      -5.063993550       1.687997850    
 global spin rotation and inverse (lattice coordinates) :
   1   0   0        1   0   0
   0   1   0        0   1   0
   0   0   1        0   0   1
 global spin rotation and inverse (Cartesian coordinates) :
   1.000000000       0.000000000       0.000000000            1.000000000       0.000000000       0.000000000    
   0.000000000       1.000000000       0.000000000            0.000000000       1.000000000       0.000000000    
   0.000000000       0.000000000       1.000000000            0.000000000       0.000000000       1.000000000    
 
Crystal symmetry, Bravais symmetry :   21   5
 inverse operations		     :   21   5
 spatial rotation and inverse (lattice coordinates):
   0  -1   1        0  -1   1
  -1   0  -1       -1   0  -1
   0   0  -1        0   0  -1
 spatial rotation and inverse (Cartesian coordinates):
  -1.000000000       0.000000000       0.000000000           -1.000000000       0.000000000       0.000000000    
   0.000000000       0.000000000       1.000000000            0.000000000       0.000000000       1.000000000    
   0.000000000       1.000000000       0.000000000            0.000000000       1.000000000       0.000000000    
 spatial translation and inverse (lattice coordinates) :
  0.7500000000      0.1250000000      0.3750000000           0.7500000000      0.1250000000      0.3750000000    
 spatial translation and inverse (Cartesian coordinates) :
  -1.687997850      -5.063993550       1.687997850           -1.687997850      -5.063993550       1.687997850    
 global spin rotation and inverse (lattice coordinates) :
   1   0   0        1   0   0
   0   1   0        0   1   0
   0   0   1        0   0   1
 global spin rotation and inverse (Cartesian coordinates) :
   1.000000000       0.000000000       0.000000000            1.000000000       0.000000000       0.000000000    
   0.000000000       1.000000000       0.000000000            0.000000000       1.000000000       0.000000000    
   0.000000000       0.000000000       1.000000000            0.000000000       0.000000000       1.000000000    
 
Crystal symmetry, Bravais symmetry :   22   6
 inverse operations		     :   23  11
 spatial rotation and inverse (lattice coordinates):
   0  -1   1        1   1   1
   1   1   0       -1   0  -1
   0   0  -1        0   0  -1
 spatial rotation and inverse (Cartesian coordinates):
   0.000000000       1.000000000       0.000000000            0.000000000       0.000000000      -1.000000000    
   0.000000000       0.000000000       1.000000000            1.000000000       0.000000000       0.000000000    
  -1.000000000       0.000000000       0.000000000            0.000000000       1.000000000       0.000000000    
 spatial translation and inverse (lattice coordinates) :
  0.7500000000      0.1250000000      0.3750000000           0.7500000000      0.1250000000      0.3750000000    
 spatial translation and inverse (Cartesian coordinates) :
  -1.687997850      -5.063993550       1.687997850           -1.687997850      -5.063993550       1.687997850    
 global spin rotation and inverse (lattice coordinates) :
   1   0   0        1   0   0
   0   1   0        0   1   0
   0   0   1        0   0   1
 global spin rotation and inverse (Cartesian coordinates) :
   1.000000000       0.000000000       0.000000000            1.000000000       0.000000000       0.000000000    
   0.000000000       1.000000000       0.000000000            0.000000000       1.000000000       0.000000000    
   0.000000000       0.000000000       1.000000000            0.000000000       0.000000000       1.000000000    
 
Crystal symmetry, Bravais symmetry :   23  11
 inverse operations		     :   22   6
 spatial rotation and inverse (lattice coordinates):
   1   1   1        0  -1   1
  -1   0  -1        1   1   0
   0   0  -1        0   0  -1
 spatial rotation and inverse (Cartesian coordinates):
   0.000000000       0.000000000      -1.000000000            0.000000000       1.000000000       0.000000000    
   1.000000000       0.000000000       0.000000000            0.000000000       0.000000000       1.000000000    
   0.000000000       1.000000000       0.000000000           -1.000000000       0.000000000       0.000000000    
 spatial translation and inverse (lattice coordinates) :
  0.7500000000      0.1250000000      0.3750000000           0.7500000000      0.1250000000      0.3750000000    
 spatial translation and inverse (Cartesian coordinates) :
  -1.687997850      -5.063993550       1.687997850           -1.687997850      -5.063993550       1.687997850    
 global spin rotation and inverse (lattice coordinates) :
   1   0   0        1   0   0
   0   1   0        0   1   0
   0   0   1        0   0   1
 global spin rotation and inverse (Cartesian coordinates) :
   1.000000000       0.000000000       0.000000000            1.000000000       0.000000000       0.000000000    
   0.000000000       1.000000000       0.000000000            0.000000000       1.000000000       0.000000000    
   0.000000000       0.000000000       1.000000000            0.000000000       0.000000000       1.000000000    
 
Crystal symmetry, Bravais symmetry :   24  12
 inverse operations		     :   24  12
 spatial rotation and inverse (lattice coordinates):
   1   1   1        1   1   1
   0  -1   0        0  -1   0
   0   0  -1        0   0  -1
 spatial rotation and inverse (Cartesian coordinates):
   0.000000000       1.000000000       0.000000000            0.000000000       1.000000000       0.000000000    
   1.000000000       0.000000000       0.000000000            1.000000000       0.000000000       0.000000000    
   0.000000000       0.000000000      -1.000000000            0.000000000       0.000000000      -1.000000000    
 spatial translation and inverse (lattice coordinates) :
  0.7500000000      0.1250000000      0.3750000000           0.7500000000      0.1250000000      0.3750000000    
 spatial translation and inverse (Cartesian coordinates) :
  -1.687997850      -5.063993550       1.687997850           -1.687997850      -5.063993550       1.687997850    
 global spin rotation and inverse (lattice coordinates) :
   1   0   0        1   0   0
   0   1   0        0   1   0
   0   0   1        0   0   1
 global spin rotation and inverse (Cartesian coordinates) :
   1.000000000       0.000000000       0.000000000            1.000000000       0.000000000       0.000000000    
   0.000000000       1.000000000       0.000000000            0.000000000       1.000000000       0.000000000    
   0.000000000       0.000000000       1.000000000            0.000000000       0.000000000       1.000000000    
