   200 : nkpt; k-point, vkl, wkpt, nmat below
     1   0.000000000       0.000000000       0.000000000      0.5000000000E-02    1399
     2  0.1250000000       0.000000000       0.000000000      0.5000000000E-02    1390
     3  0.2500000000       0.000000000       0.000000000      0.5000000000E-02    1405
     4  0.3750000000       0.000000000       0.000000000      0.5000000000E-02    1407
     5  0.5000000000       0.000000000       0.000000000      0.5000000000E-02    1398
     6  0.6250000000       0.000000000       0.000000000      0.5000000000E-02    1407
     7  0.7500000000       0.000000000       0.000000000      0.5000000000E-02    1405
     8  0.8750000000       0.000000000       0.000000000      0.5000000000E-02    1390
     9   0.000000000      0.2000000000       0.000000000      0.5000000000E-02    1393
    10  0.1250000000      0.2000000000       0.000000000      0.5000000000E-02    1391
    11  0.2500000000      0.2000000000       0.000000000      0.5000000000E-02    1398
    12  0.3750000000      0.2000000000       0.000000000      0.5000000000E-02    1404
    13  0.5000000000      0.2000000000       0.000000000      0.5000000000E-02    1401
    14  0.6250000000      0.2000000000       0.000000000      0.5000000000E-02    1402
    15  0.7500000000      0.2000000000       0.000000000      0.5000000000E-02    1400
    16  0.8750000000      0.2000000000       0.000000000      0.5000000000E-02    1390
    17   0.000000000      0.4000000000       0.000000000      0.5000000000E-02    1401
    18  0.1250000000      0.4000000000       0.000000000      0.5000000000E-02    1392
    19  0.2500000000      0.4000000000       0.000000000      0.5000000000E-02    1396
    20  0.3750000000      0.4000000000       0.000000000      0.5000000000E-02    1399
    21  0.5000000000      0.4000000000       0.000000000      0.5000000000E-02    1396
    22  0.6250000000      0.4000000000       0.000000000      0.5000000000E-02    1400
    23  0.7500000000      0.4000000000       0.000000000      0.5000000000E-02    1397
    24  0.8750000000      0.4000000000       0.000000000      0.5000000000E-02    1395
    25   0.000000000      0.6000000000       0.000000000      0.5000000000E-02    1401
    26  0.1250000000      0.6000000000       0.000000000      0.5000000000E-02    1395
    27  0.2500000000      0.6000000000       0.000000000      0.5000000000E-02    1397
    28  0.3750000000      0.6000000000       0.000000000      0.5000000000E-02    1400
    29  0.5000000000      0.6000000000       0.000000000      0.5000000000E-02    1396
    30  0.6250000000      0.6000000000       0.000000000      0.5000000000E-02    1399
    31  0.7500000000      0.6000000000       0.000000000      0.5000000000E-02    1396
    32  0.8750000000      0.6000000000       0.000000000      0.5000000000E-02    1392
    33   0.000000000      0.8000000000       0.000000000      0.5000000000E-02    1393
    34  0.1250000000      0.8000000000       0.000000000      0.5000000000E-02    1390
    35  0.2500000000      0.8000000000       0.000000000      0.5000000000E-02    1400
    36  0.3750000000      0.8000000000       0.000000000      0.5000000000E-02    1402
    37  0.5000000000      0.8000000000       0.000000000      0.5000000000E-02    1401
    38  0.6250000000      0.8000000000       0.000000000      0.5000000000E-02    1404
    39  0.7500000000      0.8000000000       0.000000000      0.5000000000E-02    1398
    40  0.8750000000      0.8000000000       0.000000000      0.5000000000E-02    1391
    41   0.000000000       0.000000000      0.2000000000      0.5000000000E-02    1392
    42  0.1250000000       0.000000000      0.2000000000      0.5000000000E-02    1397
    43  0.2500000000       0.000000000      0.2000000000      0.5000000000E-02    1401
    44  0.3750000000       0.000000000      0.2000000000      0.5000000000E-02    1402
    45  0.5000000000       0.000000000      0.2000000000      0.5000000000E-02    1402
    46  0.6250000000       0.000000000      0.2000000000      0.5000000000E-02    1393
    47  0.7500000000       0.000000000      0.2000000000      0.5000000000E-02    1397
    48  0.8750000000       0.000000000      0.2000000000      0.5000000000E-02    1396
    49   0.000000000      0.2000000000      0.2000000000      0.5000000000E-02    1387
    50  0.1250000000      0.2000000000      0.2000000000      0.5000000000E-02    1391
    51  0.2500000000      0.2000000000      0.2000000000      0.5000000000E-02    1401
    52  0.3750000000      0.2000000000      0.2000000000      0.5000000000E-02    1403
    53  0.5000000000      0.2000000000      0.2000000000      0.5000000000E-02    1402
    54  0.6250000000      0.2000000000      0.2000000000      0.5000000000E-02    1395
    55  0.7500000000      0.2000000000      0.2000000000      0.5000000000E-02    1403
    56  0.8750000000      0.2000000000      0.2000000000      0.5000000000E-02    1387
    57   0.000000000      0.4000000000      0.2000000000      0.5000000000E-02    1387
    58  0.1250000000      0.4000000000      0.2000000000      0.5000000000E-02    1391
    59  0.2500000000      0.4000000000      0.2000000000      0.5000000000E-02    1400
    60  0.3750000000      0.4000000000      0.2000000000      0.5000000000E-02    1403
    61  0.5000000000      0.4000000000      0.2000000000      0.5000000000E-02    1398
    62  0.6250000000      0.4000000000      0.2000000000      0.5000000000E-02    1389
    63  0.7500000000      0.4000000000      0.2000000000      0.5000000000E-02    1386
    64  0.8750000000      0.4000000000      0.2000000000      0.5000000000E-02    1386
    65   0.000000000      0.6000000000      0.2000000000      0.5000000000E-02    1402
    66  0.1250000000      0.6000000000      0.2000000000      0.5000000000E-02    1391
    67  0.2500000000      0.6000000000      0.2000000000      0.5000000000E-02    1401
    68  0.3750000000      0.6000000000      0.2000000000      0.5000000000E-02    1401
    69  0.5000000000      0.6000000000      0.2000000000      0.5000000000E-02    1399
    70  0.6250000000      0.6000000000      0.2000000000      0.5000000000E-02    1390
    71  0.7500000000      0.6000000000      0.2000000000      0.5000000000E-02    1392
    72  0.8750000000      0.6000000000      0.2000000000      0.5000000000E-02    1385
    73   0.000000000      0.8000000000      0.2000000000      0.5000000000E-02    1390
    74  0.1250000000      0.8000000000      0.2000000000      0.5000000000E-02    1392
    75  0.2500000000      0.8000000000      0.2000000000      0.5000000000E-02    1396
    76  0.3750000000      0.8000000000      0.2000000000      0.5000000000E-02    1408
    77  0.5000000000      0.8000000000      0.2000000000      0.5000000000E-02    1397
    78  0.6250000000      0.8000000000      0.2000000000      0.5000000000E-02    1395
    79  0.7500000000      0.8000000000      0.2000000000      0.5000000000E-02    1391
    80  0.8750000000      0.8000000000      0.2000000000      0.5000000000E-02    1389
    81   0.000000000       0.000000000      0.4000000000      0.5000000000E-02    1390
    82  0.1250000000       0.000000000      0.4000000000      0.5000000000E-02    1394
    83  0.2500000000       0.000000000      0.4000000000      0.5000000000E-02    1392
    84  0.3750000000       0.000000000      0.4000000000      0.5000000000E-02    1406
    85  0.5000000000       0.000000000      0.4000000000      0.5000000000E-02    1402
    86  0.6250000000       0.000000000      0.4000000000      0.5000000000E-02    1394
    87  0.7500000000       0.000000000      0.4000000000      0.5000000000E-02    1397
    88  0.8750000000       0.000000000      0.4000000000      0.5000000000E-02    1395
    89   0.000000000      0.2000000000      0.4000000000      0.5000000000E-02    1379
    90  0.1250000000      0.2000000000      0.4000000000      0.5000000000E-02    1389
    91  0.2500000000      0.2000000000      0.4000000000      0.5000000000E-02    1401
    92  0.3750000000      0.2000000000      0.4000000000      0.5000000000E-02    1398
    93  0.5000000000      0.2000000000      0.4000000000      0.5000000000E-02    1396
    94  0.6250000000      0.2000000000      0.4000000000      0.5000000000E-02    1397
    95  0.7500000000      0.2000000000      0.4000000000      0.5000000000E-02    1390
    96  0.8750000000      0.2000000000      0.4000000000      0.5000000000E-02    1382
    97   0.000000000      0.4000000000      0.4000000000      0.5000000000E-02    1377
    98  0.1250000000      0.4000000000      0.4000000000      0.5000000000E-02    1380
    99  0.2500000000      0.4000000000      0.4000000000      0.5000000000E-02    1387
   100  0.3750000000      0.4000000000      0.4000000000      0.5000000000E-02    1400
   101  0.5000000000      0.4000000000      0.4000000000      0.5000000000E-02    1398
   102  0.6250000000      0.4000000000      0.4000000000      0.5000000000E-02    1388
   103  0.7500000000      0.4000000000      0.4000000000      0.5000000000E-02    1382
   104  0.8750000000      0.4000000000      0.4000000000      0.5000000000E-02    1377
   105   0.000000000      0.6000000000      0.4000000000      0.5000000000E-02    1381
   106  0.1250000000      0.6000000000      0.4000000000      0.5000000000E-02    1387
   107  0.2500000000      0.6000000000      0.4000000000      0.5000000000E-02    1392
   108  0.3750000000      0.6000000000      0.4000000000      0.5000000000E-02    1404
   109  0.5000000000      0.6000000000      0.4000000000      0.5000000000E-02    1402
   110  0.6250000000      0.6000000000      0.4000000000      0.5000000000E-02    1389
   111  0.7500000000      0.6000000000      0.4000000000      0.5000000000E-02    1384
   112  0.8750000000      0.6000000000      0.4000000000      0.5000000000E-02    1380
   113   0.000000000      0.8000000000      0.4000000000      0.5000000000E-02    1391
   114  0.1250000000      0.8000000000      0.4000000000      0.5000000000E-02    1385
   115  0.2500000000      0.8000000000      0.4000000000      0.5000000000E-02    1393
   116  0.3750000000      0.8000000000      0.4000000000      0.5000000000E-02    1401
   117  0.5000000000      0.8000000000      0.4000000000      0.5000000000E-02    1402
   118  0.6250000000      0.8000000000      0.4000000000      0.5000000000E-02    1397
   119  0.7500000000      0.8000000000      0.4000000000      0.5000000000E-02    1390
   120  0.8750000000      0.8000000000      0.4000000000      0.5000000000E-02    1385
   121   0.000000000       0.000000000      0.6000000000      0.5000000000E-02    1390
   122  0.1250000000       0.000000000      0.6000000000      0.5000000000E-02    1395
   123  0.2500000000       0.000000000      0.6000000000      0.5000000000E-02    1397
   124  0.3750000000       0.000000000      0.6000000000      0.5000000000E-02    1394
   125  0.5000000000       0.000000000      0.6000000000      0.5000000000E-02    1402
   126  0.6250000000       0.000000000      0.6000000000      0.5000000000E-02    1406
   127  0.7500000000       0.000000000      0.6000000000      0.5000000000E-02    1392
   128  0.8750000000       0.000000000      0.6000000000      0.5000000000E-02    1394
   129   0.000000000      0.2000000000      0.6000000000      0.5000000000E-02    1391
   130  0.1250000000      0.2000000000      0.6000000000      0.5000000000E-02    1385
   131  0.2500000000      0.2000000000      0.6000000000      0.5000000000E-02    1390
   132  0.3750000000      0.2000000000      0.6000000000      0.5000000000E-02    1397
   133  0.5000000000      0.2000000000      0.6000000000      0.5000000000E-02    1402
   134  0.6250000000      0.2000000000      0.6000000000      0.5000000000E-02    1401
   135  0.7500000000      0.2000000000      0.6000000000      0.5000000000E-02    1393
   136  0.8750000000      0.2000000000      0.6000000000      0.5000000000E-02    1385
   137   0.000000000      0.4000000000      0.6000000000      0.5000000000E-02    1381
   138  0.1250000000      0.4000000000      0.6000000000      0.5000000000E-02    1380
   139  0.2500000000      0.4000000000      0.6000000000      0.5000000000E-02    1384
   140  0.3750000000      0.4000000000      0.6000000000      0.5000000000E-02    1389
   141  0.5000000000      0.4000000000      0.6000000000      0.5000000000E-02    1402
   142  0.6250000000      0.4000000000      0.6000000000      0.5000000000E-02    1404
   143  0.7500000000      0.4000000000      0.6000000000      0.5000000000E-02    1392
   144  0.8750000000      0.4000000000      0.6000000000      0.5000000000E-02    1387
   145   0.000000000      0.6000000000      0.6000000000      0.5000000000E-02    1377
   146  0.1250000000      0.6000000000      0.6000000000      0.5000000000E-02    1377
   147  0.2500000000      0.6000000000      0.6000000000      0.5000000000E-02    1382
   148  0.3750000000      0.6000000000      0.6000000000      0.5000000000E-02    1388
   149  0.5000000000      0.6000000000      0.6000000000      0.5000000000E-02    1398
   150  0.6250000000      0.6000000000      0.6000000000      0.5000000000E-02    1400
   151  0.7500000000      0.6000000000      0.6000000000      0.5000000000E-02    1387
   152  0.8750000000      0.6000000000      0.6000000000      0.5000000000E-02    1380
   153   0.000000000      0.8000000000      0.6000000000      0.5000000000E-02    1379
   154  0.1250000000      0.8000000000      0.6000000000      0.5000000000E-02    1382
   155  0.2500000000      0.8000000000      0.6000000000      0.5000000000E-02    1390
   156  0.3750000000      0.8000000000      0.6000000000      0.5000000000E-02    1397
   157  0.5000000000      0.8000000000      0.6000000000      0.5000000000E-02    1396
   158  0.6250000000      0.8000000000      0.6000000000      0.5000000000E-02    1398
   159  0.7500000000      0.8000000000      0.6000000000      0.5000000000E-02    1401
   160  0.8750000000      0.8000000000      0.6000000000      0.5000000000E-02    1389
   161   0.000000000       0.000000000      0.8000000000      0.5000000000E-02    1392
   162  0.1250000000       0.000000000      0.8000000000      0.5000000000E-02    1396
   163  0.2500000000       0.000000000      0.8000000000      0.5000000000E-02    1397
   164  0.3750000000       0.000000000      0.8000000000      0.5000000000E-02    1393
   165  0.5000000000       0.000000000      0.8000000000      0.5000000000E-02    1402
   166  0.6250000000       0.000000000      0.8000000000      0.5000000000E-02    1402
   167  0.7500000000       0.000000000      0.8000000000      0.5000000000E-02    1401
   168  0.8750000000       0.000000000      0.8000000000      0.5000000000E-02    1397
   169   0.000000000      0.2000000000      0.8000000000      0.5000000000E-02    1390
   170  0.1250000000      0.2000000000      0.8000000000      0.5000000000E-02    1389
   171  0.2500000000      0.2000000000      0.8000000000      0.5000000000E-02    1391
   172  0.3750000000      0.2000000000      0.8000000000      0.5000000000E-02    1395
   173  0.5000000000      0.2000000000      0.8000000000      0.5000000000E-02    1397
   174  0.6250000000      0.2000000000      0.8000000000      0.5000000000E-02    1408
   175  0.7500000000      0.2000000000      0.8000000000      0.5000000000E-02    1396
   176  0.8750000000      0.2000000000      0.8000000000      0.5000000000E-02    1392
   177   0.000000000      0.4000000000      0.8000000000      0.5000000000E-02    1402
   178  0.1250000000      0.4000000000      0.8000000000      0.5000000000E-02    1385
   179  0.2500000000      0.4000000000      0.8000000000      0.5000000000E-02    1392
   180  0.3750000000      0.4000000000      0.8000000000      0.5000000000E-02    1390
   181  0.5000000000      0.4000000000      0.8000000000      0.5000000000E-02    1399
   182  0.6250000000      0.4000000000      0.8000000000      0.5000000000E-02    1401
   183  0.7500000000      0.4000000000      0.8000000000      0.5000000000E-02    1401
   184  0.8750000000      0.4000000000      0.8000000000      0.5000000000E-02    1391
   185   0.000000000      0.6000000000      0.8000000000      0.5000000000E-02    1387
   186  0.1250000000      0.6000000000      0.8000000000      0.5000000000E-02    1386
   187  0.2500000000      0.6000000000      0.8000000000      0.5000000000E-02    1386
   188  0.3750000000      0.6000000000      0.8000000000      0.5000000000E-02    1389
   189  0.5000000000      0.6000000000      0.8000000000      0.5000000000E-02    1398
   190  0.6250000000      0.6000000000      0.8000000000      0.5000000000E-02    1403
   191  0.7500000000      0.6000000000      0.8000000000      0.5000000000E-02    1400
   192  0.8750000000      0.6000000000      0.8000000000      0.5000000000E-02    1391
   193   0.000000000      0.8000000000      0.8000000000      0.5000000000E-02    1387
   194  0.1250000000      0.8000000000      0.8000000000      0.5000000000E-02    1387
   195  0.2500000000      0.8000000000      0.8000000000      0.5000000000E-02    1403
   196  0.3750000000      0.8000000000      0.8000000000      0.5000000000E-02    1395
   197  0.5000000000      0.8000000000      0.8000000000      0.5000000000E-02    1402
   198  0.6250000000      0.8000000000      0.8000000000      0.5000000000E-02    1403
   199  0.7500000000      0.8000000000      0.8000000000      0.5000000000E-02    1401
   200  0.8750000000      0.8000000000      0.8000000000      0.5000000000E-02    1391
