  0.9942514877E-02
  0.7323392964E-02
  0.1018710582E-02
  0.1257836757E-02
  0.7293220064E-04
  0.5402108989E-04
  0.5979540553E-05
  0.2328272225E-05
  0.1032107389E-05
  0.2389234500E-06
  0.4788627706E-07
 
