  0.2502032087E-02
  0.1749051947E-02
  0.1071553903E-02
  0.3495922543E-03
  0.2152124379E-03
  0.1701838057E-03
  0.1244291023E-03
  0.3988886406E-04
  0.9973040475E-05
  0.1186196965E-05
  0.3565218633E-06
  0.1753397394E-06
 
