    55 : nkpt
    37 : nstsv
 
     1   0.000000000       0.000000000       0.000000000     : k-point, vkl
 (state, eigenvalue and occupancy below)
     1 -0.3453988144       2.000000000    
     2 -0.2617989630       2.000000000    
     3 -0.2617958174       2.000000000    
     4 -0.2656992027E-01   2.000000000    
     5 -0.2656797428E-01   2.000000000    
     6  0.2108089435       2.000000000    
     7  0.2108280700       2.000000000    
     8  0.2753391677       2.000000000    
     9  0.2753452645       2.000000000    
    10  0.2904227418       2.000000000    
    11  0.2904231612       2.000000000    
    12  0.2904330254       2.000000000    
    13  0.2904427717       2.000000000    
    14  0.4409998122       2.000000000    
    15  0.4410075663       2.000000000    
    16  0.4410122918       2.000000000    
    17  0.6041211151       0.000000000    
    18  0.6041537812       0.000000000    
    19  0.6158425390       0.000000000    
    20  0.6158455473       0.000000000    
    21  0.6462482960       0.000000000    
    22  0.6462627788       0.000000000    
    23  0.6462980523       0.000000000    
    24  0.8166604073       0.000000000    
    25  0.8166619526       0.000000000    
    26  0.8653033897       0.000000000    
    27  0.8653104741       0.000000000    
    28  0.8653157992       0.000000000    
    29  0.8653336144       0.000000000    
    30  0.9268567182       0.000000000    
    31   1.056036730       0.000000000    
    32   1.056040347       0.000000000    
    33   1.148111229       0.000000000    
    34   1.177482382       0.000000000    
    35   1.177484049       0.000000000    
    36   1.254253082       0.000000000    
    37   1.254258527       0.000000000    
 
 
     2  0.1250000000       0.000000000       0.000000000     : k-point, vkl
 (state, eigenvalue and occupancy below)
     1 -0.3348476602       2.000000000    
     2 -0.2516025353       2.000000000    
     3 -0.2515994000       2.000000000    
     4 -0.2362237067E-01   2.000000000    
     5 -0.1708673232E-01   2.000000000    
     6  0.1645756725       2.000000000    
     7  0.2093871125       2.000000000    
     8  0.2094000320       2.000000000    
     9  0.2196029608       2.000000000    
    10  0.2964737346       2.000000000    
    11  0.2964790556       2.000000000    
    12  0.3108212605       2.000000000    
    13  0.3108307247       2.000000000    
    14  0.3889644241       2.000000000    
    15  0.4018962358       2.000000000    
    16  0.4344192884       2.000000000    
    17  0.6244116023       0.000000000    
    18  0.6415355209       0.000000000    
    19  0.6416191609       0.000000000    
    20  0.6570326456       0.000000000    
    21  0.6760044830       0.000000000    
    22  0.6856245916       0.000000000    
    23  0.6867109048       0.000000000    
    24  0.8450386165       0.000000000    
    25  0.8450475641       0.000000000    
    26  0.8499002041       0.000000000    
    27  0.8499175535       0.000000000    
    28  0.8504989496       0.000000000    
    29  0.8505094274       0.000000000    
    30  0.9349771391       0.000000000    
    31   1.030807695       0.000000000    
    32   1.043091873       0.000000000    
    33   1.165411826       0.000000000    
    34   1.194658686       0.000000000    
    35   1.194663044       0.000000000    
    36   1.233935772       0.000000000    
    37   1.243417146       0.000000000    
 
 
     3  0.2500000000       0.000000000       0.000000000     : k-point, vkl
 (state, eigenvalue and occupancy below)
     1 -0.3033899871       2.000000000    
     2 -0.2214766404       2.000000000    
     3 -0.2214735749       2.000000000    
     4 -0.3461842156E-01   2.000000000    
     5  0.1123549695E-01   2.000000000    
     6  0.1006695979       2.000000000    
     7  0.1074340194       2.000000000    
     8  0.1074406970       2.000000000    
     9  0.2449904360       2.000000000    
    10  0.2951356209       2.000000000    
    11  0.3122577605       2.000000000    
    12  0.3122985135       2.000000000    
    13  0.3222604588       2.000000000    
    14  0.3240157244       2.000000000    
    15  0.3240443081       2.000000000    
    16  0.4133424111       2.000000000    
    17  0.6494670945       0.000000000    
    18  0.6884434497       0.000000000    
    19  0.6979941476       0.000000000    
    20  0.6981560571       0.000000000    
    21  0.7362994518       0.000000000    
    22  0.7403344808       0.000000000    
    23  0.8092556874       0.000000000    
    24  0.8093005699       0.000000000    
    25  0.8108265511       0.000000000    
    26  0.8108666110       0.000000000    
    27  0.8347715762       0.000000000    
    28  0.9348434498       0.000000000    
    29  0.9348498461       0.000000000    
    30  0.9447938608       0.000000000    
    31  0.9669528097       0.000000000    
    32   1.012671359       0.000000000    
    33   1.125455712       0.000000000    
    34   1.200014443       0.000000000    
    35   1.204075483       0.000000000    
    36   1.215715975       0.000000000    
    37   1.215736584       0.000000000    
 
 
     4  0.3750000000       0.000000000       0.000000000     : k-point, vkl
 (state, eigenvalue and occupancy below)
     1 -0.2517604788       2.000000000    
     2 -0.1741042066       2.000000000    
     3 -0.1741013628       2.000000000    
     4 -0.1003539339       2.000000000    
     5  0.9378449978E-02   2.000000000    
     6  0.9380224591E-02   2.000000000    
     7  0.5799964104E-01   2.000000000    
     8  0.1086285354       2.000000000    
     9  0.2026551218       2.000000000    
    10  0.2376625514       2.000000000    
    11  0.2840118476       2.000000000    
    12  0.3303325238       2.000000000    
    13  0.3303448454       2.000000000    
    14  0.3343622235       2.000000000    
    15  0.3343692927       2.000000000    
    16  0.3771795731       2.000000000    
    17  0.6881759452       0.000000000    
    18  0.7365011970       0.000000000    
    19  0.7370300500       0.000000000    
    20  0.7403294906       0.000000000    
    21  0.7573694518       0.000000000    
    22  0.7693474685       0.000000000    
    23  0.7695039946       0.000000000    
    24  0.7757308342       0.000000000    
    25  0.7757484888       0.000000000    
    26  0.8091120878       0.000000000    
    27  0.8868190129       0.000000000    
    28  0.9406314259       0.000000000    
    29  0.9615644945       0.000000000    
    30  0.9779202149       0.000000000    
    31   1.006125677       0.000000000    
    32   1.006141739       0.000000000    
    33   1.055990693       0.000000000    
    34   1.175392812       0.000000000    
    35   1.213783121       0.000000000    
    36   1.218726887       0.000000000    
    37   1.218794191       0.000000000    
 
 
     5  0.5000000000       0.000000000       0.000000000     : k-point, vkl
 (state, eigenvalue and occupancy below)
     1 -0.1819470535       2.000000000    
     2 -0.1819404608       2.000000000    
     3 -0.1343837665       2.000000000    
     4 -0.1343758825       2.000000000    
     5 -0.4812122450E-01   2.000000000    
     6 -0.4811804432E-01   2.000000000    
     7  0.1223524205       2.000000000    
     8  0.1223595945       2.000000000    
     9  0.1629198381       2.000000000    
    10  0.1629225943       2.000000000    
    11  0.3308544627       2.000000000    
    12  0.3309341300       2.000000000    
    13  0.3386536565       2.000000000    
    14  0.3386560530       2.000000000    
    15  0.3386856345       2.000000000    
    16  0.3387619367       2.000000000    
    17  0.7315960265       0.000000000    
    18  0.7317622605       0.000000000    
    19  0.7513397706       0.000000000    
    20  0.7513914009       0.000000000    
    21  0.7513953997       0.000000000    
    22  0.7515645023       0.000000000    
    23  0.7637577040       0.000000000    
    24  0.7637909557       0.000000000    
    25  0.8077275883       0.000000000    
    26  0.8078266467       0.000000000    
    27  0.8931976014       0.000000000    
    28  0.8932078338       0.000000000    
    29  0.9498280399       0.000000000    
    30  0.9498284913       0.000000000    
    31   1.016475690       0.000000000    
    32   1.016476318       0.000000000    
    33   1.161065718       0.000000000    
    34   1.161068913       0.000000000    
    35   1.202469354       0.000000000    
    36   1.202487656       0.000000000    
    37   1.243011637       0.000000000    
 
 
     6  0.1250000000      0.1250000000       0.000000000     : k-point, vkl
 (state, eigenvalue and occupancy below)
     1 -0.3243207578       2.000000000    
     2 -0.2414516107       2.000000000    
     3 -0.2414484803       2.000000000    
     4 -0.1427722909E-01   2.000000000    
     5 -0.1427674866E-01   2.000000000    
     6  0.1737346408       2.000000000    
     7  0.1737482743       2.000000000    
     8  0.2025807620       2.000000000    
     9  0.2025860065       2.000000000    
    10  0.2399654462       2.000000000    
    11  0.2399683910       2.000000000    
    12  0.3354229407       2.000000000    
    13  0.3354414954       2.000000000    
    14  0.3780245356       2.000000000    
    15  0.3780553369       2.000000000    
    16  0.3923366499       2.000000000    
    17  0.6311988161       0.000000000    
    18  0.6820579689       0.000000000    
    19  0.6820839259       0.000000000    
    20  0.6931543869       0.000000000    
    21  0.6931612961       0.000000000    
    22  0.7271273974       0.000000000    
    23  0.7271612128       0.000000000    
    24  0.8088792519       0.000000000    
    25  0.8089001612       0.000000000    
    26  0.8648416951       0.000000000    
    27  0.8648536318       0.000000000    
    28  0.8713241032       0.000000000    
    29  0.8713330065       0.000000000    
    30  0.9271222206       0.000000000    
    31   1.010538649       0.000000000    
    32   1.010542674       0.000000000    
    33   1.182750996       0.000000000    
    34   1.197789604       0.000000000    
    35   1.197895211       0.000000000    
    36   1.201127814       0.000000000    
    37   1.232153537       0.000000000    
 
 
     7  0.2500000000      0.1250000000       0.000000000     : k-point, vkl
 (state, eigenvalue and occupancy below)
     1 -0.2929395970       2.000000000    
     2 -0.2114706341       2.000000000    
     3 -0.2114675591       2.000000000    
     4 -0.2540171029E-01   2.000000000    
     5  0.1364603828E-01   2.000000000    
     6  0.1100293878       2.000000000    
     7  0.1150106344       2.000000000    
     8  0.1150172894       2.000000000    
     9  0.2002909960       2.000000000    
    10  0.2452910176       2.000000000    
    11  0.2452924107       2.000000000    
    12  0.2934004983       2.000000000    
    13  0.3159714221       2.000000000    
    14  0.3423115286       2.000000000    
    15  0.3423211804       2.000000000    
    16  0.3689074028       2.000000000    
    17  0.6390916015       0.000000000    
    18  0.7149368439       0.000000000    
    19  0.7425825983       0.000000000    
    20  0.7425985018       0.000000000    
    21  0.7671834026       0.000000000    
    22  0.7672324394       0.000000000    
    23  0.7859936191       0.000000000    
    24  0.7936461307       0.000000000    
    25  0.8378476998       0.000000000    
    26  0.8459443600       0.000000000    
    27  0.8459989426       0.000000000    
    28  0.8986498294       0.000000000    
    29  0.9328674191       0.000000000    
    30  0.9438582478       0.000000000    
    31  0.9439721889       0.000000000    
    32  0.9663012655       0.000000000    
    33   1.161324533       0.000000000    
    34   1.171004211       0.000000000    
    35   1.200616794       0.000000000    
    36   1.200653624       0.000000000    
    37   1.217488833       0.000000000    
 
 
     8  0.3750000000      0.1250000000       0.000000000     : k-point, vkl
 (state, eigenvalue and occupancy below)
     1 -0.2414498641       2.000000000    
     2 -0.1643792299       2.000000000    
     3 -0.1643764026       2.000000000    
     4 -0.9065044616E-01   2.000000000    
     5  0.1837046952E-01   2.000000000    
     6  0.1837322672E-01   2.000000000    
     7  0.5978527540E-01   2.000000000    
     8  0.1169079374       2.000000000    
     9  0.2025800912       2.000000000    
    10  0.2399540527       2.000000000    
    11  0.2409972928       2.000000000    
    12  0.2734599805       2.000000000    
    13  0.2734732880       2.000000000    
    14  0.3343959609       2.000000000    
    15  0.3347166509       2.000000000    
    16  0.3357643144       2.000000000    
    17  0.6820737015       0.000000000    
    18  0.7416141017       0.000000000    
    19  0.7417984207       0.000000000    
    20  0.7482464555       0.000000000    
    21  0.7771204945       0.000000000    
    22  0.7771425042       0.000000000    
    23  0.8088844873       0.000000000    
    24  0.8131978102       0.000000000    
    25  0.8132363606       0.000000000    
    26  0.8356652758       0.000000000    
    27  0.8648547897       0.000000000    
    28  0.8713452830       0.000000000    
    29  0.9190808217       0.000000000    
    30  0.9727955836       0.000000000    
    31   1.004544593       0.000000000    
    32   1.004555521       0.000000000    
    33   1.103715776       0.000000000    
    34   1.191980437       0.000000000    
    35   1.192107562       0.000000000    
    36   1.198023499       0.000000000    
    37   1.232144907       0.000000000    
 
 
     9  0.5000000000      0.1250000000       0.000000000     : k-point, vkl
 (state, eigenvalue and occupancy below)
     1 -0.1718658124       2.000000000    
     2 -0.1718592431       2.000000000    
     3 -0.1250501119       2.000000000    
     4 -0.1250423327       2.000000000    
     5 -0.3849912794E-01   2.000000000    
     6 -0.3849585524E-01   2.000000000    
     7  0.1233198584       2.000000000    
     8  0.1233270249       2.000000000    
     9  0.1691705337       2.000000000    
    10  0.1691743981       2.000000000    
    11  0.2894034886       2.000000000    
    12  0.2894075163       2.000000000    
    13  0.2958075057       2.000000000    
    14  0.2958283127       2.000000000    
    15  0.3205357940       2.000000000    
    16  0.3205533788       2.000000000    
    17  0.7438963880       0.000000000    
    18  0.7439383307       0.000000000    
    19  0.7502488229       0.000000000    
    20  0.7503149264       0.000000000    
    21  0.7643214661       0.000000000    
    22  0.7643579971       0.000000000    
    23  0.7855975193       0.000000000    
    24  0.7856484830       0.000000000    
    25  0.8129442777       0.000000000    
    26  0.8129972056       0.000000000    
    27  0.8825235106       0.000000000    
    28  0.8825276207       0.000000000    
    29  0.9397045799       0.000000000    
    30  0.9397171008       0.000000000    
    31   1.013256753       0.000000000    
    32   1.013262544       0.000000000    
    33   1.183100136       0.000000000    
    34   1.183132019       0.000000000    
    35   1.198672986       0.000000000    
    36   1.198708513       0.000000000    
    37   1.238197236       0.000000000    
 
 
    10  0.6250000000      0.1250000000       0.000000000     : k-point, vkl
 (state, eigenvalue and occupancy below)
     1 -0.2414499935       2.000000000    
     2 -0.1643792579       2.000000000    
     3 -0.1643765657       2.000000000    
     4 -0.9065025043E-01   2.000000000    
     5  0.1837083890E-01   2.000000000    
     6  0.1837327647E-01   2.000000000    
     7  0.5978557132E-01   2.000000000    
     8  0.1169078194       2.000000000    
     9  0.2025803340       2.000000000    
    10  0.2399548142       2.000000000    
    11  0.2409957308       2.000000000    
    12  0.2734592390       2.000000000    
    13  0.2734733677       2.000000000    
    14  0.3344695255       2.000000000    
    15  0.3347141620       2.000000000    
    16  0.3356934370       2.000000000    
    17  0.6820631414       0.000000000    
    18  0.7417225816       0.000000000    
    19  0.7418077913       0.000000000    
    20  0.7481271123       0.000000000    
    21  0.7771361617       0.000000000    
    22  0.7771588007       0.000000000    
    23  0.8087899625       0.000000000    
    24  0.8132109732       0.000000000    
    25  0.8133360739       0.000000000    
    26  0.8356292419       0.000000000    
    27  0.8648471464       0.000000000    
    28  0.8713471005       0.000000000    
    29  0.9190841969       0.000000000    
    30  0.9727966005       0.000000000    
    31   1.004542541       0.000000000    
    32   1.004552956       0.000000000    
    33   1.103719485       0.000000000    
    34   1.192069352       0.000000000    
    35   1.192104834       0.000000000    
    36   1.197929894       0.000000000    
    37   1.232158006       0.000000000    
 
 
    11  0.7500000000      0.1250000000       0.000000000     : k-point, vkl
 (state, eigenvalue and occupancy below)
     1 -0.2929396771       2.000000000    
     2 -0.2114706578       2.000000000    
     3 -0.2114676886       2.000000000    
     4 -0.2540151909E-01   2.000000000    
     5  0.1364611192E-01   2.000000000    
     6  0.1100295632       2.000000000    
     7  0.1150107927       2.000000000    
     8  0.1150178727       2.000000000    
     9  0.2002896626       2.000000000    
    10  0.2452914024       2.000000000    
    11  0.2452969993       2.000000000    
    12  0.2933998328       2.000000000    
    13  0.3159586976       2.000000000    
    14  0.3423087659       2.000000000    
    15  0.3423308350       2.000000000    
    16  0.3689092702       2.000000000    
    17  0.6390803652       0.000000000    
    18  0.7149442078       0.000000000    
    19  0.7425959554       0.000000000    
    20  0.7426125964       0.000000000    
    21  0.7672328706       0.000000000    
    22  0.7672368668       0.000000000    
    23  0.7859248889       0.000000000    
    24  0.7936253826       0.000000000    
    25  0.8378137090       0.000000000    
    26  0.8459511263       0.000000000    
    27  0.8460347071       0.000000000    
    28  0.8986540305       0.000000000    
    29  0.9329141297       0.000000000    
    30  0.9438815103       0.000000000    
    31  0.9439247700       0.000000000    
    32  0.9662729446       0.000000000    
    33   1.161329549       0.000000000    
    34   1.171035272       0.000000000    
    35   1.200615470       0.000000000    
    36   1.200620073       0.000000000    
    37   1.217581560       0.000000000    
 
 
    12  0.8750000000      0.1250000000       0.000000000     : k-point, vkl
 (state, eigenvalue and occupancy below)
     1 -0.3243207963       2.000000000    
     2 -0.2414516240       2.000000000    
     3 -0.2414485447       2.000000000    
     4 -0.1427756014E-01   2.000000000    
     5 -0.1427632047E-01   2.000000000    
     6  0.1737340859       2.000000000    
     7  0.1737499367       2.000000000    
     8  0.2025805764       2.000000000    
     9  0.2025833435       2.000000000    
    10  0.2399683728       2.000000000    
    11  0.2399717555       2.000000000    
    12  0.3354258952       2.000000000    
    13  0.3354270116       2.000000000    
    14  0.3780324776       2.000000000    
    15  0.3780427763       2.000000000    
    16  0.3923494076       2.000000000    
    17  0.6311723397       0.000000000    
    18  0.6820665032       0.000000000    
    19  0.6821114543       0.000000000    
    20  0.6931616328       0.000000000    
    21  0.6931710480       0.000000000    
    22  0.7271300542       0.000000000    
    23  0.7271414099       0.000000000    
    24  0.8088710048       0.000000000    
    25  0.8088797507       0.000000000    
    26  0.8648459243       0.000000000    
    27  0.8648656005       0.000000000    
    28  0.8713294942       0.000000000    
    29  0.8713324111       0.000000000    
    30  0.9271283363       0.000000000    
    31   1.010530187       0.000000000    
    32   1.010541634       0.000000000    
    33   1.182752955       0.000000000    
    34   1.197873641       0.000000000    
    35   1.197893153       0.000000000    
    36   1.201042671       0.000000000    
    37   1.232145785       0.000000000    
 
 
    13  0.2500000000      0.2500000000       0.000000000     : k-point, vkl
 (state, eigenvalue and occupancy below)
     1 -0.2617970493       2.000000000    
     2 -0.1819439316       2.000000000    
     3 -0.1819409708       2.000000000    
     4  0.2161400807E-02   2.000000000    
     5  0.2167819818E-02   2.000000000    
     6  0.1223493284       2.000000000    
     7  0.1223534834       2.000000000    
     8  0.1369866395       2.000000000    
     9  0.1369937586       2.000000000    
    10  0.1629288230       2.000000000    
    11  0.1629303519       2.000000000    
    12  0.2753523536       2.000000000    
    13  0.2904118819       2.000000000    
    14  0.2904308444       2.000000000    
    15  0.3309531545       2.000000000    
    16  0.3309622181       2.000000000    
    17  0.6041647768       0.000000000    
    18  0.7317545547       0.000000000    
    19  0.7317598632       0.000000000    
    20  0.8076735605       0.000000000    
    21  0.8076754145       0.000000000    
    22  0.8166953931       0.000000000    
    23  0.8307613566       0.000000000    
    24  0.8307798048       0.000000000    
    25  0.8653169761       0.000000000    
    26  0.8653194077       0.000000000    
    27  0.8913757030       0.000000000    
    28  0.8914803275       0.000000000    
    29  0.8932402490       0.000000000    
    30  0.8932952929       0.000000000    
    31  0.9498364866       0.000000000    
    32  0.9498417593       0.000000000    
    33   1.160981957       0.000000000    
    34   1.161076709       0.000000000    
    35   1.177561783       0.000000000    
    36   1.202444427       0.000000000    
    37   1.202462600       0.000000000    
 
 
    14  0.3750000000      0.2500000000       0.000000000     : k-point, vkl
 (state, eigenvalue and occupancy below)
     1 -0.2107397398       2.000000000    
     2 -0.1356856692       2.000000000    
     3 -0.1356831481       2.000000000    
     4 -0.6173367631E-01   2.000000000    
     5  0.4337462095E-01   2.000000000    
     6  0.4341553195E-01   2.000000000    
     7  0.4783011556E-01   2.000000000    
     8  0.1402976891       2.000000000    
     9  0.1776595641       2.000000000    
    10  0.1830213604       2.000000000    
    11  0.1830423999       2.000000000    
    12  0.1892295902       2.000000000    
    13  0.2419368651       2.000000000    
    14  0.2636353792       2.000000000    
    15  0.2978088270       2.000000000    
    16  0.2978135831       2.000000000    
    17  0.6176203389       0.000000000    
    18  0.7292126610       0.000000000    
    19  0.7292166776       0.000000000    
    20  0.7564675869       0.000000000    
    21  0.7631796541       0.000000000    
    22  0.7878304530       0.000000000    
    23  0.8122084610       0.000000000    
    24  0.8122223437       0.000000000    
    25  0.8994166413       0.000000000    
    26  0.9099172415       0.000000000    
    27  0.9099294361       0.000000000    
    28  0.9127824825       0.000000000    
    29  0.9341573041       0.000000000    
    30  0.9778874561       0.000000000    
    31  0.9779271959       0.000000000    
    32  0.9905261682       0.000000000    
    33   1.122870268       0.000000000    
    34   1.122886415       0.000000000    
    35   1.185959451       0.000000000    
    36   1.216825379       0.000000000    
    37   1.261933948       0.000000000    
 
 
    15  0.5000000000      0.2500000000       0.000000000     : k-point, vkl
 (state, eigenvalue and occupancy below)
     1 -0.1418495756       2.000000000    
     2 -0.1418430921       2.000000000    
     3 -0.9734738249E-01   2.000000000    
     4 -0.9733999497E-01   2.000000000    
     5 -0.1127765016E-01   2.000000000    
     6 -0.1127400653E-01   2.000000000    
     7  0.1107280035       2.000000000    
     8  0.1107352522       2.000000000    
     9  0.1853960592       2.000000000    
    10  0.1854160281       2.000000000    
    11  0.2099924181       2.000000000    
    12  0.2100187726       2.000000000    
    13  0.2239734595       2.000000000    
    14  0.2239787503       2.000000000    
    15  0.2697448925       2.000000000    
    16  0.2697496832       2.000000000    
    17  0.6729511691       0.000000000    
    18  0.6729615167       0.000000000    
    19  0.7456579288       0.000000000    
    20  0.7457034281       0.000000000    
    21  0.7564954362       0.000000000    
    22  0.7565194903       0.000000000    
    23  0.7868646296       0.000000000    
    24  0.7868812630       0.000000000    
    25  0.9165626006       0.000000000    
    26  0.9165706979       0.000000000    
    27  0.9183536195       0.000000000    
    28  0.9183665711       0.000000000    
    29  0.9852309845       0.000000000    
    30  0.9852970612       0.000000000    
    31  0.9944208797       0.000000000    
    32  0.9944806005       0.000000000    
    33   1.112828441       0.000000000    
    34   1.112834519       0.000000000    
    35   1.235851415       0.000000000    
    36   1.235860666       0.000000000    
    37   1.256304507       0.000000000    
 
 
    16  0.6250000000      0.2500000000       0.000000000     : k-point, vkl
 (state, eigenvalue and occupancy below)
     1 -0.2107400068       2.000000000    
     2 -0.1356857157       2.000000000    
     3 -0.1356834836       2.000000000    
     4 -0.6173326018E-01   2.000000000    
     5  0.4336906063E-01   2.000000000    
     6  0.4341569848E-01   2.000000000    
     7  0.4783769879E-01   2.000000000    
     8  0.1402997518       2.000000000    
     9  0.1776545626       2.000000000    
    10  0.1830232244       2.000000000    
    11  0.1830472489       2.000000000    
    12  0.1892206717       2.000000000    
    13  0.2419340566       2.000000000    
    14  0.2636430500       2.000000000    
    15  0.2978091469       2.000000000    
    16  0.2978119425       2.000000000    
    17  0.6176127375       0.000000000    
    18  0.7292063331       0.000000000    
    19  0.7292255071       0.000000000    
    20  0.7564854412       0.000000000    
    21  0.7631853074       0.000000000    
    22  0.7878542789       0.000000000    
    23  0.8121766803       0.000000000    
    24  0.8122126998       0.000000000    
    25  0.8994192172       0.000000000    
    26  0.9099108027       0.000000000    
    27  0.9099178777       0.000000000    
    28  0.9127957627       0.000000000    
    29  0.9341439420       0.000000000    
    30  0.9779057357       0.000000000    
    31  0.9779266647       0.000000000    
    32  0.9905243389       0.000000000    
    33   1.122871783       0.000000000    
    34   1.122875431       0.000000000    
    35   1.185973855       0.000000000    
    36   1.216809883       0.000000000    
    37   1.262085743       0.000000000    
 
 
    17  0.7500000000      0.2500000000       0.000000000     : k-point, vkl
 (state, eigenvalue and occupancy below)
     1 -0.2617972158       2.000000000    
     2 -0.1819439714       2.000000000    
     3 -0.1819412341       2.000000000    
     4  0.2164416658E-02   2.000000000    
     5  0.2165449131E-02   2.000000000    
     6  0.1223527200       2.000000000    
     7  0.1223585769       2.000000000    
     8  0.1369779309       2.000000000    
     9  0.1369952098       2.000000000    
    10  0.1629263338       2.000000000    
    11  0.1629328610       2.000000000    
    12  0.2753419504       2.000000000    
    13  0.2904176261       2.000000000    
    14  0.2904321857       2.000000000    
    15  0.3309584512       2.000000000    
    16  0.3309591156       2.000000000    
    17  0.6041573826       0.000000000    
    18  0.7317600793       0.000000000    
    19  0.7317699300       0.000000000    
    20  0.8076721215       0.000000000    
    21  0.8076827725       0.000000000    
    22  0.8167026575       0.000000000    
    23  0.8307817817       0.000000000    
    24  0.8307828009       0.000000000    
    25  0.8652850687       0.000000000    
    26  0.8653021840       0.000000000    
    27  0.8909392156       0.000000000    
    28  0.8912617477       0.000000000    
    29  0.8934256744       0.000000000    
    30  0.8937859777       0.000000000    
    31  0.9498258560       0.000000000    
    32  0.9498298756       0.000000000    
    33   1.161051913       0.000000000    
    34   1.161065160       0.000000000    
    35   1.177482890       0.000000000    
    36   1.202483659       0.000000000    
    37   1.202491044       0.000000000    
 
 
    18  0.3750000000      0.3750000000       0.000000000     : k-point, vkl
 (state, eigenvalue and occupancy below)
     1 -0.1604464550       2.000000000    
     2 -0.9065493875E-01   2.000000000    
     3 -0.9065387252E-01   2.000000000    
     4 -0.1428050034E-01   2.000000000    
     5 -0.1426737988E-01   2.000000000    
     6  0.5977668860E-01   2.000000000    
     7  0.5978376238E-01   2.000000000    
     8  0.1168981216       2.000000000    
     9  0.1169077990       2.000000000    
    10  0.1264052178       2.000000000    
    11  0.1737442757       2.000000000    
    12  0.1737484774       2.000000000    
    13  0.2312518215       2.000000000    
    14  0.2312789552       2.000000000    
    15  0.2409990187       2.000000000    
    16  0.2410106173       2.000000000    
    17  0.5928208437       0.000000000    
    18  0.6881120870       0.000000000    
    19  0.6931568365       0.000000000    
    20  0.6931583299       0.000000000    
    21  0.7480657456       0.000000000    
    22  0.7480732924       0.000000000    
    23  0.8355851039       0.000000000    
    24  0.8355899913       0.000000000    
    25  0.9190774080       0.000000000    
    26  0.9190875970       0.000000000    
    27  0.9727488764       0.000000000    
    28  0.9727706901       0.000000000    
    29  0.9944720539       0.000000000    
    30  0.9945394002       0.000000000    
    31   1.010544413       0.000000000    
    32   1.010546621       0.000000000    
    33   1.103723831       0.000000000    
    34   1.103727617       0.000000000    
    35   1.242095386       0.000000000    
    36   1.251402480       0.000000000    
    37   1.251407998       0.000000000    
 
 
    19  0.5000000000      0.3750000000       0.000000000     : k-point, vkl
 (state, eigenvalue and occupancy below)
     1 -0.9271986888E-01   2.000000000    
     2 -0.9271383902E-01   2.000000000    
     3 -0.5267551568E-01   2.000000000    
     4 -0.5266966018E-01   2.000000000    
     5  0.2175154111E-01   2.000000000    
     6  0.2175687324E-01   2.000000000    
     7  0.5010493752E-01   2.000000000    
     8  0.5011048359E-01   2.000000000    
     9  0.1337568791       2.000000000    
    10  0.1337593167       2.000000000    
    11  0.2007483201       2.000000000    
    12  0.2007918400       2.000000000    
    13  0.2033333694       2.000000000    
    14  0.2033854565       2.000000000    
    15  0.2073018846       2.000000000    
    16  0.2073048252       2.000000000    
    17  0.6210035416       0.000000000    
    18  0.6210142847       0.000000000    
    19  0.6651622593       0.000000000    
    20  0.6651776490       0.000000000    
    21  0.7779791187       0.000000000    
    22  0.7779904307       0.000000000    
    23  0.8205026451       0.000000000    
    24  0.8205116270       0.000000000    
    25  0.9294571105       0.000000000    
    26  0.9294669070       0.000000000    
    27  0.9357734153       0.000000000    
    28  0.9357825147       0.000000000    
    29   1.020596553       0.000000000    
    30   1.020624584       0.000000000    
    31   1.035974363       0.000000000    
    32   1.035998063       0.000000000    
    33   1.130974931       0.000000000    
    34   1.130978042       0.000000000    
    35   1.267934725       0.000000000    
    36   1.267980170       0.000000000    
    37   1.283153172       0.000000000    
 
 
    20  0.6250000000      0.3750000000       0.000000000     : k-point, vkl
 (state, eigenvalue and occupancy below)
     1 -0.1604468789       2.000000000    
     2 -0.9065495705E-01   2.000000000    
     3 -0.9065439640E-01   2.000000000    
     4 -0.1427347648E-01   2.000000000    
     5 -0.1427288945E-01   2.000000000    
     6  0.5977588903E-01   2.000000000    
     7  0.5978480016E-01   2.000000000    
     8  0.1169085600       2.000000000    
     9  0.1169099513       2.000000000    
    10  0.1263966155       2.000000000    
    11  0.1737350199       2.000000000    
    12  0.1737476059       2.000000000    
    13  0.2312416593       2.000000000    
    14  0.2312779605       2.000000000    
    15  0.2409987112       2.000000000    
    16  0.2410284015       2.000000000    
    17  0.5928123911       0.000000000    
    18  0.6880937186       0.000000000    
    19  0.6931711402       0.000000000    
    20  0.6931723608       0.000000000    
    21  0.7480693935       0.000000000    
    22  0.7480835209       0.000000000    
    23  0.8355638287       0.000000000    
    24  0.8355904696       0.000000000    
    25  0.9190527154       0.000000000    
    26  0.9190848513       0.000000000    
    27  0.9727862808       0.000000000    
    28  0.9728108333       0.000000000    
    29  0.9944949921       0.000000000    
    30  0.9945073445       0.000000000    
    31   1.010512686       0.000000000    
    32   1.010546306       0.000000000    
    33   1.103717734       0.000000000    
    34   1.103719057       0.000000000    
    35   1.242076974       0.000000000    
    36   1.251435912       0.000000000    
    37   1.251438086       0.000000000    
 
 
    21  0.5000000000      0.5000000000       0.000000000     : k-point, vkl
 (state, eigenvalue and occupancy below)
     1 -0.2658701955E-01   2.000000000    
     2 -0.2657890420E-01   2.000000000    
     3 -0.2657249631E-01   2.000000000    
     4 -0.2656737473E-01   2.000000000    
     5  0.2161419561E-02   2.000000000    
     6  0.2164536067E-02   2.000000000    
     7  0.2184208007E-02   2.000000000    
     8  0.2197992599E-02   2.000000000    
     9  0.1369829400       2.000000000    
    10  0.1369854485       2.000000000    
    11  0.1369872016       2.000000000    
    12  0.1369916602       2.000000000    
    13  0.2108109887       2.000000000    
    14  0.2108208522       2.000000000    
    15  0.2108229565       2.000000000    
    16  0.2108281798       2.000000000    
    17  0.6158406678       0.000000000    
    18  0.6158468701       0.000000000    
    19  0.6158547879       0.000000000    
    20  0.6158594435       0.000000000    
    21  0.8307439787       0.000000000    
    22  0.8307484305       0.000000000    
    23  0.8307527198       0.000000000    
    24  0.8307739812       0.000000000    
    25  0.8914616936       0.000000000    
    26  0.8914673881       0.000000000    
    27  0.8914724461       0.000000000    
    28  0.8914823284       0.000000000    
    29   1.056014093       0.000000000    
    30   1.056027098       0.000000000    
    31   1.056031791       0.000000000    
    32   1.056062895       0.000000000    
    33   1.221928073       0.000000000    
    34   1.221950919       0.000000000    
    35   1.221959445       0.000000000    
    36   1.221961041       0.000000000    
    37   1.291592817       0.000000000    
 
 
    22   0.000000000       0.000000000      0.3333333333     : k-point, vkl
 (state, eigenvalue and occupancy below)
     1 -0.3360173708       2.000000000    
     2 -0.3080049402       2.000000000    
     3 -0.1982624169       2.000000000    
     4 -0.1189596841       2.000000000    
     5  0.7452539351E-01   2.000000000    
     6  0.1778282504       2.000000000    
     7  0.2199499334       2.000000000    
     8  0.2199612364       2.000000000    
     9  0.2469420715       2.000000000    
    10  0.2469556995       2.000000000    
    11  0.3470854960       2.000000000    
    12  0.3471041185       2.000000000    
    13  0.3587510079       2.000000000    
    14  0.4077866316       2.000000000    
    15  0.4078047959       2.000000000    
    16  0.4184282456       2.000000000    
    17  0.5935439134       0.000000000    
    18  0.5959134316       0.000000000    
    19  0.6219719736       0.000000000    
    20  0.6390464513       0.000000000    
    21  0.6576913072       0.000000000    
    22  0.6874936924       0.000000000    
    23  0.6875264545       0.000000000    
    24  0.7252146986       0.000000000    
    25  0.7716553075       0.000000000    
    26  0.7716623916       0.000000000    
    27  0.9052138931       0.000000000    
    28  0.9314877512       0.000000000    
    29  0.9551388466       0.000000000    
    30  0.9551713827       0.000000000    
    31   1.026717177       0.000000000    
    32   1.026726989       0.000000000    
    33   1.164314451       0.000000000    
    34   1.168396718       0.000000000    
    35   1.205539055       0.000000000    
    36   1.220392589       0.000000000    
    37   1.261726892       0.000000000    
 
 
    23  0.1250000000       0.000000000      0.3333333333     : k-point, vkl
 (state, eigenvalue and occupancy below)
     1 -0.3254965876       2.000000000    
     2 -0.2975877210       2.000000000    
     3 -0.1885229777       2.000000000    
     4 -0.1102434954       2.000000000    
     5  0.7270423576E-01   2.000000000    
     6  0.1501308351       2.000000000    
     7  0.1793674223       2.000000000    
     8  0.2284549245       2.000000000    
     9  0.2312356322       2.000000000    
    10  0.2546401274       2.000000000    
    11  0.2707769243       2.000000000    
    12  0.3366639266       2.000000000    
    13  0.3501687801       2.000000000    
    14  0.3821230152       2.000000000    
    15  0.4057461504       2.000000000    
    16  0.4170776111       2.000000000    
    17  0.6236358254       0.000000000    
    18  0.6282878449       0.000000000    
    19  0.6598678267       0.000000000    
    20  0.6755781905       0.000000000    
    21  0.6917523380       0.000000000    
    22  0.7015301380       0.000000000    
    23  0.7072651953       0.000000000    
    24  0.7630462850       0.000000000    
    25  0.7646125398       0.000000000    
    26  0.7656243563       0.000000000    
    27  0.9272719003       0.000000000    
    28  0.9329539115       0.000000000    
    29  0.9349312523       0.000000000    
    30  0.9435071567       0.000000000    
    31   1.001696862       0.000000000    
    32   1.009545012       0.000000000    
    33   1.176890355       0.000000000    
    34   1.184735065       0.000000000    
    35   1.207584734       0.000000000    
    36   1.232254027       0.000000000    
    37   1.241827420       0.000000000    
 
 
    24  0.2500000000       0.000000000      0.3333333333     : k-point, vkl
 (state, eigenvalue and occupancy below)
     1 -0.2941460129       2.000000000    
     2 -0.2666101087       2.000000000    
     3 -0.1604153807       2.000000000    
     4 -0.8823743030E-01   2.000000000    
     5  0.3241861679E-01   2.000000000    
     6  0.6289786287E-01   2.000000000    
     7  0.1504787928       2.000000000    
     8  0.1661625352       2.000000000    
     9  0.2351913604       2.000000000    
    10  0.2404886807       2.000000000    
    11  0.2529901301       2.000000000    
    12  0.2762370354       2.000000000    
    13  0.3557806774       2.000000000    
    14  0.3658326277       2.000000000    
    15  0.3735442081       2.000000000    
    16  0.3957772013       2.000000000    
    17  0.6561986576       0.000000000    
    18  0.6743367779       0.000000000    
    19  0.7066582203       0.000000000    
    20  0.7193006910       0.000000000    
    21  0.7307351637       0.000000000    
    22  0.7371443472       0.000000000    
    23  0.7515003683       0.000000000    
    24  0.7518301220       0.000000000    
    25  0.8458226216       0.000000000    
    26  0.8774628431       0.000000000    
    27  0.8791978148       0.000000000    
    28  0.8887874071       0.000000000    
    29  0.9388900643       0.000000000    
    30  0.9634994914       0.000000000    
    31  0.9667591938       0.000000000    
    32  0.9773848713       0.000000000    
    33   1.160900845       0.000000000    
    34   1.198715911       0.000000000    
    35   1.203199258       0.000000000    
    36   1.204905512       0.000000000    
    37   1.230761101       0.000000000    
 
 
    25  0.3750000000       0.000000000      0.3333333333     : k-point, vkl
 (state, eigenvalue and occupancy below)
     1 -0.2427880462       2.000000000    
     2 -0.2162844894       2.000000000    
     3 -0.1243692991       2.000000000    
     4 -0.1001129779       2.000000000    
     5 -0.2281240336E-01   2.000000000    
     6  0.1308966472E-02   2.000000000    
     7  0.6628717454E-01   2.000000000    
     8  0.1377367193       2.000000000    
     9  0.1805020282       2.000000000    
    10  0.2695299147       2.000000000    
    11  0.2900184536       2.000000000    
    12  0.2984313051       2.000000000    
    13  0.3067811716       2.000000000    
    14  0.3452147278       2.000000000    
    15  0.3542088469       2.000000000    
    16  0.3712179201       2.000000000    
    17  0.6953955662       0.000000000    
    18  0.7145533633       0.000000000    
    19  0.7385324055       0.000000000    
    20  0.7443381432       0.000000000    
    21  0.7517278543       0.000000000    
    22  0.7575072589       0.000000000    
    23  0.7584484578       0.000000000    
    24  0.7833454271       0.000000000    
    25  0.8131363632       0.000000000    
    26  0.8335795103       0.000000000    
    27  0.8623610092       0.000000000    
    28  0.9077359054       0.000000000    
    29  0.9696689157       0.000000000    
    30  0.9843576955       0.000000000    
    31  0.9941277381       0.000000000    
    32   1.004099130       0.000000000    
    33   1.107305206       0.000000000    
    34   1.178387184       0.000000000    
    35   1.209240748       0.000000000    
    36   1.210153362       0.000000000    
    37   1.213284050       0.000000000    
 
 
    26  0.5000000000       0.000000000      0.3333333333     : k-point, vkl
 (state, eigenvalue and occupancy below)
     1 -0.1739391390       2.000000000    
     2 -0.1739324609       2.000000000    
     3 -0.1522368714       2.000000000    
     4 -0.1522297514       2.000000000    
     5 -0.1390271747E-01   2.000000000    
     6 -0.1389879724E-01   2.000000000    
     7  0.5537568916E-01   2.000000000    
     8  0.5538003725E-01   2.000000000    
     9  0.2334888377       2.000000000    
    10  0.2334911699       2.000000000    
    11  0.3071999670       2.000000000    
    12  0.3072235784       2.000000000    
    13  0.3327891699       2.000000000    
    14  0.3328306932       2.000000000    
    15  0.3366779403       2.000000000    
    16  0.3366986230       2.000000000    
    17  0.7364991161       0.000000000    
    18  0.7366230136       0.000000000    
    19  0.7471453568       0.000000000    
    20  0.7472250535       0.000000000    
    21  0.7637989284       0.000000000    
    22  0.7639328547       0.000000000    
    23  0.7866949509       0.000000000    
    24  0.7867753400       0.000000000    
    25  0.7916754305       0.000000000    
    26  0.7918568780       0.000000000    
    27  0.8444244062       0.000000000    
    28  0.8444343494       0.000000000    
    29  0.9877014189       0.000000000    
    30  0.9877028095       0.000000000    
    31   1.013206047       0.000000000    
    32   1.013207107       0.000000000    
    33   1.174636161       0.000000000    
    34   1.174640431       0.000000000    
    35   1.214151920       0.000000000    
    36   1.214167152       0.000000000    
    37   1.241392997       0.000000000    
 
 
    27   0.000000000      0.1250000000      0.3333333333     : k-point, vkl
 (state, eigenvalue and occupancy below)
     1 -0.3254965876       2.000000000    
     2 -0.2975877210       2.000000000    
     3 -0.1885229777       2.000000000    
     4 -0.1102434954       2.000000000    
     5  0.7270423576E-01   2.000000000    
     6  0.1501308351       2.000000000    
     7  0.1793674223       2.000000000    
     8  0.2284549245       2.000000000    
     9  0.2312356322       2.000000000    
    10  0.2546401274       2.000000000    
    11  0.2707769243       2.000000000    
    12  0.3366639266       2.000000000    
    13  0.3501687801       2.000000000    
    14  0.3821230152       2.000000000    
    15  0.4057461504       2.000000000    
    16  0.4170776111       2.000000000    
    17  0.6236358254       0.000000000    
    18  0.6282878449       0.000000000    
    19  0.6598678267       0.000000000    
    20  0.6755781905       0.000000000    
    21  0.6917523380       0.000000000    
    22  0.7015301380       0.000000000    
    23  0.7072651953       0.000000000    
    24  0.7630462850       0.000000000    
    25  0.7646125398       0.000000000    
    26  0.7656243563       0.000000000    
    27  0.9272719003       0.000000000    
    28  0.9329539115       0.000000000    
    29  0.9349312523       0.000000000    
    30  0.9435071567       0.000000000    
    31   1.001696862       0.000000000    
    32   1.009545012       0.000000000    
    33   1.176890355       0.000000000    
    34   1.184735065       0.000000000    
    35   1.207584734       0.000000000    
    36   1.232254027       0.000000000    
    37   1.241827420       0.000000000    
 
 
    28  0.1250000000      0.1250000000      0.3333333333     : k-point, vkl
 (state, eigenvalue and occupancy below)
     1 -0.3150022489       2.000000000    
     2 -0.2872030907       2.000000000    
     3 -0.1788475991       2.000000000    
     4 -0.1015904785       2.000000000    
     5  0.7271153617E-01   2.000000000    
     6  0.1436990677       2.000000000    
     7  0.1761685513       2.000000000    
     8  0.1984136499       2.000000000    
     9  0.1994104008       2.000000000    
    10  0.2579373855       2.000000000    
    11  0.2633043562       2.000000000    
    12  0.2934215569       2.000000000    
    13  0.3269975676       2.000000000    
    14  0.3493063933       2.000000000    
    15  0.3973086228       2.000000000    
    16  0.4162335281       2.000000000    
    17  0.6654160497       0.000000000    
    18  0.6735579251       0.000000000    
    19  0.6756615550       0.000000000    
    20  0.6927580825       0.000000000    
    21  0.7261825282       0.000000000    
    22  0.7299002377       0.000000000    
    23  0.7310747293       0.000000000    
    24  0.7572497505       0.000000000    
    25  0.7704856300       0.000000000    
    26  0.7884453687       0.000000000    
    27  0.8809479868       0.000000000    
    28  0.9364389052       0.000000000    
    29  0.9392421813       0.000000000    
    30  0.9520776345       0.000000000    
    31  0.9573933438       0.000000000    
    32   1.018289498       0.000000000    
    33   1.184613293       0.000000000    
    34   1.190826113       0.000000000    
    35   1.210671719       0.000000000    
    36   1.211624789       0.000000000    
    37   1.234863657       0.000000000    
 
 
    29  0.2500000000      0.1250000000      0.3333333333     : k-point, vkl
 (state, eigenvalue and occupancy below)
     1 -0.2837346081       2.000000000    
     2 -0.2563298052       2.000000000    
     3 -0.1509384859       2.000000000    
     4 -0.7964625670E-01   2.000000000    
     5  0.3910338730E-01   2.000000000    
     6  0.7086623211E-01   2.000000000    
     7  0.1476991368       2.000000000    
     8  0.1722176847       2.000000000    
     9  0.2001446836       2.000000000    
    10  0.2165398733       2.000000000    
    11  0.2381054302       2.000000000    
    12  0.2736090874       2.000000000    
    13  0.2935779311       2.000000000    
    14  0.3337376505       2.000000000    
    15  0.3700772379       2.000000000    
    16  0.3783715644       2.000000000    
    17  0.6668506704       0.000000000    
    18  0.7190092214       0.000000000    
    19  0.7276712295       0.000000000    
    20  0.7298968196       0.000000000    
    21  0.7591918883       0.000000000    
    22  0.7782235747       0.000000000    
    23  0.7843459263       0.000000000    
    24  0.7851354636       0.000000000    
    25  0.8057321301       0.000000000    
    26  0.8409020416       0.000000000    
    27  0.8874637967       0.000000000    
    28  0.8911482332       0.000000000    
    29  0.9205211645       0.000000000    
    30  0.9439569243       0.000000000    
    31  0.9560488052       0.000000000    
    32  0.9892374128       0.000000000    
    33   1.148793686       0.000000000    
    34   1.171742889       0.000000000    
    35   1.185664329       0.000000000    
    36   1.195335508       0.000000000    
    37   1.212174872       0.000000000    
 
 
    30  0.3750000000      0.1250000000      0.3333333333     : k-point, vkl
 (state, eigenvalue and occupancy below)
     1 -0.2325297612       2.000000000    
     2 -0.2062022760       2.000000000    
     3 -0.1151641572       2.000000000    
     4 -0.9066770696E-01   2.000000000    
     5 -0.1350363740E-01   2.000000000    
     6  0.8723565067E-02   2.000000000    
     7  0.7408923293E-01   2.000000000    
     8  0.1430329208       2.000000000    
     9  0.1765549981       2.000000000    
    10  0.2354695693       2.000000000    
    11  0.2528858568       2.000000000    
    12  0.2917399834       2.000000000    
    13  0.2936882211       2.000000000    
    14  0.3048337908       2.000000000    
    15  0.3287031014       2.000000000    
    16  0.3353879445       2.000000000    
    17  0.6865443196       0.000000000    
    18  0.7189675564       0.000000000    
    19  0.7391590016       0.000000000    
    20  0.7485991705       0.000000000    
    21  0.7825399602       0.000000000    
    22  0.7832290253       0.000000000    
    23  0.8021913081       0.000000000    
    24  0.8086142333       0.000000000    
    25  0.8103196722       0.000000000    
    26  0.8357150403       0.000000000    
    27  0.8829697088       0.000000000    
    28  0.9044162540       0.000000000    
    29  0.9386447912       0.000000000    
    30  0.9666097020       0.000000000    
    31  0.9720219250       0.000000000    
    32  0.9975377031       0.000000000    
    33   1.099126617       0.000000000    
    34   1.139684549       0.000000000    
    35   1.209217433       0.000000000    
    36   1.216198692       0.000000000    
    37   1.228682887       0.000000000    
 
 
    31  0.5000000000      0.1250000000      0.3333333333     : k-point, vkl
 (state, eigenvalue and occupancy below)
     1 -0.1639417406       2.000000000    
     2 -0.1639350725       2.000000000    
     3 -0.1425296214       2.000000000    
     4 -0.1425225353       2.000000000    
     5 -0.5138086528E-02   2.000000000    
     6 -0.5134134144E-02   2.000000000    
     7  0.6197145422E-01   2.000000000    
     8  0.6197584271E-01   2.000000000    
     9  0.2291723283       2.000000000    
    10  0.2291767554       2.000000000    
    11  0.2828117577       2.000000000    
    12  0.2828414064       2.000000000    
    13  0.2937317485       2.000000000    
    14  0.2937758958       2.000000000    
    15  0.3073474049       2.000000000    
    16  0.3073738002       2.000000000    
    17  0.7157083895       0.000000000    
    18  0.7157254716       0.000000000    
    19  0.7257168282       0.000000000    
    20  0.7257399481       0.000000000    
    21  0.7973318724       0.000000000    
    22  0.7973454383       0.000000000    
    23  0.8048417858       0.000000000    
    24  0.8048595087       0.000000000    
    25  0.8297644397       0.000000000    
    26  0.8298050342       0.000000000    
    27  0.8914534917       0.000000000    
    28  0.8914726784       0.000000000    
    29  0.9330421624       0.000000000    
    30  0.9330461563       0.000000000    
    31  0.9857576396       0.000000000    
    32  0.9857613839       0.000000000    
    33   1.180621699       0.000000000    
    34   1.180648815       0.000000000    
    35   1.189464253       0.000000000    
    36   1.189492595       0.000000000    
    37   1.270282692       0.000000000    
 
 
    32  0.6250000000      0.1250000000      0.3333333333     : k-point, vkl
 (state, eigenvalue and occupancy below)
     1 -0.2325298894       2.000000000    
     2 -0.2062023992       2.000000000    
     3 -0.1151641364       2.000000000    
     4 -0.9066752927E-01   2.000000000    
     5 -0.1350352913E-01   2.000000000    
     6  0.8723459363E-02   2.000000000    
     7  0.7408944840E-01   2.000000000    
     8  0.1430329755       2.000000000    
     9  0.1765563806       2.000000000    
    10  0.2354749764       2.000000000    
    11  0.2528835070       2.000000000    
    12  0.2916104825       2.000000000    
    13  0.2938053743       2.000000000    
    14  0.3048419575       2.000000000    
    15  0.3286919192       2.000000000    
    16  0.3353988386       2.000000000    
    17  0.6865315694       0.000000000    
    18  0.7189467714       0.000000000    
    19  0.7391922008       0.000000000    
    20  0.7486143455       0.000000000    
    21  0.7825586704       0.000000000    
    22  0.7832401731       0.000000000    
    23  0.8022471956       0.000000000    
    24  0.8085366145       0.000000000    
    25  0.8103014161       0.000000000    
    26  0.8356971380       0.000000000    
    27  0.8829778729       0.000000000    
    28  0.9044168396       0.000000000    
    29  0.9386459631       0.000000000    
    30  0.9666282418       0.000000000    
    31  0.9720037002       0.000000000    
    32  0.9975400808       0.000000000    
    33   1.099127764       0.000000000    
    34   1.139684790       0.000000000    
    35   1.209234889       0.000000000    
    36   1.216190674       0.000000000    
    37   1.228678969       0.000000000    
 
 
    33  0.7500000000      0.1250000000      0.3333333333     : k-point, vkl
 (state, eigenvalue and occupancy below)
     1 -0.2837346888       2.000000000    
     2 -0.2563298864       2.000000000    
     3 -0.1509385419       2.000000000    
     4 -0.7964623921E-01   2.000000000    
     5  0.3910355916E-01   2.000000000    
     6  0.7086645203E-01   2.000000000    
     7  0.1476989862       2.000000000    
     8  0.1722201943       2.000000000    
     9  0.2001449424       2.000000000    
    10  0.2165370854       2.000000000    
    11  0.2381116909       2.000000000    
    12  0.2736023578       2.000000000    
    13  0.2935746847       2.000000000    
    14  0.3337374262       2.000000000    
    15  0.3700779197       2.000000000    
    16  0.3783751569       2.000000000    
    17  0.6668353062       0.000000000    
    18  0.7189685050       0.000000000    
    19  0.7277229739       0.000000000    
    20  0.7299162156       0.000000000    
    21  0.7591926167       0.000000000    
    22  0.7782263880       0.000000000    
    23  0.7842847888       0.000000000    
    24  0.7852129866       0.000000000    
    25  0.8057139370       0.000000000    
    26  0.8408929959       0.000000000    
    27  0.8875649194       0.000000000    
    28  0.8910148230       0.000000000    
    29  0.9205104900       0.000000000    
    30  0.9439831108       0.000000000    
    31  0.9560528959       0.000000000    
    32  0.9892464200       0.000000000    
    33   1.148791124       0.000000000    
    34   1.171765318       0.000000000    
    35   1.185648474       0.000000000    
    36   1.195336459       0.000000000    
    37   1.212163636       0.000000000    
 
 
    34  0.8750000000      0.1250000000      0.3333333333     : k-point, vkl
 (state, eigenvalue and occupancy below)
     1 -0.3150022883       2.000000000    
     2 -0.2872031311       2.000000000    
     3 -0.1788476319       2.000000000    
     4 -0.1015904901       2.000000000    
     5  0.7271164182E-01   2.000000000    
     6  0.1436986570       2.000000000    
     7  0.1761716120       2.000000000    
     8  0.1984040501       2.000000000    
     9  0.1994192815       2.000000000    
    10  0.2579350572       2.000000000    
    11  0.2633034622       2.000000000    
    12  0.2934297913       2.000000000    
    13  0.3269833670       2.000000000    
    14  0.3493109540       2.000000000    
    15  0.3973090287       2.000000000    
    16  0.4162364487       2.000000000    
    17  0.6653091733       0.000000000    
    18  0.6736613014       0.000000000    
    19  0.6756559555       0.000000000    
    20  0.6927820519       0.000000000    
    21  0.7261955573       0.000000000    
    22  0.7299030830       0.000000000    
    23  0.7310503631       0.000000000    
    24  0.7572413983       0.000000000    
    25  0.7704933935       0.000000000    
    26  0.7884480578       0.000000000    
    27  0.8809337973       0.000000000    
    28  0.9364166307       0.000000000    
    29  0.9392330351       0.000000000    
    30  0.9520851947       0.000000000    
    31  0.9574230148       0.000000000    
    32   1.018295275       0.000000000    
    33   1.184618904       0.000000000    
    34   1.190815164       0.000000000    
    35   1.210778887       0.000000000    
    36   1.211510042       0.000000000    
    37   1.234832836       0.000000000    
 
 
    35   0.000000000      0.2500000000      0.3333333333     : k-point, vkl
 (state, eigenvalue and occupancy below)
     1 -0.2941460129       2.000000000    
     2 -0.2666101087       2.000000000    
     3 -0.1604153807       2.000000000    
     4 -0.8823743030E-01   2.000000000    
     5  0.3241861679E-01   2.000000000    
     6  0.6289786287E-01   2.000000000    
     7  0.1504787928       2.000000000    
     8  0.1661625352       2.000000000    
     9  0.2351913604       2.000000000    
    10  0.2404886807       2.000000000    
    11  0.2529901301       2.000000000    
    12  0.2762370354       2.000000000    
    13  0.3557806774       2.000000000    
    14  0.3658326277       2.000000000    
    15  0.3735442081       2.000000000    
    16  0.3957772013       2.000000000    
    17  0.6561986576       0.000000000    
    18  0.6743367779       0.000000000    
    19  0.7066582203       0.000000000    
    20  0.7193006910       0.000000000    
    21  0.7307351637       0.000000000    
    22  0.7371443472       0.000000000    
    23  0.7515003683       0.000000000    
    24  0.7518301220       0.000000000    
    25  0.8458226216       0.000000000    
    26  0.8774628431       0.000000000    
    27  0.8791978148       0.000000000    
    28  0.8887874071       0.000000000    
    29  0.9388900643       0.000000000    
    30  0.9634994914       0.000000000    
    31  0.9667591938       0.000000000    
    32  0.9773848713       0.000000000    
    33   1.160900845       0.000000000    
    34   1.198715911       0.000000000    
    35   1.203199258       0.000000000    
    36   1.204905512       0.000000000    
    37   1.230761101       0.000000000    
 
 
    36  0.1250000000      0.2500000000      0.3333333333     : k-point, vkl
 (state, eigenvalue and occupancy below)
     1 -0.2837346081       2.000000000    
     2 -0.2563298052       2.000000000    
     3 -0.1509384859       2.000000000    
     4 -0.7964625670E-01   2.000000000    
     5  0.3910338730E-01   2.000000000    
     6  0.7086623211E-01   2.000000000    
     7  0.1476991368       2.000000000    
     8  0.1722176847       2.000000000    
     9  0.2001446836       2.000000000    
    10  0.2165398733       2.000000000    
    11  0.2381054302       2.000000000    
    12  0.2736090874       2.000000000    
    13  0.2935779311       2.000000000    
    14  0.3337376505       2.000000000    
    15  0.3700772379       2.000000000    
    16  0.3783715644       2.000000000    
    17  0.6668506704       0.000000000    
    18  0.7190092214       0.000000000    
    19  0.7276712295       0.000000000    
    20  0.7298968196       0.000000000    
    21  0.7591918883       0.000000000    
    22  0.7782235747       0.000000000    
    23  0.7843459263       0.000000000    
    24  0.7851354636       0.000000000    
    25  0.8057321301       0.000000000    
    26  0.8409020416       0.000000000    
    27  0.8874637967       0.000000000    
    28  0.8911482332       0.000000000    
    29  0.9205211645       0.000000000    
    30  0.9439569243       0.000000000    
    31  0.9560488052       0.000000000    
    32  0.9892374128       0.000000000    
    33   1.148793686       0.000000000    
    34   1.171742889       0.000000000    
    35   1.185664329       0.000000000    
    36   1.195335508       0.000000000    
    37   1.212174872       0.000000000    
 
 
    37  0.2500000000      0.2500000000      0.3333333333     : k-point, vkl
 (state, eigenvalue and occupancy below)
     1 -0.2527266481       2.000000000    
     2 -0.2257845633       2.000000000    
     3 -0.1235999317       2.000000000    
     4 -0.5703214567E-01   2.000000000    
     5  0.4223119581E-01   2.000000000    
     6  0.7848916193E-01   2.000000000    
     7  0.1138007913       2.000000000    
     8  0.1270195275       2.000000000    
     9  0.1746211877       2.000000000    
    10  0.2017737429       2.000000000    
    11  0.2130147668       2.000000000    
    12  0.2304897099       2.000000000    
    13  0.2648423919       2.000000000    
    14  0.2783532672       2.000000000    
    15  0.3227207433       2.000000000    
    16  0.3423668452       2.000000000    
    17  0.6422656086       0.000000000    
    18  0.7280099198       0.000000000    
    19  0.7308374360       0.000000000    
    20  0.7737274107       0.000000000    
    21  0.7781430488       0.000000000    
    22  0.8310961919       0.000000000    
    23  0.8369136177       0.000000000    
    24  0.8392980192       0.000000000    
    25  0.8431159499       0.000000000    
    26  0.8648344492       0.000000000    
    27  0.8665021626       0.000000000    
    28  0.9033081510       0.000000000    
    29  0.9044973554       0.000000000    
    30  0.9356643331       0.000000000    
    31  0.9468425087       0.000000000    
    32  0.9656517170       0.000000000    
    33   1.101601318       0.000000000    
    34   1.138005254       0.000000000    
    35   1.190276326       0.000000000    
    36   1.198016121       0.000000000    
    37   1.214464650       0.000000000    
 
 
    38  0.3750000000      0.2500000000      0.3333333333     : k-point, vkl
 (state, eigenvalue and occupancy below)
     1 -0.2019965093       2.000000000    
     2 -0.1762677526       2.000000000    
     3 -0.8826554618E-01   2.000000000    
     4 -0.6272557805E-01   2.000000000    
     5  0.1192180026E-01   2.000000000    
     6  0.2322454023E-01   2.000000000    
     7  0.9450232856E-01   2.000000000    
     8  0.1338178177       2.000000000    
     9  0.1507625524       2.000000000    
    10  0.1523384037       2.000000000    
    11  0.2204936311       2.000000000    
    12  0.2249141325       2.000000000    
    13  0.2482274627       2.000000000    
    14  0.2675330562       2.000000000    
    15  0.2790391534       2.000000000    
    16  0.2878250632       2.000000000    
    17  0.6414387555       0.000000000    
    18  0.6871361422       0.000000000    
    19  0.7047683868       0.000000000    
    20  0.7113813495       0.000000000    
    21  0.7979836662       0.000000000    
    22  0.8143331857       0.000000000    
    23  0.8628947906       0.000000000    
    24  0.8796494577       0.000000000    
    25  0.8823233716       0.000000000    
    26  0.8985445380       0.000000000    
    27  0.9004013140       0.000000000    
    28  0.9136921088       0.000000000    
    29  0.9211933231       0.000000000    
    30  0.9359982282       0.000000000    
    31  0.9686740112       0.000000000    
    32  0.9836794873       0.000000000    
    33   1.090325410       0.000000000    
    34   1.134079770       0.000000000    
    35   1.197973070       0.000000000    
    36   1.227339088       0.000000000    
    37   1.256000439       0.000000000    
 
 
    39  0.5000000000      0.2500000000      0.3333333333     : k-point, vkl
 (state, eigenvalue and occupancy below)
     1 -0.1341958060       2.000000000    
     2 -0.1341892494       2.000000000    
     3 -0.1137009947       2.000000000    
     4 -0.1136941272       2.000000000    
     5  0.1872379168E-01   2.000000000    
     6  0.1872793416E-01   2.000000000    
     7  0.7512326111E-01   2.000000000    
     8  0.7512810179E-01   2.000000000    
     9  0.1888169111       2.000000000    
    10  0.1888256220       2.000000000    
    11  0.2013588067       2.000000000    
    12  0.2013697904       2.000000000    
    13  0.2494474941       2.000000000    
    14  0.2494591263       2.000000000    
    15  0.2691680173       2.000000000    
    16  0.2691753278       2.000000000    
    17  0.6591355315       0.000000000    
    18  0.6591469938       0.000000000    
    19  0.6844132892       0.000000000    
    20  0.6844244953       0.000000000    
    21  0.8125779927       0.000000000    
    22  0.8125942407       0.000000000    
    23  0.8686930059       0.000000000    
    24  0.8687161114       0.000000000    
    25  0.9056513187       0.000000000    
    26  0.9057559902       0.000000000    
    27  0.9167072982       0.000000000    
    28  0.9168197995       0.000000000    
    29  0.9289981516       0.000000000    
    30  0.9290299573       0.000000000    
    31  0.9595003223       0.000000000    
    32  0.9595268232       0.000000000    
    33   1.159798490       0.000000000    
    34   1.159802787       0.000000000    
    35   1.204431930       0.000000000    
    36   1.204440901       0.000000000    
    37   1.290030343       0.000000000    
 
 
    40  0.6250000000      0.2500000000      0.3333333333     : k-point, vkl
 (state, eigenvalue and occupancy below)
     1 -0.2019967745       2.000000000    
     2 -0.1762680039       2.000000000    
     3 -0.8826552126E-01   2.000000000    
     4 -0.6272522100E-01   2.000000000    
     5  0.1192195473E-01   2.000000000    
     6  0.2322499831E-01   2.000000000    
     7  0.9450246670E-01   2.000000000    
     8  0.1338192901       2.000000000    
     9  0.1507323292       2.000000000    
    10  0.1523701504       2.000000000    
    11  0.2205177055       2.000000000    
    12  0.2248815783       2.000000000    
    13  0.2482299884       2.000000000    
    14  0.2675255096       2.000000000    
    15  0.2790438975       2.000000000    
    16  0.2878300742       2.000000000    
    17  0.6414338907       0.000000000    
    18  0.6871404956       0.000000000    
    19  0.7048182380       0.000000000    
    20  0.7113319386       0.000000000    
    21  0.7979564906       0.000000000    
    22  0.8143641692       0.000000000    
    23  0.8629443519       0.000000000    
    24  0.8796122964       0.000000000    
    25  0.8823266969       0.000000000    
    26  0.8985369233       0.000000000    
    27  0.9003898976       0.000000000    
    28  0.9136808491       0.000000000    
    29  0.9211939864       0.000000000    
    30  0.9360126458       0.000000000    
    31  0.9686728553       0.000000000    
    32  0.9836683867       0.000000000    
    33   1.090325307       0.000000000    
    34   1.134093075       0.000000000    
    35   1.197981853       0.000000000    
    36   1.227330057       0.000000000    
    37   1.256101440       0.000000000    
 
 
    41  0.7500000000      0.2500000000      0.3333333333     : k-point, vkl
 (state, eigenvalue and occupancy below)
     1 -0.2527268143       2.000000000    
     2 -0.2257847273       2.000000000    
     3 -0.1236000259       2.000000000    
     4 -0.5703207967E-01   2.000000000    
     5  0.4223165373E-01   2.000000000    
     6  0.7848992788E-01   2.000000000    
     7  0.1138014813       2.000000000    
     8  0.1270197005       2.000000000    
     9  0.1746205195       2.000000000    
    10  0.2017860162       2.000000000    
    11  0.2130082972       2.000000000    
    12  0.2304794977       2.000000000    
    13  0.2648642641       2.000000000    
    14  0.2783248365       2.000000000    
    15  0.3227286323       2.000000000    
    16  0.3423690136       2.000000000    
    17  0.6422593263       0.000000000    
    18  0.7280066407       0.000000000    
    19  0.7308448948       0.000000000    
    20  0.7737286393       0.000000000    
    21  0.7781537953       0.000000000    
    22  0.8312167874       0.000000000    
    23  0.8368010399       0.000000000    
    24  0.8392998550       0.000000000    
    25  0.8431244010       0.000000000    
    26  0.8648076882       0.000000000    
    27  0.8665078921       0.000000000    
    28  0.9033372808       0.000000000    
    29  0.9044529303       0.000000000    
    30  0.9356262900       0.000000000    
    31  0.9468620131       0.000000000    
    32  0.9656778341       0.000000000    
    33   1.101598388       0.000000000    
    34   1.138015664       0.000000000    
    35   1.190292503       0.000000000    
    36   1.198017350       0.000000000    
    37   1.214438308       0.000000000    
 
 
    42  0.8750000000      0.2500000000      0.3333333333     : k-point, vkl
 (state, eigenvalue and occupancy below)
     1 -0.2837346888       2.000000000    
     2 -0.2563298864       2.000000000    
     3 -0.1509385419       2.000000000    
     4 -0.7964623921E-01   2.000000000    
     5  0.3910355916E-01   2.000000000    
     6  0.7086645203E-01   2.000000000    
     7  0.1476989862       2.000000000    
     8  0.1722201943       2.000000000    
     9  0.2001449424       2.000000000    
    10  0.2165370854       2.000000000    
    11  0.2381116909       2.000000000    
    12  0.2736023578       2.000000000    
    13  0.2935746847       2.000000000    
    14  0.3337374262       2.000000000    
    15  0.3700779197       2.000000000    
    16  0.3783751569       2.000000000    
    17  0.6668353062       0.000000000    
    18  0.7189685050       0.000000000    
    19  0.7277229739       0.000000000    
    20  0.7299162156       0.000000000    
    21  0.7591926167       0.000000000    
    22  0.7782263880       0.000000000    
    23  0.7842847888       0.000000000    
    24  0.7852129866       0.000000000    
    25  0.8057139370       0.000000000    
    26  0.8408929959       0.000000000    
    27  0.8875649194       0.000000000    
    28  0.8910148230       0.000000000    
    29  0.9205104900       0.000000000    
    30  0.9439831108       0.000000000    
    31  0.9560528959       0.000000000    
    32  0.9892464200       0.000000000    
    33   1.148791124       0.000000000    
    34   1.171765318       0.000000000    
    35   1.185648474       0.000000000    
    36   1.195336459       0.000000000    
    37   1.212163636       0.000000000    
 
 
    43   0.000000000      0.3750000000      0.3333333333     : k-point, vkl
 (state, eigenvalue and occupancy below)
     1 -0.2427880462       2.000000000    
     2 -0.2162844894       2.000000000    
     3 -0.1243692991       2.000000000    
     4 -0.1001129779       2.000000000    
     5 -0.2281240336E-01   2.000000000    
     6  0.1308966472E-02   2.000000000    
     7  0.6628717454E-01   2.000000000    
     8  0.1377367193       2.000000000    
     9  0.1805020282       2.000000000    
    10  0.2695299147       2.000000000    
    11  0.2900184536       2.000000000    
    12  0.2984313051       2.000000000    
    13  0.3067811716       2.000000000    
    14  0.3452147278       2.000000000    
    15  0.3542088469       2.000000000    
    16  0.3712179201       2.000000000    
    17  0.6953955662       0.000000000    
    18  0.7145533633       0.000000000    
    19  0.7385324055       0.000000000    
    20  0.7443381432       0.000000000    
    21  0.7517278543       0.000000000    
    22  0.7575072589       0.000000000    
    23  0.7584484578       0.000000000    
    24  0.7833454271       0.000000000    
    25  0.8131363632       0.000000000    
    26  0.8335795103       0.000000000    
    27  0.8623610092       0.000000000    
    28  0.9077359054       0.000000000    
    29  0.9696689157       0.000000000    
    30  0.9843576955       0.000000000    
    31  0.9941277381       0.000000000    
    32   1.004099130       0.000000000    
    33   1.107305206       0.000000000    
    34   1.178387184       0.000000000    
    35   1.209240748       0.000000000    
    36   1.210153362       0.000000000    
    37   1.213284050       0.000000000    
 
 
    44  0.1250000000      0.3750000000      0.3333333333     : k-point, vkl
 (state, eigenvalue and occupancy below)
     1 -0.2325297612       2.000000000    
     2 -0.2062022760       2.000000000    
     3 -0.1151641572       2.000000000    
     4 -0.9066770696E-01   2.000000000    
     5 -0.1350363740E-01   2.000000000    
     6  0.8723565067E-02   2.000000000    
     7  0.7408923293E-01   2.000000000    
     8  0.1430329208       2.000000000    
     9  0.1765549981       2.000000000    
    10  0.2354695693       2.000000000    
    11  0.2528858568       2.000000000    
    12  0.2917399834       2.000000000    
    13  0.2936882211       2.000000000    
    14  0.3048337908       2.000000000    
    15  0.3287031014       2.000000000    
    16  0.3353879445       2.000000000    
    17  0.6865443196       0.000000000    
    18  0.7189675564       0.000000000    
    19  0.7391590016       0.000000000    
    20  0.7485991705       0.000000000    
    21  0.7825399602       0.000000000    
    22  0.7832290253       0.000000000    
    23  0.8021913081       0.000000000    
    24  0.8086142333       0.000000000    
    25  0.8103196722       0.000000000    
    26  0.8357150403       0.000000000    
    27  0.8829697088       0.000000000    
    28  0.9044162540       0.000000000    
    29  0.9386447912       0.000000000    
    30  0.9666097020       0.000000000    
    31  0.9720219250       0.000000000    
    32  0.9975377031       0.000000000    
    33   1.099126617       0.000000000    
    34   1.139684549       0.000000000    
    35   1.209217433       0.000000000    
    36   1.216198692       0.000000000    
    37   1.228682887       0.000000000    
 
 
    45  0.2500000000      0.3750000000      0.3333333333     : k-point, vkl
 (state, eigenvalue and occupancy below)
     1 -0.2019965093       2.000000000    
     2 -0.1762677526       2.000000000    
     3 -0.8826554618E-01   2.000000000    
     4 -0.6272557805E-01   2.000000000    
     5  0.1192180026E-01   2.000000000    
     6  0.2322454023E-01   2.000000000    
     7  0.9450232856E-01   2.000000000    
     8  0.1338178177       2.000000000    
     9  0.1507625524       2.000000000    
    10  0.1523384037       2.000000000    
    11  0.2204936311       2.000000000    
    12  0.2249141325       2.000000000    
    13  0.2482274627       2.000000000    
    14  0.2675330562       2.000000000    
    15  0.2790391534       2.000000000    
    16  0.2878250632       2.000000000    
    17  0.6414387555       0.000000000    
    18  0.6871361422       0.000000000    
    19  0.7047683868       0.000000000    
    20  0.7113813495       0.000000000    
    21  0.7979836662       0.000000000    
    22  0.8143331857       0.000000000    
    23  0.8628947906       0.000000000    
    24  0.8796494577       0.000000000    
    25  0.8823233716       0.000000000    
    26  0.8985445380       0.000000000    
    27  0.9004013140       0.000000000    
    28  0.9136921088       0.000000000    
    29  0.9211933231       0.000000000    
    30  0.9359982282       0.000000000    
    31  0.9686740112       0.000000000    
    32  0.9836794873       0.000000000    
    33   1.090325410       0.000000000    
    34   1.134079770       0.000000000    
    35   1.197973070       0.000000000    
    36   1.227339088       0.000000000    
    37   1.256000439       0.000000000    
 
 
    46  0.3750000000      0.3750000000      0.3333333333     : k-point, vkl
 (state, eigenvalue and occupancy below)
     1 -0.1521069699       2.000000000    
     2 -0.1278222962       2.000000000    
     3 -0.5004242685E-01   2.000000000    
     4 -0.2490532143E-01   2.000000000    
     5  0.1196828466E-03   2.000000000    
     6  0.2516162767E-01   2.000000000    
     7  0.9594172243E-01   2.000000000    
     8  0.9633458077E-01   2.000000000    
     9  0.1174186541       2.000000000    
    10  0.1202326531       2.000000000    
    11  0.1607035908       2.000000000    
    12  0.2082155448       2.000000000    
    13  0.2258478761       2.000000000    
    14  0.2263124910       2.000000000    
    15  0.2288338167       2.000000000    
    16  0.2508712612       2.000000000    
    17  0.6312574121       0.000000000    
    18  0.6477394854       0.000000000    
    19  0.6691314543       0.000000000    
    20  0.7207195819       0.000000000    
    21  0.7234859591       0.000000000    
    22  0.7818613661       0.000000000    
    23  0.7947069528       0.000000000    
    24  0.8750778491       0.000000000    
    25  0.8882975610       0.000000000    
    26  0.9355690483       0.000000000    
    27  0.9565310634       0.000000000    
    28  0.9872105506       0.000000000    
    29  0.9930280766       0.000000000    
    30  0.9944623919       0.000000000    
    31  0.9946560440       0.000000000    
    32   1.018784055       0.000000000    
    33   1.096451893       0.000000000    
    34   1.166289246       0.000000000    
    35   1.190884146       0.000000000    
    36   1.249814840       0.000000000    
    37   1.262540751       0.000000000    
 
 
    47  0.5000000000      0.3750000000      0.3333333333     : k-point, vkl
 (state, eigenvalue and occupancy below)
     1 -0.8561563451E-01   2.000000000    
     2 -0.8560961901E-01   2.000000000    
     3 -0.6695260524E-01   2.000000000    
     4 -0.6694667433E-01   2.000000000    
     5  0.3736513348E-01   2.000000000    
     6  0.3737171494E-01   2.000000000    
     7  0.4947868937E-01   2.000000000    
     8  0.4948622495E-01   2.000000000    
     9  0.1349827697       2.000000000    
    10  0.1349861059       2.000000000    
    11  0.1618128345       2.000000000    
    12  0.1618174921       2.000000000    
    13  0.2139695160       2.000000000    
    14  0.2139763849       2.000000000    
    15  0.2262135491       2.000000000    
    16  0.2262211352       2.000000000    
    17  0.6303347483       0.000000000    
    18  0.6303465019       0.000000000    
    19  0.6943261088       0.000000000    
    20  0.6943435750       0.000000000    
    21  0.7183579337       0.000000000    
    22  0.7183673532       0.000000000    
    23  0.8172920646       0.000000000    
    24  0.8173034809       0.000000000    
    25  0.9214100108       0.000000000    
    26  0.9214234573       0.000000000    
    27  0.9981922600       0.000000000    
    28  0.9983574551       0.000000000    
    29   1.002565944       0.000000000    
    30   1.002727208       0.000000000    
    31   1.019523864       0.000000000    
    32   1.019556677       0.000000000    
    33   1.164919296       0.000000000    
    34   1.164923926       0.000000000    
    35   1.225841089       0.000000000    
    36   1.225857119       0.000000000    
    37   1.291040229       0.000000000    
 
 
    48  0.6250000000      0.3750000000      0.3333333333     : k-point, vkl
 (state, eigenvalue and occupancy below)
     1 -0.1521073879       2.000000000    
     2 -0.1278226777       2.000000000    
     3 -0.5004247645E-01   2.000000000    
     4 -0.2490504520E-01   2.000000000    
     5  0.1211513915E-03   2.000000000    
     6  0.2516279046E-01   2.000000000    
     7  0.9594209645E-01   2.000000000    
     8  0.9633454673E-01   2.000000000    
     9  0.1174138943       2.000000000    
    10  0.1202327813       2.000000000    
    11  0.1607066307       2.000000000    
    12  0.2082205931       2.000000000    
    13  0.2257877038       2.000000000    
    14  0.2263439198       2.000000000    
    15  0.2288570236       2.000000000    
    16  0.2508705021       2.000000000    
    17  0.6312538666       0.000000000    
    18  0.6477524583       0.000000000    
    19  0.6691313876       0.000000000    
    20  0.7206364432       0.000000000    
    21  0.7235507414       0.000000000    
    22  0.7818836173       0.000000000    
    23  0.7946907613       0.000000000    
    24  0.8750855898       0.000000000    
    25  0.8883153267       0.000000000    
    26  0.9355691917       0.000000000    
    27  0.9565131118       0.000000000    
    28  0.9871498365       0.000000000    
    29  0.9930296596       0.000000000    
    30  0.9945129526       0.000000000    
    31  0.9946494963       0.000000000    
    32   1.018785721       0.000000000    
    33   1.096455196       0.000000000    
    34   1.166301567       0.000000000    
    35   1.190888254       0.000000000    
    36   1.249793110       0.000000000    
    37   1.262631071       0.000000000    
 
 
    49  0.7500000000      0.3750000000      0.3333333333     : k-point, vkl
 (state, eigenvalue and occupancy below)
     1 -0.2019967745       2.000000000    
     2 -0.1762680039       2.000000000    
     3 -0.8826552126E-01   2.000000000    
     4 -0.6272522100E-01   2.000000000    
     5  0.1192195473E-01   2.000000000    
     6  0.2322499831E-01   2.000000000    
     7  0.9450246670E-01   2.000000000    
     8  0.1338192901       2.000000000    
     9  0.1507323292       2.000000000    
    10  0.1523701504       2.000000000    
    11  0.2205177055       2.000000000    
    12  0.2248815783       2.000000000    
    13  0.2482299884       2.000000000    
    14  0.2675255096       2.000000000    
    15  0.2790438975       2.000000000    
    16  0.2878300742       2.000000000    
    17  0.6414338907       0.000000000    
    18  0.6871404956       0.000000000    
    19  0.7048182380       0.000000000    
    20  0.7113319386       0.000000000    
    21  0.7979564906       0.000000000    
    22  0.8143641692       0.000000000    
    23  0.8629443519       0.000000000    
    24  0.8796122964       0.000000000    
    25  0.8823266969       0.000000000    
    26  0.8985369233       0.000000000    
    27  0.9003898976       0.000000000    
    28  0.9136808491       0.000000000    
    29  0.9211939864       0.000000000    
    30  0.9360126458       0.000000000    
    31  0.9686728553       0.000000000    
    32  0.9836683867       0.000000000    
    33   1.090325307       0.000000000    
    34   1.134093075       0.000000000    
    35   1.197981853       0.000000000    
    36   1.227330057       0.000000000    
    37   1.256101440       0.000000000    
 
 
    50  0.8750000000      0.3750000000      0.3333333333     : k-point, vkl
 (state, eigenvalue and occupancy below)
     1 -0.2325298894       2.000000000    
     2 -0.2062023992       2.000000000    
     3 -0.1151641364       2.000000000    
     4 -0.9066752927E-01   2.000000000    
     5 -0.1350352913E-01   2.000000000    
     6  0.8723459363E-02   2.000000000    
     7  0.7408944840E-01   2.000000000    
     8  0.1430329755       2.000000000    
     9  0.1765563806       2.000000000    
    10  0.2354749764       2.000000000    
    11  0.2528835070       2.000000000    
    12  0.2916104825       2.000000000    
    13  0.2938053743       2.000000000    
    14  0.3048419575       2.000000000    
    15  0.3286919192       2.000000000    
    16  0.3353988386       2.000000000    
    17  0.6865315694       0.000000000    
    18  0.7189467714       0.000000000    
    19  0.7391922008       0.000000000    
    20  0.7486143455       0.000000000    
    21  0.7825586704       0.000000000    
    22  0.7832401731       0.000000000    
    23  0.8022471956       0.000000000    
    24  0.8085366145       0.000000000    
    25  0.8103014161       0.000000000    
    26  0.8356971380       0.000000000    
    27  0.8829778729       0.000000000    
    28  0.9044168396       0.000000000    
    29  0.9386459631       0.000000000    
    30  0.9666282418       0.000000000    
    31  0.9720037002       0.000000000    
    32  0.9975400808       0.000000000    
    33   1.099127764       0.000000000    
    34   1.139684790       0.000000000    
    35   1.209234889       0.000000000    
    36   1.216190674       0.000000000    
    37   1.228678969       0.000000000    
 
 
    51   0.000000000      0.5000000000      0.3333333333     : k-point, vkl
 (state, eigenvalue and occupancy below)
     1 -0.1739391390       2.000000000    
     2 -0.1739324609       2.000000000    
     3 -0.1522368714       2.000000000    
     4 -0.1522297514       2.000000000    
     5 -0.1390271747E-01   2.000000000    
     6 -0.1389879724E-01   2.000000000    
     7  0.5537568916E-01   2.000000000    
     8  0.5538003725E-01   2.000000000    
     9  0.2334888377       2.000000000    
    10  0.2334911699       2.000000000    
    11  0.3071999670       2.000000000    
    12  0.3072235784       2.000000000    
    13  0.3327891699       2.000000000    
    14  0.3328306932       2.000000000    
    15  0.3366779403       2.000000000    
    16  0.3366986230       2.000000000    
    17  0.7364991161       0.000000000    
    18  0.7366230136       0.000000000    
    19  0.7471453568       0.000000000    
    20  0.7472250535       0.000000000    
    21  0.7637989284       0.000000000    
    22  0.7639328547       0.000000000    
    23  0.7866949509       0.000000000    
    24  0.7867753400       0.000000000    
    25  0.7916754305       0.000000000    
    26  0.7918568780       0.000000000    
    27  0.8444244062       0.000000000    
    28  0.8444343494       0.000000000    
    29  0.9877014189       0.000000000    
    30  0.9877028095       0.000000000    
    31   1.013206047       0.000000000    
    32   1.013207107       0.000000000    
    33   1.174636161       0.000000000    
    34   1.174640431       0.000000000    
    35   1.214151920       0.000000000    
    36   1.214167152       0.000000000    
    37   1.241392997       0.000000000    
 
 
    52  0.1250000000      0.5000000000      0.3333333333     : k-point, vkl
 (state, eigenvalue and occupancy below)
     1 -0.1639417406       2.000000000    
     2 -0.1639350725       2.000000000    
     3 -0.1425296214       2.000000000    
     4 -0.1425225353       2.000000000    
     5 -0.5138086528E-02   2.000000000    
     6 -0.5134134144E-02   2.000000000    
     7  0.6197145422E-01   2.000000000    
     8  0.6197584271E-01   2.000000000    
     9  0.2291723283       2.000000000    
    10  0.2291767554       2.000000000    
    11  0.2828117577       2.000000000    
    12  0.2828414064       2.000000000    
    13  0.2937317485       2.000000000    
    14  0.2937758958       2.000000000    
    15  0.3073474049       2.000000000    
    16  0.3073738002       2.000000000    
    17  0.7157083895       0.000000000    
    18  0.7157254716       0.000000000    
    19  0.7257168282       0.000000000    
    20  0.7257399481       0.000000000    
    21  0.7973318724       0.000000000    
    22  0.7973454383       0.000000000    
    23  0.8048417858       0.000000000    
    24  0.8048595087       0.000000000    
    25  0.8297644397       0.000000000    
    26  0.8298050342       0.000000000    
    27  0.8914534917       0.000000000    
    28  0.8914726784       0.000000000    
    29  0.9330421624       0.000000000    
    30  0.9330461563       0.000000000    
    31  0.9857576396       0.000000000    
    32  0.9857613839       0.000000000    
    33   1.180621699       0.000000000    
    34   1.180648815       0.000000000    
    35   1.189464253       0.000000000    
    36   1.189492595       0.000000000    
    37   1.270282692       0.000000000    
 
 
    53  0.2500000000      0.5000000000      0.3333333333     : k-point, vkl
 (state, eigenvalue and occupancy below)
     1 -0.1341958060       2.000000000    
     2 -0.1341892494       2.000000000    
     3 -0.1137009947       2.000000000    
     4 -0.1136941272       2.000000000    
     5  0.1872379168E-01   2.000000000    
     6  0.1872793416E-01   2.000000000    
     7  0.7512326111E-01   2.000000000    
     8  0.7512810179E-01   2.000000000    
     9  0.1888169111       2.000000000    
    10  0.1888256220       2.000000000    
    11  0.2013588067       2.000000000    
    12  0.2013697904       2.000000000    
    13  0.2494474941       2.000000000    
    14  0.2494591263       2.000000000    
    15  0.2691680173       2.000000000    
    16  0.2691753278       2.000000000    
    17  0.6591355315       0.000000000    
    18  0.6591469938       0.000000000    
    19  0.6844132892       0.000000000    
    20  0.6844244953       0.000000000    
    21  0.8125779927       0.000000000    
    22  0.8125942407       0.000000000    
    23  0.8686930059       0.000000000    
    24  0.8687161114       0.000000000    
    25  0.9056513187       0.000000000    
    26  0.9057559902       0.000000000    
    27  0.9167072982       0.000000000    
    28  0.9168197995       0.000000000    
    29  0.9289981516       0.000000000    
    30  0.9290299573       0.000000000    
    31  0.9595003223       0.000000000    
    32  0.9595268232       0.000000000    
    33   1.159798490       0.000000000    
    34   1.159802787       0.000000000    
    35   1.204431930       0.000000000    
    36   1.204440901       0.000000000    
    37   1.290030343       0.000000000    
 
 
    54  0.3750000000      0.5000000000      0.3333333333     : k-point, vkl
 (state, eigenvalue and occupancy below)
     1 -0.8561563451E-01   2.000000000    
     2 -0.8560961901E-01   2.000000000    
     3 -0.6695260524E-01   2.000000000    
     4 -0.6694667433E-01   2.000000000    
     5  0.3736513348E-01   2.000000000    
     6  0.3737171494E-01   2.000000000    
     7  0.4947868937E-01   2.000000000    
     8  0.4948622495E-01   2.000000000    
     9  0.1349827697       2.000000000    
    10  0.1349861059       2.000000000    
    11  0.1618128345       2.000000000    
    12  0.1618174921       2.000000000    
    13  0.2139695160       2.000000000    
    14  0.2139763849       2.000000000    
    15  0.2262135491       2.000000000    
    16  0.2262211352       2.000000000    
    17  0.6303347483       0.000000000    
    18  0.6303465019       0.000000000    
    19  0.6943261088       0.000000000    
    20  0.6943435750       0.000000000    
    21  0.7183579337       0.000000000    
    22  0.7183673532       0.000000000    
    23  0.8172920646       0.000000000    
    24  0.8173034809       0.000000000    
    25  0.9214100108       0.000000000    
    26  0.9214234573       0.000000000    
    27  0.9981922600       0.000000000    
    28  0.9983574551       0.000000000    
    29   1.002565944       0.000000000    
    30   1.002727208       0.000000000    
    31   1.019523864       0.000000000    
    32   1.019556677       0.000000000    
    33   1.164919296       0.000000000    
    34   1.164923926       0.000000000    
    35   1.225841089       0.000000000    
    36   1.225857119       0.000000000    
    37   1.291040229       0.000000000    
 
 
    55  0.5000000000      0.5000000000      0.3333333333     : k-point, vkl
 (state, eigenvalue and occupancy below)
     1 -0.2081959859E-01   2.000000000    
     2 -0.2081007940E-01   2.000000000    
     3 -0.2078407304E-01   2.000000000    
     4 -0.2077984004E-01   2.000000000    
     5 -0.6793416004E-02   2.000000000    
     6 -0.6789960668E-02   2.000000000    
     7 -0.6748572037E-02   2.000000000    
     8 -0.6736610233E-02   2.000000000    
     9  0.1556543362       2.000000000    
    10  0.1556589844       2.000000000    
    11  0.1556624487       2.000000000    
    12  0.1556669929       2.000000000    
    13  0.1919234144       2.000000000    
    14  0.1919316428       2.000000000    
    15  0.1919342634       2.000000000    
    16  0.1919390537       2.000000000    
    17  0.6526094769       0.000000000    
    18  0.6526138328       0.000000000    
    19  0.6526227625       0.000000000    
    20  0.6526281808       0.000000000    
    21  0.7425233666       0.000000000    
    22  0.7425259742       0.000000000    
    23  0.7425317183       0.000000000    
    24  0.7425420483       0.000000000    
    25  0.9719579002       0.000000000    
    26  0.9719780824       0.000000000    
    27  0.9719860295       0.000000000    
    28  0.9719867111       0.000000000    
    29   1.036879723       0.000000000    
    30   1.036885839       0.000000000    
    31   1.036898315       0.000000000    
    32   1.036929605       0.000000000    
    33   1.235234682       0.000000000    
    34   1.235261551       0.000000000    
    35   1.235274403       0.000000000    
    36   1.235282798       0.000000000    
    37   1.270345132       0.000000000    
 
