    -304.793555914    
    -304.793485092    
    -304.793502318    
    -304.793534680    
    -304.793542004    
    -304.793534494    
    -304.793530534    
    -304.793522939    
    -304.793521482    
    -304.793521486    
    -304.793521486    
    -304.793521485    
 
