================================================================================
| EXCITING NITROGEN-13 started                                                 =
| version hash id: de0c1dba9f665d6c60514aa9e8bf40326ac9f394                    =
|                                                                              =
|                                                                              =
| Date (DD-MM-YYYY) : 04-05-2022                                               =
| Time (hh:mm:ss)   : 02:47:15                                                 =
|                                                                              =
| All units are atomic (Hartree, Bohr, etc.)                                   =
================================================================================
 
********************************************************************************
* Ground-state run resuming from STATE.OUT                                     *
********************************************************************************
 
++++++++++++++++++++++++++++++++++++++++++++++++++++++++++++++++++++++++++++++++
+ Starting initialization                                                      +
++++++++++++++++++++++++++++++++++++++++++++++++++++++++++++++++++++++++++++++++
 
 Lattice vectors (cartesian) :
      0.0000000000     -3.3759957000      3.3759957000
      0.0000000000     -3.3759957000     -3.3759957000
    -13.5039828000      0.0000000000      0.0000000000
 
 Reciprocal lattice vectors (cartesian) :
      0.0000000000     -0.9305677296      0.9305677296
      0.0000000000     -0.9305677296     -0.9305677296
     -0.4652838648      0.0000000000      0.0000000000
 
 Unit cell volume                           :     307.8191548003
 Brillouin zone volume                      :       0.8058309874
 
 Species :    1 (C)
     parameters loaded from                 :    C.xml
     name                                   :    carbon
     nuclear charge                         :      -6.00000000
     electronic charge                      :       6.00000000
     atomic mass                            :   21894.16673000
     muffin-tin radius                      :       1.25000000
     # of radial points in muffin-tin       :     250
 
     atomic positions (lattice) :
       1 :   0.00000000  0.00000000  0.00000000
       2 :   0.50000000  0.50000000  0.75029621
       3 :   0.00000000  0.00000000  0.50000000
       4 :   0.50000000  0.50000000  0.24970379
       5 :   0.00000000  0.50000000  0.87500000
       6 :   0.50000000  0.00000000  0.62500000
       7 :   0.00000000  0.50000000  0.37500000
       8 :   0.50000000  0.00000000  0.12500000
 
 Total number of atoms per unit cell        :       8
 
 Spin treatment                             :    spin-unpolarised
 
 Number of Bravais lattice symmetries       :      16
 Number of crystal symmetries               :       8
 
 Sphere radius used for k-point grid density:      33.42065234
 
 k-point grid                               :       8    8    3
 Total number of k-points                   :      40
 k-point set is reduced with crystal symmetries
 
 R^MT_min * |G+k|_max (rgkmax)              :       8.00000000
 Species with R^MT_min                      :       1 (C)
 Maximum |G+k| for APW functions            :       6.40000000
 Maximum |G| for potential and density      :      16.00000000
 
 G-vector grid sizes                        :      25    25    72
 Total number of G-vectors                  :   21197
 
 Maximum angular momentum used for
     APW functions                          :       8
     computing H and O matrix elements      :       8
     potential and density                  :       8
     inner part of muffin-tin               :       2
 
 Total nuclear charge                       :     -48.00000000
 Total electronic charge                    :      48.00000000
 Total core charge                          :      16.00000000
 Total valence charge                       :      32.00000000
 
 Number of empty states                     :      20
 Total number of valence states             :      37
 
 Maximum Hamiltonian size                   :    1436
 Maximum number of plane-waves              :    1404
 Total number of local-orbitals             :      32
 
 Exchange-correlation type                  :      20
     Perdew-Burke-Ernzerhof, Phys. Rev. Lett. 77, 3865 (1996)
     Generalised gradient approximation (GGA)
 
 Smearing scheme                            :    Gaussian
 Smearing width                             :       0.00010000
 
 Using multisecant Broyden potential mixing
 
++++++++++++++++++++++++++++++++++++++++++++++++++++++++++++++++++++++++++++++++
+ Ending initialization                                                        +
++++++++++++++++++++++++++++++++++++++++++++++++++++++++++++++++++++++++++++++++
 
********************************************************************************
* Groundstate module started                                                   *
********************************************************************************
 Output level for this task is set to normal
 
++++++++++++++++++++++++++++++++++++++++++++++++++++++++++++++++++++++++++++++++
+ Self-consistent loop started                                                 +
++++++++++++++++++++++++++++++++++++++++++++++++++++++++++++++++++++++++++++++++
 Potential read in from STATE.OUT
 
 
++++++++++++++++++++++++++++++++++++++++++++++++++++++++++++++++++++++++++++++++
+ SCF iteration number :    1                                                  +
++++++++++++++++++++++++++++++++++++++++++++++++++++++++++++++++++++++++++++++++
 Total energy                               :      -304.79310610
 _______________________________________________________________
 Fermi energy                               :         0.51690858
 Kinetic energy                             :       303.61945112
 Coulomb energy                             :      -564.99745685
 Exchange energy                            :       -41.63634667
 Correlation energy                         :        -1.77875369
 
 DOS at Fermi energy (states/Ha/cell)       :         0.00000000
 
 Electron charges :
     core                                   :        16.00000000
     core leakage                           :         0.00340934
     valence                                :        32.00000000
     interstitial                           :        17.96353888
     charge in muffin-tin spheres :
                  atom     1     C          :         3.75487063
                  atom     2     C          :         3.75452582
                  atom     3     C          :         3.75430856
                  atom     4     C          :         3.75452582
                  atom     5     C          :         3.75470863
                  atom     6     C          :         3.75440652
                  atom     7     C          :         3.75440652
                  atom     8     C          :         3.75470863
     total charge in muffin-tins            :        30.03646112
     total charge                           :        48.00000000
 
 Estimated fundamental gap                  :         0.15181219
        valence-band maximum at    1      0.0000  0.0000  0.0000
     conduction-band minimum at   13      0.3750  0.3750  0.0000
 
 Wall time (seconds)                        :        24.39
 
++++++++++++++++++++++++++++++++++++++++++++++++++++++++++++++++++++++++++++++++
+ SCF iteration number :    2                                                  +
++++++++++++++++++++++++++++++++++++++++++++++++++++++++++++++++++++++++++++++++
 Total energy                               :      -304.79314785
 _______________________________________________________________
 Fermi energy                               :         0.51690857
 Kinetic energy                             :       303.61957220
 Coulomb energy                             :      -564.99760957
 Exchange energy                            :       -41.63635638
 Correlation energy                         :        -1.77875410
 
 DOS at Fermi energy (states/Ha/cell)       :         0.00000000
 
 Electron charges :
     core                                   :        16.00000000
     core leakage                           :         0.00340924
     valence                                :        32.00000000
     interstitial                           :        17.96360366
     charge in muffin-tin spheres :
                  atom     1     C          :         3.75493412
                  atom     2     C          :         3.75452408
                  atom     3     C          :         3.75420335
                  atom     4     C          :         3.75452408
                  atom     5     C          :         3.75566888
                  atom     6     C          :         3.75343648
                  atom     7     C          :         3.75343648
                  atom     8     C          :         3.75566888
     total charge in muffin-tins            :        30.03639634
     total charge                           :        48.00000000
 
 Estimated fundamental gap                  :         0.15181356
        valence-band maximum at    1      0.0000  0.0000  0.0000
     conduction-band minimum at   13      0.3750  0.3750  0.0000
 
 Wall time (seconds)                        :        49.43
 
 RMS change in effective potential (target) :  0.228031E-02  ( 0.100000E-05)
 Absolute change in total energy   (target) :  0.417567E-04  ( 0.100000E-05)
 Charge distance                   (target) :  0.318886E-03  ( 0.100000E-04)
 Abs. change in max-nonIBS-force   (target) :  0.870121E-02  ( 0.500000E-04)
 
++++++++++++++++++++++++++++++++++++++++++++++++++++++++++++++++++++++++++++++++
+ SCF iteration number :    3                                                  +
++++++++++++++++++++++++++++++++++++++++++++++++++++++++++++++++++++++++++++++++
 Total energy                               :      -304.79324259
 _______________________________________________________________
 Fermi energy                               :         0.51690881
 Kinetic energy                             :       303.61964311
 Coulomb energy                             :      -564.99776436
 Exchange energy                            :       -41.63636739
 Correlation energy                         :        -1.77875395
 
 DOS at Fermi energy (states/Ha/cell)       :         0.00000000
 
 Electron charges :
     core                                   :        16.00000000
     core leakage                           :         0.00340918
     valence                                :        32.00000000
     interstitial                           :        17.96359599
     charge in muffin-tin spheres :
                  atom     1     C          :         3.75486742
                  atom     2     C          :         3.75452338
                  atom     3     C          :         3.75426920
                  atom     4     C          :         3.75452338
                  atom     5     C          :         3.75561416
                  atom     6     C          :         3.75349616
                  atom     7     C          :         3.75349616
                  atom     8     C          :         3.75561416
     total charge in muffin-tins            :        30.03640401
     total charge                           :        48.00000000
 
 Estimated fundamental gap                  :         0.15181425
        valence-band maximum at    1      0.0000  0.0000  0.0000
     conduction-band minimum at   13      0.3750  0.3750  0.0000
 
 Wall time (seconds)                        :        75.77
 
 RMS change in effective potential (target) :  0.166614E-02  ( 0.100000E-05)
 Absolute change in total energy   (target) :  0.947346E-04  ( 0.100000E-05)
 Charge distance                   (target) :  0.794770E-04  ( 0.100000E-04)
 Abs. change in max-nonIBS-force   (target) :  0.520382E-03  ( 0.500000E-04)
 
++++++++++++++++++++++++++++++++++++++++++++++++++++++++++++++++++++++++++++++++
+ SCF iteration number :    4                                                  +
++++++++++++++++++++++++++++++++++++++++++++++++++++++++++++++++++++++++++++++++
 Total energy                               :      -304.79336025
 _______________________________________________________________
 Fermi energy                               :         0.51691173
 Kinetic energy                             :       303.61999939
 Coulomb energy                             :      -564.99821049
 Exchange energy                            :       -41.63639427
 Correlation energy                         :        -1.77875489
 
 DOS at Fermi energy (states/Ha/cell)       :         0.00000000
 
 Electron charges :
     core                                   :        16.00000000
     core leakage                           :         0.00340893
     valence                                :        32.00000000
     interstitial                           :        17.96359671
     charge in muffin-tin spheres :
                  atom     1     C          :         3.75433667
                  atom     2     C          :         3.75453118
                  atom     3     C          :         3.75478891
                  atom     4     C          :         3.75453118
                  atom     5     C          :         3.75491374
                  atom     6     C          :         3.75419394
                  atom     7     C          :         3.75419394
                  atom     8     C          :         3.75491374
     total charge in muffin-tins            :        30.03640329
     total charge                           :        48.00000000
 
 Estimated fundamental gap                  :         0.15181026
        valence-band maximum at    1      0.0000  0.0000  0.0000
     conduction-band minimum at   13      0.3750  0.3750  0.0000
 
 Wall time (seconds)                        :       100.89
 
 RMS change in effective potential (target) :  0.117331E-02  ( 0.100000E-05)
 Absolute change in total energy   (target) :  0.117663E-03  ( 0.100000E-05)
 Charge distance                   (target) :  0.214067E-03  ( 0.100000E-04)
 Abs. change in max-nonIBS-force   (target) :  0.518972E-03  ( 0.500000E-04)
 
++++++++++++++++++++++++++++++++++++++++++++++++++++++++++++++++++++++++++++++++
+ SCF iteration number :    5                                                  +
++++++++++++++++++++++++++++++++++++++++++++++++++++++++++++++++++++++++++++++++
 Total energy                               :      -304.79358503
 _______________________________________________________________
 Fermi energy                               :         0.51690845
 Kinetic energy                             :       303.61979381
 Coulomb energy                             :      -564.99822636
 Exchange energy                            :       -41.63639797
 Correlation energy                         :        -1.77875451
 
 DOS at Fermi energy (states/Ha/cell)       :         0.00000000
 
 Electron charges :
     core                                   :        16.00000000
     core leakage                           :         0.00340893
     valence                                :        32.00000000
     interstitial                           :        17.96358549
     charge in muffin-tin spheres :
                  atom     1     C          :         3.75503028
                  atom     2     C          :         3.75452107
                  atom     3     C          :         3.75412684
                  atom     4     C          :         3.75452107
                  atom     5     C          :         3.75512489
                  atom     6     C          :         3.75398273
                  atom     7     C          :         3.75398273
                  atom     8     C          :         3.75512489
     total charge in muffin-tins            :        30.03641451
     total charge                           :        48.00000000
 
 Estimated fundamental gap                  :         0.15181438
        valence-band maximum at    1      0.0000  0.0000  0.0000
     conduction-band minimum at   13      0.3750  0.3750  0.0000
 
 Wall time (seconds)                        :       126.42
 
 RMS change in effective potential (target) :  0.274165E-03  ( 0.100000E-05)
 Absolute change in total energy   (target) :  0.224780E-03  ( 0.100000E-05)
 Charge distance                   (target) :  0.248729E-03  ( 0.100000E-04)
 Abs. change in max-nonIBS-force   (target) :  0.812046E-02  ( 0.500000E-04)
 
++++++++++++++++++++++++++++++++++++++++++++++++++++++++++++++++++++++++++++++++
+ SCF iteration number :    6                                                  +
++++++++++++++++++++++++++++++++++++++++++++++++++++++++++++++++++++++++++++++++
 Total energy                               :      -304.79358464
 _______________________________________________________________
 Fermi energy                               :         0.51690862
 Kinetic energy                             :       303.61979489
 Coulomb energy                             :      -564.99822659
 Exchange energy                            :       -41.63639849
 Correlation energy                         :        -1.77875444
 
 DOS at Fermi energy (states/Ha/cell)       :         0.00000000
 
 Electron charges :
     core                                   :        16.00000000
     core leakage                           :         0.00340894
     valence                                :        32.00000000
     interstitial                           :        17.96358319
     charge in muffin-tin spheres :
                  atom     1     C          :         3.75460473
                  atom     2     C          :         3.75452284
                  atom     3     C          :         3.75452247
                  atom     4     C          :         3.75452284
                  atom     5     C          :         3.75534317
                  atom     6     C          :         3.75377880
                  atom     7     C          :         3.75377880
                  atom     8     C          :         3.75534317
     total charge in muffin-tins            :        30.03641681
     total charge                           :        48.00000000
 
 Estimated fundamental gap                  :         0.15181433
        valence-band maximum at    1      0.0000  0.0000  0.0000
     conduction-band minimum at   13      0.3750  0.3750  0.0000
 
 Wall time (seconds)                        :       150.56
 
 RMS change in effective potential (target) :  0.110415E-03  ( 0.100000E-05)
 Absolute change in total energy   (target) :  0.392996E-06  ( 0.100000E-05)
 Charge distance                   (target) :  0.591897E-04  ( 0.100000E-04)
 Abs. change in max-nonIBS-force   (target) :  0.707916E-03  ( 0.500000E-04)
 
++++++++++++++++++++++++++++++++++++++++++++++++++++++++++++++++++++++++++++++++
+ SCF iteration number :    7                                                  +
++++++++++++++++++++++++++++++++++++++++++++++++++++++++++++++++++++++++++++++++
 Total energy                               :      -304.79356242
 _______________________________________________________________
 Fermi energy                               :         0.51690896
 Kinetic energy                             :       303.61981512
 Coulomb energy                             :      -564.99822485
 Exchange energy                            :       -41.63639823
 Correlation energy                         :        -1.77875445
 
 DOS at Fermi energy (states/Ha/cell)       :         0.00000000
 
 Electron charges :
     core                                   :        16.00000000
     core leakage                           :         0.00340894
     valence                                :        32.00000000
     interstitial                           :        17.96358334
     charge in muffin-tin spheres :
                  atom     1     C          :         3.75471592
                  atom     2     C          :         3.75452354
                  atom     3     C          :         3.75442007
                  atom     4     C          :         3.75452354
                  atom     5     C          :         3.75529070
                  atom     6     C          :         3.75382610
                  atom     7     C          :         3.75382610
                  atom     8     C          :         3.75529070
     total charge in muffin-tins            :        30.03641666
     total charge                           :        48.00000000
 
 Estimated fundamental gap                  :         0.15181418
        valence-band maximum at    1      0.0000  0.0000  0.0000
     conduction-band minimum at   13      0.3750  0.3750  0.0000
 
 Wall time (seconds)                        :       175.79
 
 RMS change in effective potential (target) :  0.257001E-04  ( 0.100000E-05)
 Absolute change in total energy   (target) :  0.222212E-04  ( 0.100000E-05)
 Charge distance                   (target) :  0.250412E-04  ( 0.100000E-04)
 Abs. change in max-nonIBS-force   (target) :  0.760367E-03  ( 0.500000E-04)
 
++++++++++++++++++++++++++++++++++++++++++++++++++++++++++++++++++++++++++++++++
+ SCF iteration number :    8                                                  +
++++++++++++++++++++++++++++++++++++++++++++++++++++++++++++++++++++++++++++++++
 Total energy                               :      -304.79354744
 _______________________________________________________________
 Fermi energy                               :         0.51690919
 Kinetic energy                             :       303.61982837
 Coulomb energy                             :      -564.99822341
 Exchange energy                            :       -41.63639791
 Correlation energy                         :        -1.77875449
 
 DOS at Fermi energy (states/Ha/cell)       :         0.00000000
 
 Electron charges :
     core                                   :        16.00000000
     core leakage                           :         0.00340894
     valence                                :        32.00000000
     interstitial                           :        17.96358411
     charge in muffin-tin spheres :
                  atom     1     C          :         3.75471916
                  atom     2     C          :         3.75452339
                  atom     3     C          :         3.75441534
                  atom     4     C          :         3.75452339
                  atom     5     C          :         3.75529375
                  atom     6     C          :         3.75382356
                  atom     7     C          :         3.75382356
                  atom     8     C          :         3.75529375
     total charge in muffin-tins            :        30.03641589
     total charge                           :        48.00000000
 
 Estimated fundamental gap                  :         0.15181411
        valence-band maximum at    1      0.0000  0.0000  0.0000
     conduction-band minimum at   13      0.3750  0.3750  0.0000
 
 Wall time (seconds)                        :       200.39
 
 RMS change in effective potential (target) :  0.107698E-04  ( 0.100000E-05)
 Absolute change in total energy   (target) :  0.149760E-04  ( 0.100000E-05)
 Charge distance                   (target) :  0.469577E-05  ( 0.100000E-04)
 Abs. change in max-nonIBS-force   (target) :  0.324144E-03  ( 0.500000E-04)
 
++++++++++++++++++++++++++++++++++++++++++++++++++++++++++++++++++++++++++++++++
+ SCF iteration number :    9                                                  +
++++++++++++++++++++++++++++++++++++++++++++++++++++++++++++++++++++++++++++++++
 Total energy                               :      -304.79353843
 _______________________________________________________________
 Fermi energy                               :         0.51690937
 Kinetic energy                             :       303.61983760
 Coulomb energy                             :      -564.99822368
 Exchange energy                            :       -41.63639786
 Correlation energy                         :        -1.77875450
 
 DOS at Fermi energy (states/Ha/cell)       :         0.00000000
 
 Electron charges :
     core                                   :        16.00000000
     core leakage                           :         0.00340894
     valence                                :        32.00000000
     interstitial                           :        17.96358423
     charge in muffin-tin spheres :
                  atom     1     C          :         3.75471919
                  atom     2     C          :         3.75452376
                  atom     3     C          :         3.75441840
                  atom     4     C          :         3.75452376
                  atom     5     C          :         3.75530469
                  atom     6     C          :         3.75381063
                  atom     7     C          :         3.75381063
                  atom     8     C          :         3.75530469
     total charge in muffin-tins            :        30.03641577
     total charge                           :        48.00000000
 
 Estimated fundamental gap                  :         0.15181409
        valence-band maximum at    1      0.0000  0.0000  0.0000
     conduction-band minimum at   13      0.3750  0.3750  0.0000
 
 Wall time (seconds)                        :       225.54
 
 RMS change in effective potential (target) :  0.289251E-05  ( 0.100000E-05)
 Absolute change in total energy   (target) :  0.900939E-05  ( 0.100000E-05)
 Charge distance                   (target) :  0.397515E-05  ( 0.100000E-04)
 Abs. change in max-nonIBS-force   (target) :  0.928630E-04  ( 0.500000E-04)
 
++++++++++++++++++++++++++++++++++++++++++++++++++++++++++++++++++++++++++++++++
+ SCF iteration number :   10                                                  +
++++++++++++++++++++++++++++++++++++++++++++++++++++++++++++++++++++++++++++++++
 Total energy                               :      -304.79353870
 _______________________________________________________________
 Fermi energy                               :         0.51690936
 Kinetic energy                             :       303.61983719
 Coulomb energy                             :      -564.99822355
 Exchange energy                            :       -41.63639785
 Correlation energy                         :        -1.77875449
 
 DOS at Fermi energy (states/Ha/cell)       :         0.00000000
 
 Electron charges :
     core                                   :        16.00000000
     core leakage                           :         0.00340894
     valence                                :        32.00000000
     interstitial                           :        17.96358421
     charge in muffin-tin spheres :
                  atom     1     C          :         3.75471970
                  atom     2     C          :         3.75452341
                  atom     3     C          :         3.75441247
                  atom     4     C          :         3.75452341
                  atom     5     C          :         3.75530367
                  atom     6     C          :         3.75381473
                  atom     7     C          :         3.75381473
                  atom     8     C          :         3.75530367
     total charge in muffin-tins            :        30.03641579
     total charge                           :        48.00000000
 
 Estimated fundamental gap                  :         0.15181409
        valence-band maximum at    1      0.0000  0.0000  0.0000
     conduction-band minimum at   13      0.3750  0.3750  0.0000
 
 Wall time (seconds)                        :       250.44
 
 RMS change in effective potential (target) :  0.116955E-05  ( 0.100000E-05)
 Absolute change in total energy   (target) :  0.270963E-06  ( 0.100000E-05)
 Charge distance                   (target) :  0.606779E-06  ( 0.100000E-04)
 Abs. change in max-nonIBS-force   (target) :  0.350420E-06  ( 0.500000E-04)
 
++++++++++++++++++++++++++++++++++++++++++++++++++++++++++++++++++++++++++++++++
+ SCF iteration number :   11                                                  +
++++++++++++++++++++++++++++++++++++++++++++++++++++++++++++++++++++++++++++++++
 Total energy                               :      -304.79353857
 _______________________________________________________________
 Fermi energy                               :         0.51690936
 Kinetic energy                             :       303.61983730
 Coulomb energy                             :      -564.99822352
 Exchange energy                            :       -41.63639785
 Correlation energy                         :        -1.77875449
 
 DOS at Fermi energy (states/Ha/cell)       :         0.00000000
 
 Electron charges :
     core                                   :        16.00000000
     core leakage                           :         0.00340894
     valence                                :        32.00000000
     interstitial                           :        17.96358421
     charge in muffin-tin spheres :
                  atom     1     C          :         3.75472167
                  atom     2     C          :         3.75452351
                  atom     3     C          :         3.75441380
                  atom     4     C          :         3.75452351
                  atom     5     C          :         3.75530256
                  atom     6     C          :         3.75381408
                  atom     7     C          :         3.75381408
                  atom     8     C          :         3.75530256
     total charge in muffin-tins            :        30.03641579
     total charge                           :        48.00000000
 
 Estimated fundamental gap                  :         0.15181409
        valence-band maximum at    1      0.0000  0.0000  0.0000
     conduction-band minimum at   13      0.3750  0.3750  0.0000
 
 Wall time (seconds)                        :       274.88
 
 RMS change in effective potential (target) :  0.161364E-06  ( 0.100000E-05)
 Absolute change in total energy   (target) :  0.130175E-06  ( 0.100000E-05)
 Charge distance                   (target) :  0.251404E-06  ( 0.100000E-04)
 Abs. change in max-nonIBS-force   (target) :  0.142414E-05  ( 0.500000E-04)
 
++++++++++++++++++++++++++++++++++++++++++++++++++++++++++++++++++++++++++++++++
+ SCF iteration number :   12                                                  +
++++++++++++++++++++++++++++++++++++++++++++++++++++++++++++++++++++++++++++++++
 Total energy                               :      -304.79353864
 _______________________________________________________________
 Fermi energy                               :         0.51690936
 Kinetic energy                             :       303.61983725
 Coulomb energy                             :      -564.99822354
 Exchange energy                            :       -41.63639785
 Correlation energy                         :        -1.77875449
 
 DOS at Fermi energy (states/Ha/cell)       :         0.00000000
 
 Electron charges :
     core                                   :        16.00000000
     core leakage                           :         0.00340894
     valence                                :        32.00000000
     interstitial                           :        17.96358421
     charge in muffin-tin spheres :
                  atom     1     C          :         3.75472140
                  atom     2     C          :         3.75452365
                  atom     3     C          :         3.75441379
                  atom     4     C          :         3.75452365
                  atom     5     C          :         3.75530251
                  atom     6     C          :         3.75381414
                  atom     7     C          :         3.75381414
                  atom     8     C          :         3.75530251
     total charge in muffin-tins            :        30.03641579
     total charge                           :        48.00000000
 
 Estimated fundamental gap                  :         0.15181409
        valence-band maximum at    1      0.0000  0.0000  0.0000
     conduction-band minimum at   13      0.3750  0.3750  0.0000
 
 Wall time (seconds)                        :       299.22
 
 RMS change in effective potential (target) :  0.823501E-07  ( 0.100000E-05)
 Absolute change in total energy   (target) :  0.639731E-07  ( 0.100000E-05)
 Charge distance                   (target) :  0.455431E-07  ( 0.100000E-04)
 Abs. change in max-nonIBS-force   (target) :  0.280098E-06  ( 0.500000E-04)
                                                                                
++++++++++++++++++++++++++++++++++++++++++++++++++++++++++++++++++++++++++++++++
| Convergency criteria checked for the last 2 iterations                       +
| Convergence targets achieved. Performing final SCF iteration                 +
++++++++++++++++++++++++++++++++++++++++++++++++++++++++++++++++++++++++++++++++
 Total energy                               :      -304.79353864
 _______________________________________________________________
 Fermi energy                               :         0.51690936
 Kinetic energy                             :       303.61983725
 Coulomb energy                             :      -564.99822354
 Exchange energy                            :       -41.63639785
 Correlation energy                         :        -1.77875449
 
 DOS at Fermi energy (states/Ha/cell)       :         0.00000000
 
 Electron charges :
     core                                   :        16.00000000
     core leakage                           :         0.00340894
     valence                                :        32.00000000
     interstitial                           :        17.96358421
     charge in muffin-tin spheres :
                  atom     1     C          :         3.75472149
                  atom     2     C          :         3.75452353
                  atom     3     C          :         3.75441378
                  atom     4     C          :         3.75452353
                  atom     5     C          :         3.75530253
                  atom     6     C          :         3.75381420
                  atom     7     C          :         3.75381420
                  atom     8     C          :         3.75530253
     total charge in muffin-tins            :        30.03641579
     total charge                           :        48.00000000
 
 Estimated fundamental gap                  :         0.15181409
        valence-band maximum at    1      0.0000  0.0000  0.0000
     conduction-band minimum at   13      0.3750  0.3750  0.0000
 
++++++++++++++++++++++++++++++++++++++++++++++++++++++++++++++++++++++++++++++++
+ Self-consistent loop stopped                                                 +
++++++++++++++++++++++++++++++++++++++++++++++++++++++++++++++++++++++++++++++++
 STATE.OUT is written
 
--------------------------------------------------------------------------------
- Writing atomic positions and forces                                          -
--------------------------------------------------------------------------------
 
 Atomic positions (lattice) :
 atom     1   C  :     0.00000000    0.00000000    0.00000000
 atom     2   C  :     0.50000000    0.50000000    0.75029621
 atom     3   C  :     0.00000000    0.00000000    0.50000000
 atom     4   C  :     0.50000000    0.50000000    0.24970379
 atom     5   C  :     0.00000000    0.50000000    0.87500000
 atom     6   C  :     0.50000000    0.00000000    0.62500000
 atom     7   C  :     0.00000000    0.50000000    0.37500000
 atom     8   C  :     0.50000000    0.00000000    0.12500000
 
 Total atomic forces including IBS (cartesian) :
 atom     1   C  :    -0.00000000    0.00000000    0.00000000
 atom     2   C  :     0.00206358    0.00000000    0.00000000
 atom     3   C  :    -0.00000000    0.00000000    0.00000000
 atom     4   C  :    -0.00206358    0.00000000    0.00000000
 atom     5   C  :    -0.00076529    0.00000000    0.00000000
 atom     6   C  :    -0.00072383    0.00000000    0.00000000
 atom     7   C  :     0.00072383    0.00000000    0.00000000
 atom     8   C  :     0.00076529    0.00000000    0.00000000
 
 Atomic force components including IBS (cartesian) :
 atom     1   C  :    -0.00000000   -0.00000000    0.00000000   HF force
                 :     0.00000000    0.00000000   -0.00000000   core correction
                 :     0.00000000    0.00000000   -0.00000000   IBS correction
 atom     2   C  :     0.00227701   -0.00000000    0.00000000   HF force
                 :    -0.00018668    0.00000000   -0.00000000   core correction
                 :    -0.00002675    0.00000000   -0.00000000   IBS correction
 atom     3   C  :    -0.00000000   -0.00000000    0.00000000   HF force
                 :     0.00000000    0.00000000    0.00000000   core correction
                 :    -0.00000000    0.00000000    0.00000000   IBS correction
 atom     4   C  :    -0.00227701    0.00000000   -0.00000000   HF force
                 :     0.00018668   -0.00000000   -0.00000000   core correction
                 :     0.00002675    0.00000000   -0.00000000   IBS correction
 atom     5   C  :    -0.00083702    0.00000000    0.00000000   HF force
                 :     0.00006250   -0.00000000   -0.00000000   core correction
                 :     0.00000923    0.00000000    0.00000000   IBS correction
 atom     6   C  :    -0.00079259   -0.00000000    0.00000000   HF force
                 :     0.00005974    0.00000000   -0.00000000   core correction
                 :     0.00000902    0.00000000    0.00000000   IBS correction
 atom     7   C  :     0.00079259   -0.00000000   -0.00000000   HF force
                 :    -0.00005974    0.00000000   -0.00000000   core correction
                 :    -0.00000902    0.00000000   -0.00000000   IBS correction
 atom     8   C  :     0.00083702   -0.00000000    0.00000000   HF force
                 :    -0.00006250   -0.00000000   -0.00000000   core correction
                 :    -0.00000923    0.00000000    0.00000000   IBS correction
 
********************************************************************************
* Groundstate module stopped                                                   *
********************************************************************************
 
 Total time spent (seconds)                 :       359.61
================================================================================
| EXCITING NITROGEN-13 stopped                                                 =
================================================================================
