  0.2280312849E-02
  0.1666137490E-02
  0.1173306856E-02
  0.2741649444E-03
  0.1104150870E-03
  0.2570013502E-04
  0.1076979970E-04
  0.2892510229E-05
  0.1169553032E-05
  0.1613641354E-06
  0.8235007457E-07
 
