 
Number of elements in symmetry group    :      8
Number of generators for symmetry group :      5
 
generating element:   6 , number of elemnts in orbit:   4
 (orbit of generator below)
   6   2   5   1
 
generating element:   7 , number of elemnts in orbit:   2
 (orbit of generator below)
   7   1
 
generating element:   3 , number of elemnts in orbit:   2
 (orbit of generator below)
   3   1
 
generating element:   4 , number of elemnts in orbit:   2
 (orbit of generator below)
   4   1
 
generating element:   8 , number of elemnts in orbit:   2
 (orbit of generator below)
   8   1
 
