    -304.793512563    
    -304.793469233    
    -304.793484236    
    -304.793538422    
    -304.793483833    
    -304.793511291    
    -304.793506088    
    -304.793505392    
    -304.793502752    
    -304.793501173    
    -304.793500221    
    -304.793500146    
    -304.793500111    
    -304.793500114    
 
