 
Species :    1 (C), atom :    1
 n =  1, l =  0, k =  1 :   -9.327650356    
 
Species :    1 (C), atom :    2
 n =  1, l =  0, k =  1 :   -9.327436732    
 
Species :    1 (C), atom :    3
 n =  1, l =  0, k =  1 :   -9.327214856    
 
Species :    1 (C), atom :    4
 n =  1, l =  0, k =  1 :   -9.327451191    
 
Species :    1 (C), atom :    5
 n =  1, l =  0, k =  1 :   -9.327544711    
 
Species :    1 (C), atom :    6
 n =  1, l =  0, k =  1 :   -9.327350972    
 
Species :    1 (C), atom :    7
 n =  1, l =  0, k =  1 :   -9.327288203    
 
Species :    1 (C), atom :    8
 n =  1, l =  0, k =  1 :   -9.327473909    
