================================================================================
| EXCITING NITROGEN-13 started                                                 =
| version hash id: de0c1dba9f665d6c60514aa9e8bf40326ac9f394                    =
|                                                                              =
|                                                                              =
| Date (DD-MM-YYYY) : 03-05-2022                                               =
| Time (hh:mm:ss)   : 16:42:01                                                 =
|                                                                              =
| All units are atomic (Hartree, Bohr, etc.)                                   =
================================================================================
 
********************************************************************************
* Ground-state run resuming from STATE.OUT                                     *
********************************************************************************
 
++++++++++++++++++++++++++++++++++++++++++++++++++++++++++++++++++++++++++++++++
+ Starting initialization                                                      +
++++++++++++++++++++++++++++++++++++++++++++++++++++++++++++++++++++++++++++++++
 
 Lattice vectors (cartesian) :
     -3.3759957000     -3.3759957000      0.0000000000
     -3.3759957000      0.0000000000      3.3759957000
      6.7519914000    -10.1279871000     10.1279871000
 
 Reciprocal lattice vectors (cartesian) :
     -0.6979257972     -1.1632096620     -0.6979257972
     -0.6979257972      0.6979257972      1.1632096620
      0.2326419324     -0.2326419324      0.2326419324
 
 Unit cell volume                           :     307.8191548003
 Brillouin zone volume                      :       0.8058309874
 
 Species :    1 (C)
     parameters loaded from                 :    C.xml
     name                                   :    carbon
     nuclear charge                         :      -6.00000000
     electronic charge                      :       6.00000000
     atomic mass                            :   21894.16673000
     muffin-tin radius                      :       1.25000000
     # of radial points in muffin-tin       :     250
 
     atomic positions (lattice) :
       1 :   0.99955569  0.99955569  0.00014810
       2 :   0.25000000  0.25000000  0.25000000
       3 :   0.50044431  0.50044431  0.49985190
       4 :   0.75000000  0.75000000  0.75000000
       5 :   0.31250000  0.31250000  0.06250000
       6 :   0.56250000  0.56250000  0.31250000
       7 :   0.81250000  0.81250000  0.56250000
       8 :   0.06250000  0.06250000  0.81250000
 
 Total number of atoms per unit cell        :       8
 
 Spin treatment                             :    spin-unpolarised
 
 Number of Bravais lattice symmetries       :      12
 Number of crystal symmetries               :       2
 
 Sphere radius used for k-point grid density:      33.42065234
 
 k-point grid                               :       8    8    3
 Total number of k-points                   :     108
 k-point set is reduced with crystal symmetries
 
 R^MT_min * |G+k|_max (rgkmax)              :       8.00000000
 Species with R^MT_min                      :       1 (C)
 Maximum |G+k| for APW functions            :       6.40000000
 Maximum |G| for potential and density      :      16.00000000
 
 G-vector grid sizes                        :      25    25    81
 Total number of G-vectors                  :   21163
 
 Maximum angular momentum used for
     APW functions                          :       8
     computing H and O matrix elements      :       8
     potential and density                  :       8
     inner part of muffin-tin               :       2
 
 Total nuclear charge                       :     -48.00000000
 Total electronic charge                    :      48.00000000
 Total core charge                          :      16.00000000
 Total valence charge                       :      32.00000000
 
 Number of empty states                     :      20
 Total number of valence states             :      37
 
 Maximum Hamiltonian size                   :    1423
 Maximum number of plane-waves              :    1391
 Total number of local-orbitals             :      32
 
 Exchange-correlation type                  :      20
     Perdew-Burke-Ernzerhof, Phys. Rev. Lett. 77, 3865 (1996)
     Generalised gradient approximation (GGA)
 
 Smearing scheme                            :    Gaussian
 Smearing width                             :       0.00010000
 
 Using multisecant Broyden potential mixing
 
++++++++++++++++++++++++++++++++++++++++++++++++++++++++++++++++++++++++++++++++
+ Ending initialization                                                        +
++++++++++++++++++++++++++++++++++++++++++++++++++++++++++++++++++++++++++++++++
 
********************************************************************************
* Groundstate module started                                                   *
********************************************************************************
 Output level for this task is set to normal
 
++++++++++++++++++++++++++++++++++++++++++++++++++++++++++++++++++++++++++++++++
+ Self-consistent loop started                                                 +
++++++++++++++++++++++++++++++++++++++++++++++++++++++++++++++++++++++++++++++++
 Supercell potential constructed from STATE.OUT
 
 
++++++++++++++++++++++++++++++++++++++++++++++++++++++++++++++++++++++++++++++++
+ SCF iteration number :    1                                                  +
++++++++++++++++++++++++++++++++++++++++++++++++++++++++++++++++++++++++++++++++
 Total energy                               :      -304.83439112
 _______________________________________________________________
 Fermi energy                               :         0.51597079
 Kinetic energy                             :       303.52056398
 Coulomb energy                             :      -564.94461229
 Exchange energy                            :       -41.63118202
 Correlation energy                         :        -1.77916079
 
 DOS at Fermi energy (states/Ha/cell)       :         0.00000000
 
 Electron charges :
     core                                   :        16.00000000
     core leakage                           :         0.00340894
     valence                                :        32.00000000
     interstitial                           :        17.97884063
     charge in muffin-tin spheres :
                  atom     1     C          :         3.75285719
                  atom     2     C          :         3.75284714
                  atom     3     C          :         3.75237436
                  atom     4     C          :         3.75259688
                  atom     5     C          :         3.75291868
                  atom     6     C          :         3.75313922
                  atom     7     C          :         3.75229991
                  atom     8     C          :         3.75212599
     total charge in muffin-tins            :        30.02115937
     total charge                           :        48.00000000
 
 Estimated fundamental gap                  :         0.15168508
        valence-band maximum at    1      0.0000  0.0000  0.0000
     conduction-band minimum at  103      0.6250  0.6250  0.6667
 
 Wall time (seconds)                        :        64.21
 
++++++++++++++++++++++++++++++++++++++++++++++++++++++++++++++++++++++++++++++++
+ SCF iteration number :    2                                                  +
++++++++++++++++++++++++++++++++++++++++++++++++++++++++++++++++++++++++++++++++
 Total energy                               :      -304.83401568
 _______________________________________________________________
 Fermi energy                               :         0.51628597
 Kinetic energy                             :       303.53985505
 Coulomb energy                             :      -564.96190339
 Exchange energy                            :       -41.63294234
 Correlation energy                         :        -1.77902500
 
 DOS at Fermi energy (states/Ha/cell)       :         0.00000000
 
 Electron charges :
     core                                   :        16.00000000
     core leakage                           :         0.00340852
     valence                                :        32.00000000
     interstitial                           :        17.97432237
     charge in muffin-tin spheres :
                  atom     1     C          :         3.75317782
                  atom     2     C          :         3.75341465
                  atom     3     C          :         3.75321201
                  atom     4     C          :         3.75300426
                  atom     5     C          :         3.75369065
                  atom     6     C          :         3.75385626
                  atom     7     C          :         3.75271938
                  atom     8     C          :         3.75260261
     total charge in muffin-tins            :        30.02567763
     total charge                           :        48.00000000
 
 Estimated fundamental gap                  :         0.15201691
        valence-band maximum at    1      0.0000  0.0000  0.0000
     conduction-band minimum at   58      0.3750  0.3750  0.3333
 
 Wall time (seconds)                        :       128.67
 
 RMS change in effective potential (target) :  0.102675E-01  ( 0.100000E-05)
 Absolute change in total energy   (target) :  0.375444E-03  ( 0.100000E-05)
 Charge distance                   (target) :  0.296709E-03  ( 0.100000E-04)
 Abs. change in max-nonIBS-force   (target) :  0.910418E-02  ( 0.500000E-04)
 
++++++++++++++++++++++++++++++++++++++++++++++++++++++++++++++++++++++++++++++++
+ SCF iteration number :    3                                                  +
++++++++++++++++++++++++++++++++++++++++++++++++++++++++++++++++++++++++++++++++
 Total energy                               :      -304.83032390
 _______________________________________________________________
 Fermi energy                               :         0.51656896
 Kinetic energy                             :       303.55750323
 Coulomb energy                             :      -564.97468111
 Exchange energy                            :       -41.63421986
 Correlation energy                         :        -1.77892616
 
 DOS at Fermi energy (states/Ha/cell)       :         0.00000000
 
 Electron charges :
     core                                   :        16.00000000
     core leakage                           :         0.00340830
     valence                                :        32.00000000
     interstitial                           :        17.97089105
     charge in muffin-tin spheres :
                  atom     1     C          :         3.75362452
                  atom     2     C          :         3.75376503
                  atom     3     C          :         3.75366402
                  atom     4     C          :         3.75344593
                  atom     5     C          :         3.75412568
                  atom     6     C          :         3.75419415
                  atom     7     C          :         3.75318816
                  atom     8     C          :         3.75310146
     total charge in muffin-tins            :        30.02910895
     total charge                           :        48.00000000
 
 Estimated fundamental gap                  :         0.15227921
        valence-band maximum at    1      0.0000  0.0000  0.0000
     conduction-band minimum at  103      0.6250  0.6250  0.6667
 
 Wall time (seconds)                        :       193.89
 
 RMS change in effective potential (target) :  0.749878E-02  ( 0.100000E-05)
 Absolute change in total energy   (target) :  0.369177E-02  ( 0.100000E-05)
 Charge distance                   (target) :  0.219574E-03  ( 0.100000E-04)
 Abs. change in max-nonIBS-force   (target) :  0.110696E-02  ( 0.500000E-04)
 
++++++++++++++++++++++++++++++++++++++++++++++++++++++++++++++++++++++++++++++++
+ SCF iteration number :    4                                                  +
++++++++++++++++++++++++++++++++++++++++++++++++++++++++++++++++++++++++++++++++
 Total energy                               :      -304.78698304
 _______________________________________________________________
 Fermi energy                               :         0.51754652
 Kinetic energy                             :       303.62321318
 Coulomb energy                             :      -564.99533166
 Exchange energy                            :       -41.63609214
 Correlation energy                         :        -1.77877241
 
 DOS at Fermi energy (states/Ha/cell)       :         0.00000000
 
 Electron charges :
     core                                   :        16.00000000
     core leakage                           :         0.00340922
     valence                                :        32.00000000
     interstitial                           :        17.96404716
     charge in muffin-tin spheres :
                  atom     1     C          :         3.75357981
                  atom     2     C          :         3.75537024
                  atom     3     C          :         3.75516482
                  atom     4     C          :         3.75371186
                  atom     5     C          :         3.75523029
                  atom     6     C          :         3.75598755
                  atom     7     C          :         3.75363029
                  atom     8     C          :         3.75327798
     total charge in muffin-tins            :        30.03595284
     total charge                           :        48.00000000
 
 Estimated fundamental gap                  :         0.15286621
        valence-band maximum at    1      0.0000  0.0000  0.0000
     conduction-band minimum at   58      0.3750  0.3750  0.3333
 
 Wall time (seconds)                        :       257.54
 
 RMS change in effective potential (target) :  0.248148E-02  ( 0.100000E-05)
 Absolute change in total energy   (target) :  0.433409E-01  ( 0.100000E-05)
 Charge distance                   (target) :  0.518922E-03  ( 0.100000E-04)
 Abs. change in max-nonIBS-force   (target) :  0.154684E-02  ( 0.500000E-04)
 
++++++++++++++++++++++++++++++++++++++++++++++++++++++++++++++++++++++++++++++++
+ SCF iteration number :    5                                                  +
++++++++++++++++++++++++++++++++++++++++++++++++++++++++++++++++++++++++++++++++
 Total energy                               :      -304.79219757
 _______________________________________________________________
 Fermi energy                               :         0.51749671
 Kinetic energy                             :       303.62060630
 Coulomb energy                             :      -564.99769160
 Exchange energy                            :       -41.63635870
 Correlation energy                         :        -1.77875357
 
 DOS at Fermi energy (states/Ha/cell)       :         0.00000000
 
 Electron charges :
     core                                   :        16.00000000
     core leakage                           :         0.00340901
     valence                                :        32.00000000
     interstitial                           :        17.96362709
     charge in muffin-tin spheres :
                  atom     1     C          :         3.75585112
                  atom     2     C          :         3.75326494
                  atom     3     C          :         3.75334543
                  atom     4     C          :         3.75569385
                  atom     5     C          :         3.75423299
                  atom     6     C          :         3.75325722
                  atom     7     C          :         3.75497166
                  atom     8     C          :         3.75575570
     total charge in muffin-tins            :        30.03637291
     total charge                           :        48.00000000
 
 Estimated fundamental gap                  :         0.15289543
        valence-band maximum at    1      0.0000  0.0000  0.0000
     conduction-band minimum at  103      0.6250  0.6250  0.6667
 
 Wall time (seconds)                        :       322.19
 
 RMS change in effective potential (target) :  0.378343E-02  ( 0.100000E-05)
 Absolute change in total energy   (target) :  0.521453E-02  ( 0.100000E-05)
 Charge distance                   (target) :  0.743684E-03  ( 0.100000E-04)
 Abs. change in max-nonIBS-force   (target) :  0.951305E-02  ( 0.500000E-04)
 
++++++++++++++++++++++++++++++++++++++++++++++++++++++++++++++++++++++++++++++++
+ SCF iteration number :    6                                                  +
++++++++++++++++++++++++++++++++++++++++++++++++++++++++++++++++++++++++++++++++
 Total energy                               :      -304.79362914
 _______________________________________________________________
 Fermi energy                               :         0.51748045
 Kinetic energy                             :       303.61978166
 Coulomb energy                             :      -564.99824262
 Exchange energy                            :       -41.63641870
 Correlation energy                         :        -1.77874948
 
 DOS at Fermi energy (states/Ha/cell)       :         0.00000000
 
 Electron charges :
     core                                   :        16.00000000
     core leakage                           :         0.00340895
     valence                                :        32.00000000
     interstitial                           :        17.96352452
     charge in muffin-tin spheres :
                  atom     1     C          :         3.75464863
                  atom     2     C          :         3.75463521
                  atom     3     C          :         3.75456754
                  atom     4     C          :         3.75441325
                  atom     5     C          :         3.75491456
                  atom     6     C          :         3.75490426
                  atom     7     C          :         3.75429758
                  atom     8     C          :         3.75409445
     total charge in muffin-tins            :        30.03647548
     total charge                           :        48.00000000
 
 Estimated fundamental gap                  :         0.15294029
        valence-band maximum at    1      0.0000  0.0000  0.0000
     conduction-band minimum at   58      0.3750  0.3750  0.3333
 
 Wall time (seconds)                        :       387.02
 
 RMS change in effective potential (target) :  0.119547E-03  ( 0.100000E-05)
 Absolute change in total energy   (target) :  0.143157E-02  ( 0.100000E-05)
 Charge distance                   (target) :  0.476237E-03  ( 0.100000E-04)
 Abs. change in max-nonIBS-force   (target) :  0.174901E-01  ( 0.500000E-04)
 
++++++++++++++++++++++++++++++++++++++++++++++++++++++++++++++++++++++++++++++++
+ SCF iteration number :    7                                                  +
++++++++++++++++++++++++++++++++++++++++++++++++++++++++++++++++++++++++++++++++
 Total energy                               :      -304.79356952
 _______________________________________________________________
 Fermi energy                               :         0.51748112
 Kinetic energy                             :       303.61983654
 Coulomb energy                             :      -564.99823849
 Exchange energy                            :       -41.63641802
 Correlation energy                         :        -1.77874955
 
 DOS at Fermi energy (states/Ha/cell)       :         0.00000000
 
 Electron charges :
     core                                   :        16.00000000
     core leakage                           :         0.00340895
     valence                                :        32.00000000
     interstitial                           :        17.96352520
     charge in muffin-tin spheres :
                  atom     1     C          :         3.75442136
                  atom     2     C          :         3.75459529
                  atom     3     C          :         3.75455824
                  atom     4     C          :         3.75447752
                  atom     5     C          :         3.75497081
                  atom     6     C          :         3.75504671
                  atom     7     C          :         3.75410079
                  atom     8     C          :         3.75430407
     total charge in muffin-tins            :        30.03647480
     total charge                           :        48.00000000
 
 Estimated fundamental gap                  :         0.15294164
        valence-band maximum at    1      0.0000  0.0000  0.0000
     conduction-band minimum at  103      0.6250  0.6250  0.6667
 
 Wall time (seconds)                        :       451.10
 
 RMS change in effective potential (target) :  0.103830E-03  ( 0.100000E-05)
 Absolute change in total energy   (target) :  0.596148E-04  ( 0.100000E-05)
 Charge distance                   (target) :  0.324597E-04  ( 0.100000E-04)
 Abs. change in max-nonIBS-force   (target) :  0.254680E-03  ( 0.500000E-04)
 
++++++++++++++++++++++++++++++++++++++++++++++++++++++++++++++++++++++++++++++++
+ SCF iteration number :    8                                                  +
++++++++++++++++++++++++++++++++++++++++++++++++++++++++++++++++++++++++++++++++
 Total energy                               :      -304.79353986
 _______________________________________________________________
 Fermi energy                               :         0.51748135
 Kinetic energy                             :       303.61985485
 Coulomb energy                             :      -564.99822824
 Exchange energy                            :       -41.63641684
 Correlation energy                         :        -1.77874963
 
 DOS at Fermi energy (states/Ha/cell)       :         0.00000000
 
 Electron charges :
     core                                   :        16.00000000
     core leakage                           :         0.00340895
     valence                                :        32.00000000
     interstitial                           :        17.96352690
     charge in muffin-tin spheres :
                  atom     1     C          :         3.75453859
                  atom     2     C          :         3.75461379
                  atom     3     C          :         3.75456008
                  atom     4     C          :         3.75446515
                  atom     5     C          :         3.75492569
                  atom     6     C          :         3.75495935
                  atom     7     C          :         3.75422676
                  atom     8     C          :         3.75418369
     total charge in muffin-tins            :        30.03647310
     total charge                           :        48.00000000
 
 Estimated fundamental gap                  :         0.15294187
        valence-band maximum at    1      0.0000  0.0000  0.0000
     conduction-band minimum at  103      0.6250  0.6250  0.6667
 
 Wall time (seconds)                        :       517.29
 
 RMS change in effective potential (target) :  0.182608E-04  ( 0.100000E-05)
 Absolute change in total energy   (target) :  0.296626E-04  ( 0.100000E-05)
 Charge distance                   (target) :  0.186191E-04  ( 0.100000E-04)
 Abs. change in max-nonIBS-force   (target) :  0.768234E-04  ( 0.500000E-04)
 
++++++++++++++++++++++++++++++++++++++++++++++++++++++++++++++++++++++++++++++++
+ SCF iteration number :    9                                                  +
++++++++++++++++++++++++++++++++++++++++++++++++++++++++++++++++++++++++++++++++
 Total energy                               :      -304.79352657
 _______________________________________________________________
 Fermi energy                               :         0.51748163
 Kinetic energy                             :       303.61986179
 Coulomb energy                             :      -564.99822248
 Exchange energy                            :       -41.63641620
 Correlation energy                         :        -1.77874968
 
 DOS at Fermi energy (states/Ha/cell)       :         0.00000000
 
 Electron charges :
     core                                   :        16.00000000
     core leakage                           :         0.00340895
     valence                                :        32.00000000
     interstitial                           :        17.96352783
     charge in muffin-tin spheres :
                  atom     1     C          :         3.75455393
                  atom     2     C          :         3.75461531
                  atom     3     C          :         3.75455506
                  atom     4     C          :         3.75444544
                  atom     5     C          :         3.75493741
                  atom     6     C          :         3.75496070
                  atom     7     C          :         3.75420648
                  atom     8     C          :         3.75419784
     total charge in muffin-tins            :        30.03647217
     total charge                           :        48.00000000
 
 Estimated fundamental gap                  :         0.15294136
        valence-band maximum at    1      0.0000  0.0000  0.0000
     conduction-band minimum at   58      0.3750  0.3750  0.3333
 
 Wall time (seconds)                        :       582.22
 
 RMS change in effective potential (target) :  0.170635E-04  ( 0.100000E-05)
 Absolute change in total energy   (target) :  0.132954E-04  ( 0.100000E-05)
 Charge distance                   (target) :  0.424712E-05  ( 0.100000E-04)
 Abs. change in max-nonIBS-force   (target) :  0.424673E-04  ( 0.500000E-04)
 
++++++++++++++++++++++++++++++++++++++++++++++++++++++++++++++++++++++++++++++++
+ SCF iteration number :   10                                                  +
++++++++++++++++++++++++++++++++++++++++++++++++++++++++++++++++++++++++++++++++
 Total energy                               :      -304.79351867
 _______________________________________________________________
 Fermi energy                               :         0.51748171
 Kinetic energy                             :       303.61986657
 Coulomb energy                             :      -564.99821965
 Exchange energy                            :       -41.63641589
 Correlation energy                         :        -1.77874970
 
 DOS at Fermi energy (states/Ha/cell)       :         0.00000000
 
 Electron charges :
     core                                   :        16.00000000
     core leakage                           :         0.00340895
     valence                                :        32.00000000
     interstitial                           :        17.96352821
     charge in muffin-tin spheres :
                  atom     1     C          :         3.75454207
                  atom     2     C          :         3.75460816
                  atom     3     C          :         3.75456127
                  atom     4     C          :         3.75445217
                  atom     5     C          :         3.75493191
                  atom     6     C          :         3.75496711
                  atom     7     C          :         3.75421118
                  atom     8     C          :         3.75419792
     total charge in muffin-tins            :        30.03647179
     total charge                           :        48.00000000
 
 Estimated fundamental gap                  :         0.15294141
        valence-band maximum at    1      0.0000  0.0000  0.0000
     conduction-band minimum at   58      0.3750  0.3750  0.3333
 
 Wall time (seconds)                        :       646.87
 
 RMS change in effective potential (target) :  0.407787E-05  ( 0.100000E-05)
 Absolute change in total energy   (target) :  0.789880E-05  ( 0.100000E-05)
 Charge distance                   (target) :  0.252287E-05  ( 0.100000E-04)
 Abs. change in max-nonIBS-force   (target) :  0.112028E-04  ( 0.500000E-04)
 
++++++++++++++++++++++++++++++++++++++++++++++++++++++++++++++++++++++++++++++++
+ SCF iteration number :   11                                                  +
++++++++++++++++++++++++++++++++++++++++++++++++++++++++++++++++++++++++++++++++
 Total energy                               :      -304.79351945
 _______________________________________________________________
 Fermi energy                               :         0.51748170
 Kinetic energy                             :       303.61986628
 Coulomb energy                             :      -564.99822010
 Exchange energy                            :       -41.63641594
 Correlation energy                         :        -1.77874970
 
 DOS at Fermi energy (states/Ha/cell)       :         0.00000000
 
 Electron charges :
     core                                   :        16.00000000
     core leakage                           :         0.00340895
     valence                                :        32.00000000
     interstitial                           :        17.96352812
     charge in muffin-tin spheres :
                  atom     1     C          :         3.75454091
                  atom     2     C          :         3.75461401
                  atom     3     C          :         3.75455695
                  atom     4     C          :         3.75445624
                  atom     5     C          :         3.75493401
                  atom     6     C          :         3.75496254
                  atom     7     C          :         3.75421312
                  atom     8     C          :         3.75419410
     total charge in muffin-tins            :        30.03647188
     total charge                           :        48.00000000
 
 Estimated fundamental gap                  :         0.15294142
        valence-band maximum at    1      0.0000  0.0000  0.0000
     conduction-band minimum at  103      0.6250  0.6250  0.6667
 
 Wall time (seconds)                        :       711.82
 
 RMS change in effective potential (target) :  0.148280E-05  ( 0.100000E-05)
 Absolute change in total energy   (target) :  0.782988E-06  ( 0.100000E-05)
 Charge distance                   (target) :  0.112828E-05  ( 0.100000E-04)
 Abs. change in max-nonIBS-force   (target) :  0.702787E-05  ( 0.500000E-04)
 
++++++++++++++++++++++++++++++++++++++++++++++++++++++++++++++++++++++++++++++++
+ SCF iteration number :   12                                                  +
++++++++++++++++++++++++++++++++++++++++++++++++++++++++++++++++++++++++++++++++
 Total energy                               :      -304.79351947
 _______________________________________________________________
 Fermi energy                               :         0.51748168
 Kinetic energy                             :       303.61986633
 Coulomb energy                             :      -564.99822016
 Exchange energy                            :       -41.63641594
 Correlation energy                         :        -1.77874970
 
 DOS at Fermi energy (states/Ha/cell)       :         0.00000000
 
 Electron charges :
     core                                   :        16.00000000
     core leakage                           :         0.00340895
     valence                                :        32.00000000
     interstitial                           :        17.96352811
     charge in muffin-tin spheres :
                  atom     1     C          :         3.75454304
                  atom     2     C          :         3.75461259
                  atom     3     C          :         3.75455830
                  atom     4     C          :         3.75445460
                  atom     5     C          :         3.75493232
                  atom     6     C          :         3.75496350
                  atom     7     C          :         3.75421259
                  atom     8     C          :         3.75419494
     total charge in muffin-tins            :        30.03647189
     total charge                           :        48.00000000
 
 Estimated fundamental gap                  :         0.15294145
        valence-band maximum at    1      0.0000  0.0000  0.0000
     conduction-band minimum at  103      0.6250  0.6250  0.6667
 
 Wall time (seconds)                        :       777.06
 
 RMS change in effective potential (target) :  0.303646E-06  ( 0.100000E-05)
 Absolute change in total energy   (target) :  0.206203E-07  ( 0.100000E-05)
 Charge distance                   (target) :  0.396613E-06  ( 0.100000E-04)
 Abs. change in max-nonIBS-force   (target) :  0.547789E-05  ( 0.500000E-04)
 
++++++++++++++++++++++++++++++++++++++++++++++++++++++++++++++++++++++++++++++++
+ SCF iteration number :   13                                                  +
++++++++++++++++++++++++++++++++++++++++++++++++++++++++++++++++++++++++++++++++
 Total energy                               :      -304.79351907
 _______________________________________________________________
 Fermi energy                               :         0.51748168
 Kinetic energy                             :       303.61986653
 Coulomb energy                             :      -564.99821998
 Exchange energy                            :       -41.63641592
 Correlation energy                         :        -1.77874970
 
 DOS at Fermi energy (states/Ha/cell)       :         0.00000000
 
 Electron charges :
     core                                   :        16.00000000
     core leakage                           :         0.00340895
     valence                                :        32.00000000
     interstitial                           :        17.96352815
     charge in muffin-tin spheres :
                  atom     1     C          :         3.75454265
                  atom     2     C          :         3.75461231
                  atom     3     C          :         3.75455827
                  atom     4     C          :         3.75445441
                  atom     5     C          :         3.75493297
                  atom     6     C          :         3.75496347
                  atom     7     C          :         3.75421286
                  atom     8     C          :         3.75419492
     total charge in muffin-tins            :        30.03647185
     total charge                           :        48.00000000
 
 Estimated fundamental gap                  :         0.15294146
        valence-band maximum at    1      0.0000  0.0000  0.0000
     conduction-band minimum at  103      0.6250  0.6250  0.6667
 
 Wall time (seconds)                        :       841.42
 
 RMS change in effective potential (target) :  0.153791E-06  ( 0.100000E-05)
 Absolute change in total energy   (target) :  0.405869E-06  ( 0.100000E-05)
 Charge distance                   (target) :  0.677371E-07  ( 0.100000E-04)
 Abs. change in max-nonIBS-force   (target) :  0.753219E-06  ( 0.500000E-04)
                                                                                
++++++++++++++++++++++++++++++++++++++++++++++++++++++++++++++++++++++++++++++++
| Convergency criteria checked for the last 2 iterations                       +
| Convergence targets achieved. Performing final SCF iteration                 +
++++++++++++++++++++++++++++++++++++++++++++++++++++++++++++++++++++++++++++++++
 Total energy                               :      -304.79351894
 _______________________________________________________________
 Fermi energy                               :         0.51748168
 Kinetic energy                             :       303.61986658
 Coulomb energy                             :      -564.99821991
 Exchange energy                            :       -41.63641591
 Correlation energy                         :        -1.77874970
 
 DOS at Fermi energy (states/Ha/cell)       :         0.00000000
 
 Electron charges :
     core                                   :        16.00000000
     core leakage                           :         0.00340895
     valence                                :        32.00000000
     interstitial                           :        17.96352816
     charge in muffin-tin spheres :
                  atom     1     C          :         3.75454275
                  atom     2     C          :         3.75461243
                  atom     3     C          :         3.75455829
                  atom     4     C          :         3.75445451
                  atom     5     C          :         3.75493273
                  atom     6     C          :         3.75496350
                  atom     7     C          :         3.75421271
                  atom     8     C          :         3.75419493
     total charge in muffin-tins            :        30.03647184
     total charge                           :        48.00000000
 
 Estimated fundamental gap                  :         0.15294146
        valence-band maximum at    1      0.0000  0.0000  0.0000
     conduction-band minimum at   58      0.3750  0.3750  0.3333
 
++++++++++++++++++++++++++++++++++++++++++++++++++++++++++++++++++++++++++++++++
+ Self-consistent loop stopped                                                 +
++++++++++++++++++++++++++++++++++++++++++++++++++++++++++++++++++++++++++++++++
 STATE.OUT is written
 
--------------------------------------------------------------------------------
- Writing atomic positions and forces                                          -
--------------------------------------------------------------------------------
 
 Atomic positions (lattice) :
 atom     1   C  :     0.99955569    0.99955569    0.00014810
 atom     2   C  :     0.25000000    0.25000000    0.25000000
 atom     3   C  :     0.50044431    0.50044431    0.49985190
 atom     4   C  :     0.75000000    0.75000000    0.75000000
 atom     5   C  :     0.31250000    0.31250000    0.06250000
 atom     6   C  :     0.56250000    0.56250000    0.31250000
 atom     7   C  :     0.81250000    0.81250000    0.56250000
 atom     8   C  :     0.06250000    0.06250000    0.81250000
 
 Total atomic forces including IBS (cartesian) :
 atom     1   C  :    -0.00166685    0.00012597   -0.00012597
 atom     2   C  :     0.00001178   -0.00001365    0.00001365
 atom     3   C  :     0.00168916   -0.00015416    0.00015416
 atom     4   C  :     0.00001273   -0.00001621    0.00001621
 atom     5   C  :     0.00112761    0.00009085   -0.00009085
 atom     6   C  :    -0.00035444    0.00007943   -0.00007943
 atom     7   C  :    -0.00114910   -0.00005447    0.00005447
 atom     8   C  :     0.00032910   -0.00005777    0.00005777
 
 Atomic force components including IBS (cartesian) :
 atom     1   C  :    -0.00178649    0.00019530   -0.00019530   HF force
                 :     0.00008559   -0.00006227    0.00006227   core correction
                 :     0.00003405   -0.00000706    0.00000706   IBS correction
 atom     2   C  :    -0.00001305    0.00006585   -0.00006585   HF force
                 :     0.00001111   -0.00007590    0.00007590   core correction
                 :     0.00001372   -0.00000360    0.00000360   IBS correction
 atom     3   C  :     0.00172231   -0.00017944    0.00017944   HF force
                 :    -0.00002656    0.00002644   -0.00002644   core correction
                 :    -0.00000659   -0.00000115    0.00000115   IBS correction
 atom     4   C  :    -0.00005118   -0.00005185    0.00005185   HF force
                 :     0.00004939    0.00004088   -0.00004088   core correction
                 :     0.00001452   -0.00000525    0.00000525   IBS correction
 atom     5   C  :     0.00131778    0.00004743   -0.00004743   HF force
                 :    -0.00015618    0.00004216   -0.00004216   core correction
                 :    -0.00003399    0.00000126   -0.00000126   IBS correction
 atom     6   C  :    -0.00030188    0.00002296   -0.00002296   HF force
                 :    -0.00004384    0.00004968   -0.00004968   core correction
                 :    -0.00000872    0.00000679   -0.00000679   IBS correction
 atom     7   C  :    -0.00124062   -0.00004541    0.00004541   HF force
                 :     0.00008858   -0.00001342    0.00001342   core correction
                 :     0.00000294    0.00000436   -0.00000436   IBS correction
 atom     8   C  :     0.00035311   -0.00005483    0.00005483   HF force
                 :    -0.00000809   -0.00000758    0.00000758   core correction
                 :    -0.00001592    0.00000464   -0.00000464   IBS correction
 
********************************************************************************
* Groundstate module stopped                                                   *
********************************************************************************
 
 Total time spent (seconds)                 :      1014.32
================================================================================
| EXCITING NITROGEN-13 stopped                                                 =
================================================================================
