    -304.793512867    
    -304.793466222    
    -304.793480999    
    -304.793507530    
    -304.793489968    
    -304.793512042    
    -304.793506184    
    -304.793505223    
    -304.793502166    
    -304.793500247    
    -304.793499008    
    -304.793498953    
    -304.793498932    
    -304.793498935    
 
