================================================================================
| EXCITING NITROGEN-13 started                                                 =
| version hash id: de0c1dba9f665d6c60514aa9e8bf40326ac9f394                    =
|                                                                              =
|                                                                              =
| Date (DD-MM-YYYY) : 03-05-2022                                               =
| Time (hh:mm:ss)   : 22:07:43                                                 =
|                                                                              =
| All units are atomic (Hartree, Bohr, etc.)                                   =
================================================================================
 
********************************************************************************
* Ground-state run resuming from STATE.OUT                                     *
********************************************************************************
 
++++++++++++++++++++++++++++++++++++++++++++++++++++++++++++++++++++++++++++++++
+ Starting initialization                                                      +
++++++++++++++++++++++++++++++++++++++++++++++++++++++++++++++++++++++++++++++++
 
 Lattice vectors (cartesian) :
      0.0000000000     -3.3759957000     -3.3759957000
     -3.3759957000     -6.7519914000      3.3759957000
     -6.7519914000      3.3759957000     -3.3759957000
 
 Reciprocal lattice vectors (cartesian) :
      0.2326419324     -0.6979257972     -1.1632096620
     -0.4652838648     -0.4652838648      0.4652838648
     -0.6979257972      0.2326419324     -0.2326419324
 
 Unit cell volume                           :     307.8191548003
 Brillouin zone volume                      :       0.8058309874
 
 Species :    1 (C)
     parameters loaded from                 :    C.xml
     name                                   :    carbon
     nuclear charge                         :      -6.00000000
     electronic charge                      :       6.00000000
     atomic mass                            :   21894.16673000
     muffin-tin radius                      :       1.25000000
     # of radial points in muffin-tin       :     250
 
     atomic positions (lattice) :
       1 :   0.00000000  0.00000000  0.00000000
       2 :   0.50000000  0.00000000  0.50000000
       3 :   0.74970379  0.50059242  0.75088863
       4 :   0.25029621  0.49940758  0.24911137
       5 :   0.56250000  0.87500000  0.81250000
       6 :   0.06250000  0.87500000  0.31250000
       7 :   0.31250000  0.37500000  0.56250000
       8 :   0.81250000  0.37500000  0.06250000
 
 Total number of atoms per unit cell        :       8
 
 Spin treatment                             :    spin-unpolarised
 
 Number of Bravais lattice symmetries       :       4
 Number of crystal symmetries               :       2
 
 Sphere radius used for k-point grid density:      33.42065234
 
 k-point grid                               :       8    5    5
 Total number of k-points                   :     200
 k-point set is reduced with crystal symmetries
 
 R^MT_min * |G+k|_max (rgkmax)              :       8.00000000
 Species with R^MT_min                      :       1 (C)
 Maximum |G+k| for APW functions            :       6.40000000
 Maximum |G| for potential and density      :      16.00000000
 
 G-vector grid sizes                        :      25    45    45
 Total number of G-vectors                  :   21191
 
 Maximum angular momentum used for
     APW functions                          :       8
     computing H and O matrix elements      :       8
     potential and density                  :       8
     inner part of muffin-tin               :       2
 
 Total nuclear charge                       :     -48.00000000
 Total electronic charge                    :      48.00000000
 Total core charge                          :      16.00000000
 Total valence charge                       :      32.00000000
 
 Number of empty states                     :      20
 Total number of valence states             :      37
 
 Maximum Hamiltonian size                   :    1408
 Maximum number of plane-waves              :    1376
 Total number of local-orbitals             :      32
 
 Exchange-correlation type                  :      20
     Perdew-Burke-Ernzerhof, Phys. Rev. Lett. 77, 3865 (1996)
     Generalised gradient approximation (GGA)
 
 Smearing scheme                            :    Gaussian
 Smearing width                             :       0.00010000
 
 Using multisecant Broyden potential mixing
 
++++++++++++++++++++++++++++++++++++++++++++++++++++++++++++++++++++++++++++++++
+ Ending initialization                                                        +
++++++++++++++++++++++++++++++++++++++++++++++++++++++++++++++++++++++++++++++++
 
********************************************************************************
* Groundstate module started                                                   *
********************************************************************************
 Output level for this task is set to normal
 
++++++++++++++++++++++++++++++++++++++++++++++++++++++++++++++++++++++++++++++++
+ Self-consistent loop started                                                 +
++++++++++++++++++++++++++++++++++++++++++++++++++++++++++++++++++++++++++++++++
 Potential read in from STATE.OUT
 
 
++++++++++++++++++++++++++++++++++++++++++++++++++++++++++++++++++++++++++++++++
+ SCF iteration number :    1                                                  +
++++++++++++++++++++++++++++++++++++++++++++++++++++++++++++++++++++++++++++++++
 Total energy                               :      -304.79352868
 _______________________________________________________________
 Fermi energy                               :         0.51735944
 Kinetic energy                             :       303.61986709
 Coulomb energy                             :      -564.99825654
 Exchange energy                            :       -41.63638671
 Correlation energy                         :        -1.77875252
 
 DOS at Fermi energy (states/Ha/cell)       :         0.00000000
 
 Electron charges :
     core                                   :        16.00000000
     core leakage                           :         0.00340895
     valence                                :        32.00000000
     interstitial                           :        17.96362727
     charge in muffin-tin spheres :
                  atom     1     C          :         3.75480006
                  atom     2     C          :         3.75426617
                  atom     3     C          :         3.75463407
                  atom     4     C          :         3.75441996
                  atom     5     C          :         3.75503632
                  atom     6     C          :         3.75407476
                  atom     7     C          :         3.75331282
                  atom     8     C          :         3.75582856
     total charge in muffin-tins            :        30.03637273
     total charge                           :        48.00000000
 
 Estimated fundamental gap                  :         0.15272773
        valence-band maximum at    1      0.0000  0.0000  0.0000
     conduction-band minimum at  108      0.3750  0.6000  0.4000
 
 Wall time (seconds)                        :       117.35
 
++++++++++++++++++++++++++++++++++++++++++++++++++++++++++++++++++++++++++++++++
+ SCF iteration number :    2                                                  +
++++++++++++++++++++++++++++++++++++++++++++++++++++++++++++++++++++++++++++++++
 Total energy                               :      -304.79348746
 _______________________________________________________________
 Fermi energy                               :         0.51736048
 Kinetic energy                             :       303.61988245
 Coulomb energy                             :      -564.99823291
 Exchange energy                            :       -41.63638415
 Correlation energy                         :        -1.77875285
 
 DOS at Fermi energy (states/Ha/cell)       :         0.00000000
 
 Electron charges :
     core                                   :        16.00000000
     core leakage                           :         0.00340895
     valence                                :        32.00000000
     interstitial                           :        17.96363823
     charge in muffin-tin spheres :
                  atom     1     C          :         3.75480000
                  atom     2     C          :         3.75426756
                  atom     3     C          :         3.75461030
                  atom     4     C          :         3.75444154
                  atom     5     C          :         3.75541587
                  atom     6     C          :         3.75369266
                  atom     7     C          :         3.75199985
                  atom     8     C          :         3.75713399
     total charge in muffin-tins            :        30.03636177
     total charge                           :        48.00000000
 
 Estimated fundamental gap                  :         0.15272755
        valence-band maximum at    1      0.0000  0.0000  0.0000
     conduction-band minimum at  108      0.3750  0.6000  0.4000
 
 Wall time (seconds)                        :       234.06
 
 RMS change in effective potential (target) :  0.114340E-02  ( 0.100000E-05)
 Absolute change in total energy   (target) :  0.412185E-04  ( 0.100000E-05)
 Charge distance                   (target) :  0.290271E-03  ( 0.100000E-04)
 Abs. change in max-nonIBS-force   (target) :  0.121956E-01  ( 0.500000E-04)
 
++++++++++++++++++++++++++++++++++++++++++++++++++++++++++++++++++++++++++++++++
+ SCF iteration number :    3                                                  +
++++++++++++++++++++++++++++++++++++++++++++++++++++++++++++++++++++++++++++++++
 Total energy                               :      -304.79354240
 _______________________________________________________________
 Fermi energy                               :         0.51736021
 Kinetic energy                             :       303.61988735
 Coulomb energy                             :      -564.99828885
 Exchange energy                            :       -41.63638825
 Correlation energy                         :        -1.77875265
 
 DOS at Fermi energy (states/Ha/cell)       :         0.00000000
 
 Electron charges :
     core                                   :        16.00000000
     core leakage                           :         0.00340895
     valence                                :        32.00000000
     interstitial                           :        17.96363555
     charge in muffin-tin spheres :
                  atom     1     C          :         3.75478680
                  atom     2     C          :         3.75428182
                  atom     3     C          :         3.75464426
                  atom     4     C          :         3.75440942
                  atom     5     C          :         3.75541413
                  atom     6     C          :         3.75369467
                  atom     7     C          :         3.75199467
                  atom     8     C          :         3.75713869
     total charge in muffin-tins            :        30.03636445
     total charge                           :        48.00000000
 
 Estimated fundamental gap                  :         0.15272736
        valence-band maximum at    1      0.0000  0.0000  0.0000
     conduction-band minimum at  142      0.6250  0.4000  0.6000
 
 Wall time (seconds)                        :       352.95
 
 RMS change in effective potential (target) :  0.794203E-03  ( 0.100000E-05)
 Absolute change in total energy   (target) :  0.549372E-04  ( 0.100000E-05)
 Charge distance                   (target) :  0.921744E-04  ( 0.100000E-04)
 Abs. change in max-nonIBS-force   (target) :  0.231082E-02  ( 0.500000E-04)
 
++++++++++++++++++++++++++++++++++++++++++++++++++++++++++++++++++++++++++++++++
+ SCF iteration number :    4                                                  +
++++++++++++++++++++++++++++++++++++++++++++++++++++++++++++++++++++++++++++++++
 Total energy                               :      -304.79335346
 _______________________________________________________________
 Fermi energy                               :         0.51736061
 Kinetic energy                             :       303.61997135
 Coulomb energy                             :      -564.99819336
 Exchange energy                            :       -41.63637835
 Correlation energy                         :        -1.77875310
 
 DOS at Fermi energy (states/Ha/cell)       :         0.00000000
 
 Electron charges :
     core                                   :        16.00000000
     core leakage                           :         0.00340896
     valence                                :        32.00000000
     interstitial                           :        17.96364046
     charge in muffin-tin spheres :
                  atom     1     C          :         3.75434843
                  atom     2     C          :         3.75471481
                  atom     3     C          :         3.75416188
                  atom     4     C          :         3.75487851
                  atom     5     C          :         3.75508184
                  atom     6     C          :         3.75403723
                  atom     7     C          :         3.75347000
                  atom     8     C          :         3.75566684
     total charge in muffin-tins            :        30.03635954
     total charge                           :        48.00000000
 
 Estimated fundamental gap                  :         0.15272298
        valence-band maximum at    1      0.0000  0.0000  0.0000
     conduction-band minimum at  142      0.6250  0.4000  0.6000
 
 Wall time (seconds)                        :       470.76
 
 RMS change in effective potential (target) :  0.744801E-03  ( 0.100000E-05)
 Absolute change in total energy   (target) :  0.188940E-03  ( 0.100000E-05)
 Charge distance                   (target) :  0.235785E-03  ( 0.100000E-04)
 Abs. change in max-nonIBS-force   (target) :  0.191130E-02  ( 0.500000E-04)
 
++++++++++++++++++++++++++++++++++++++++++++++++++++++++++++++++++++++++++++++++
+ SCF iteration number :    5                                                  +
++++++++++++++++++++++++++++++++++++++++++++++++++++++++++++++++++++++++++++++++
 Total energy                               :      -304.79351209
 _______________________________________________________________
 Fermi energy                               :         0.51735940
 Kinetic energy                             :       303.61985997
 Coulomb energy                             :      -564.99823578
 Exchange energy                            :       -41.63638322
 Correlation energy                         :        -1.77875305
 
 DOS at Fermi energy (states/Ha/cell)       :         0.00000000
 
 Electron charges :
     core                                   :        16.00000000
     core leakage                           :         0.00340895
     valence                                :        32.00000000
     interstitial                           :        17.96363127
     charge in muffin-tin spheres :
                  atom     1     C          :         3.75488847
                  atom     2     C          :         3.75418012
                  atom     3     C          :         3.75478312
                  atom     4     C          :         3.75427530
                  atom     5     C          :         3.75520177
                  atom     6     C          :         3.75390608
                  atom     7     C          :         3.75258291
                  atom     8     C          :         3.75655097
     total charge in muffin-tins            :        30.03636873
     total charge                           :        48.00000000
 
 Estimated fundamental gap                  :         0.15272538
        valence-band maximum at    1      0.0000  0.0000  0.0000
     conduction-band minimum at  108      0.3750  0.6000  0.4000
 
 Wall time (seconds)                        :       587.79
 
 RMS change in effective potential (target) :  0.222886E-03  ( 0.100000E-05)
 Absolute change in total energy   (target) :  0.158625E-03  ( 0.100000E-05)
 Charge distance                   (target) :  0.211790E-03  ( 0.100000E-04)
 Abs. change in max-nonIBS-force   (target) :  0.570118E-02  ( 0.500000E-04)
 
++++++++++++++++++++++++++++++++++++++++++++++++++++++++++++++++++++++++++++++++
+ SCF iteration number :    6                                                  +
++++++++++++++++++++++++++++++++++++++++++++++++++++++++++++++++++++++++++++++++
 Total energy                               :      -304.79355750
 _______________________________________________________________
 Fermi energy                               :         0.51735917
 Kinetic energy                             :       303.61983848
 Coulomb energy                             :      -564.99825760
 Exchange energy                            :       -41.63638542
 Correlation energy                         :        -1.77875295
 
 DOS at Fermi energy (states/Ha/cell)       :         0.00000000
 
 Electron charges :
     core                                   :        16.00000000
     core leakage                           :         0.00340895
     valence                                :        32.00000000
     interstitial                           :        17.96362770
     charge in muffin-tin spheres :
                  atom     1     C          :         3.75465529
                  atom     2     C          :         3.75441155
                  atom     3     C          :         3.75454991
                  atom     4     C          :         3.75449832
                  atom     5     C          :         3.75527895
                  atom     6     C          :         3.75383234
                  atom     7     C          :         3.75247343
                  atom     8     C          :         3.75667251
     total charge in muffin-tins            :        30.03637230
     total charge                           :        48.00000000
 
 Estimated fundamental gap                  :         0.15272560
        valence-band maximum at    1      0.0000  0.0000  0.0000
     conduction-band minimum at  142      0.6250  0.4000  0.6000
 
 Wall time (seconds)                        :       707.01
 
 RMS change in effective potential (target) :  0.118004E-03  ( 0.100000E-05)
 Absolute change in total energy   (target) :  0.454133E-04  ( 0.100000E-05)
 Charge distance                   (target) :  0.424029E-04  ( 0.100000E-04)
 Abs. change in max-nonIBS-force   (target) :  0.278064E-03  ( 0.500000E-04)
 
++++++++++++++++++++++++++++++++++++++++++++++++++++++++++++++++++++++++++++++++
+ SCF iteration number :    7                                                  +
++++++++++++++++++++++++++++++++++++++++++++++++++++++++++++++++++++++++++++++++
 Total energy                               :      -304.79355919
 _______________________________________________________________
 Fermi energy                               :         0.51735921
 Kinetic energy                             :       303.61984178
 Coulomb energy                             :      -564.99826226
 Exchange energy                            :       -41.63638577
 Correlation energy                         :        -1.77875293
 
 DOS at Fermi energy (states/Ha/cell)       :         0.00000000
 
 Electron charges :
     core                                   :        16.00000000
     core leakage                           :         0.00340895
     valence                                :        32.00000000
     interstitial                           :        17.96362731
     charge in muffin-tin spheres :
                  atom     1     C          :         3.75471029
                  atom     2     C          :         3.75435675
                  atom     3     C          :         3.75460350
                  atom     4     C          :         3.75444950
                  atom     5     C          :         3.75528418
                  atom     6     C          :         3.75382748
                  atom     7     C          :         3.75247824
                  atom     8     C          :         3.75666275
     total charge in muffin-tins            :        30.03637269
     total charge                           :        48.00000000
 
 Estimated fundamental gap                  :         0.15272560
        valence-band maximum at    1      0.0000  0.0000  0.0000
     conduction-band minimum at  108      0.3750  0.6000  0.4000
 
 Wall time (seconds)                        :       824.82
 
 RMS change in effective potential (target) :  0.804624E-04  ( 0.100000E-05)
 Absolute change in total energy   (target) :  0.168495E-05  ( 0.100000E-05)
 Charge distance                   (target) :  0.164248E-04  ( 0.100000E-04)
 Abs. change in max-nonIBS-force   (target) :  0.715977E-03  ( 0.500000E-04)
 
++++++++++++++++++++++++++++++++++++++++++++++++++++++++++++++++++++++++++++++++
+ SCF iteration number :    8                                                  +
++++++++++++++++++++++++++++++++++++++++++++++++++++++++++++++++++++++++++++++++
 Total energy                               :      -304.79354261
 _______________________________________________________________
 Fermi energy                               :         0.51735939
 Kinetic energy                             :       303.61985147
 Coulomb energy                             :      -564.99825601
 Exchange energy                            :       -41.63638511
 Correlation energy                         :        -1.77875297
 
 DOS at Fermi energy (states/Ha/cell)       :         0.00000000
 
 Electron charges :
     core                                   :        16.00000000
     core leakage                           :         0.00340895
     valence                                :        32.00000000
     interstitial                           :        17.96362843
     charge in muffin-tin spheres :
                  atom     1     C          :         3.75472254
                  atom     2     C          :         3.75434657
                  atom     3     C          :         3.75459040
                  atom     4     C          :         3.75445948
                  atom     5     C          :         3.75525659
                  atom     6     C          :         3.75385183
                  atom     7     C          :         3.75244351
                  atom     8     C          :         3.75670063
     total charge in muffin-tins            :        30.03637157
     total charge                           :        48.00000000
 
 Estimated fundamental gap                  :         0.15272561
        valence-band maximum at    1      0.0000  0.0000  0.0000
     conduction-band minimum at  108      0.3750  0.6000  0.4000
 
 Wall time (seconds)                        :       942.95
 
 RMS change in effective potential (target) :  0.553548E-04  ( 0.100000E-05)
 Absolute change in total energy   (target) :  0.165732E-04  ( 0.100000E-05)
 Charge distance                   (target) :  0.103804E-04  ( 0.100000E-04)
 Abs. change in max-nonIBS-force   (target) :  0.528585E-03  ( 0.500000E-04)
 
++++++++++++++++++++++++++++++++++++++++++++++++++++++++++++++++++++++++++++++++
+ SCF iteration number :    9                                                  +
++++++++++++++++++++++++++++++++++++++++++++++++++++++++++++++++++++++++++++++++
 Total energy                               :      -304.79353187
 _______________________________________________________________
 Fermi energy                               :         0.51735955
 Kinetic energy                             :       303.61985884
 Coulomb energy                             :      -564.99825294
 Exchange energy                            :       -41.63638478
 Correlation energy                         :        -1.77875298
 
 DOS at Fermi energy (states/Ha/cell)       :         0.00000000
 
 Electron charges :
     core                                   :        16.00000000
     core leakage                           :         0.00340895
     valence                                :        32.00000000
     interstitial                           :        17.96362905
     charge in muffin-tin spheres :
                  atom     1     C          :         3.75471258
                  atom     2     C          :         3.75435395
                  atom     3     C          :         3.75459487
                  atom     4     C          :         3.75445826
                  atom     5     C          :         3.75529141
                  atom     6     C          :         3.75381982
                  atom     7     C          :         3.75241202
                  atom     8     C          :         3.75672803
     total charge in muffin-tins            :        30.03637095
     total charge                           :        48.00000000
 
 Estimated fundamental gap                  :         0.15272563
        valence-band maximum at    1      0.0000  0.0000  0.0000
     conduction-band minimum at  142      0.6250  0.4000  0.6000
 
 Wall time (seconds)                        :      1060.18
 
 RMS change in effective potential (target) :  0.228429E-04  ( 0.100000E-05)
 Absolute change in total energy   (target) :  0.107438E-04  ( 0.100000E-05)
 Charge distance                   (target) :  0.111521E-04  ( 0.100000E-04)
 Abs. change in max-nonIBS-force   (target) :  0.421908E-03  ( 0.500000E-04)
 
++++++++++++++++++++++++++++++++++++++++++++++++++++++++++++++++++++++++++++++++
+ SCF iteration number :   10                                                  +
++++++++++++++++++++++++++++++++++++++++++++++++++++++++++++++++++++++++++++++++
 Total energy                               :      -304.79353539
 _______________________________________________________________
 Fermi energy                               :         0.51735957
 Kinetic energy                             :       303.61985838
 Coulomb energy                             :      -564.99825574
 Exchange energy                            :       -41.63638506
 Correlation energy                         :        -1.77875297
 
 DOS at Fermi energy (states/Ha/cell)       :         0.00000000
 
 Electron charges :
     core                                   :        16.00000000
     core leakage                           :         0.00340895
     valence                                :        32.00000000
     interstitial                           :        17.96362866
     charge in muffin-tin spheres :
                  atom     1     C          :         3.75471413
                  atom     2     C          :         3.75435413
                  atom     3     C          :         3.75458430
                  atom     4     C          :         3.75446783
                  atom     5     C          :         3.75529835
                  atom     6     C          :         3.75381177
                  atom     7     C          :         3.75239486
                  atom     8     C          :         3.75674597
     total charge in muffin-tins            :        30.03637134
     total charge                           :        48.00000000
 
 Estimated fundamental gap                  :         0.15272568
        valence-band maximum at    1      0.0000  0.0000  0.0000
     conduction-band minimum at  108      0.3750  0.6000  0.4000
 
 Wall time (seconds)                        :      1178.22
 
 RMS change in effective potential (target) :  0.594898E-05  ( 0.100000E-05)
 Absolute change in total energy   (target) :  0.352253E-05  ( 0.100000E-05)
 Charge distance                   (target) :  0.459631E-05  ( 0.100000E-04)
 Abs. change in max-nonIBS-force   (target) :  0.169217E-03  ( 0.500000E-04)
 
++++++++++++++++++++++++++++++++++++++++++++++++++++++++++++++++++++++++++++++++
+ SCF iteration number :   11                                                  +
++++++++++++++++++++++++++++++++++++++++++++++++++++++++++++++++++++++++++++++++
 Total energy                               :      -304.79353522
 _______________________________________________________________
 Fermi energy                               :         0.51735958
 Kinetic energy                             :       303.61985886
 Coulomb energy                             :      -564.99825603
 Exchange energy                            :       -41.63638508
 Correlation energy                         :        -1.77875296
 
 DOS at Fermi energy (states/Ha/cell)       :         0.00000000
 
 Electron charges :
     core                                   :        16.00000000
     core leakage                           :         0.00340895
     valence                                :        32.00000000
     interstitial                           :        17.96362864
     charge in muffin-tin spheres :
                  atom     1     C          :         3.75470658
                  atom     2     C          :         3.75435982
                  atom     3     C          :         3.75458781
                  atom     4     C          :         3.75446562
                  atom     5     C          :         3.75530003
                  atom     6     C          :         3.75381153
                  atom     7     C          :         3.75238656
                  atom     8     C          :         3.75675342
     total charge in muffin-tins            :        30.03637136
     total charge                           :        48.00000000
 
 Estimated fundamental gap                  :         0.15272568
        valence-band maximum at    1      0.0000  0.0000  0.0000
     conduction-band minimum at  142      0.6250  0.4000  0.6000
 
 Wall time (seconds)                        :      1294.07
 
 RMS change in effective potential (target) :  0.282920E-05  ( 0.100000E-05)
 Absolute change in total energy   (target) :  0.170178E-06  ( 0.100000E-05)
 Charge distance                   (target) :  0.219184E-05  ( 0.100000E-04)
 Abs. change in max-nonIBS-force   (target) :  0.407151E-04  ( 0.500000E-04)
 
++++++++++++++++++++++++++++++++++++++++++++++++++++++++++++++++++++++++++++++++
+ SCF iteration number :   12                                                  +
++++++++++++++++++++++++++++++++++++++++++++++++++++++++++++++++++++++++++++++++
 Total energy                               :      -304.79353484
 _______________________________________________________________
 Fermi energy                               :         0.51735958
 Kinetic energy                             :       303.61985901
 Coulomb energy                             :      -564.99825583
 Exchange energy                            :       -41.63638506
 Correlation energy                         :        -1.77875296
 
 DOS at Fermi energy (states/Ha/cell)       :         0.00000000
 
 Electron charges :
     core                                   :        16.00000000
     core leakage                           :         0.00340895
     valence                                :        32.00000000
     interstitial                           :        17.96362868
     charge in muffin-tin spheres :
                  atom     1     C          :         3.75471075
                  atom     2     C          :         3.75435686
                  atom     3     C          :         3.75458367
                  atom     4     C          :         3.75446889
                  atom     5     C          :         3.75529950
                  atom     6     C          :         3.75381105
                  atom     7     C          :         3.75238893
                  atom     8     C          :         3.75675166
     total charge in muffin-tins            :        30.03637132
     total charge                           :        48.00000000
 
 Estimated fundamental gap                  :         0.15272568
        valence-band maximum at    1      0.0000  0.0000  0.0000
     conduction-band minimum at  142      0.6250  0.4000  0.6000
 
 Wall time (seconds)                        :      1412.48
 
 RMS change in effective potential (target) :  0.618807E-06  ( 0.100000E-05)
 Absolute change in total energy   (target) :  0.379089E-06  ( 0.100000E-05)
 Charge distance                   (target) :  0.710289E-06  ( 0.100000E-04)
 Abs. change in max-nonIBS-force   (target) :  0.155223E-05  ( 0.500000E-04)
 
++++++++++++++++++++++++++++++++++++++++++++++++++++++++++++++++++++++++++++++++
+ SCF iteration number :   13                                                  +
++++++++++++++++++++++++++++++++++++++++++++++++++++++++++++++++++++++++++++++++
 Total energy                               :      -304.79353522
 _______________________________________________________________
 Fermi energy                               :         0.51735958
 Kinetic energy                             :       303.61985882
 Coulomb energy                             :      -564.99825600
 Exchange energy                            :       -41.63638508
 Correlation energy                         :        -1.77875296
 
 DOS at Fermi energy (states/Ha/cell)       :         0.00000000
 
 Electron charges :
     core                                   :        16.00000000
     core leakage                           :         0.00340895
     valence                                :        32.00000000
     interstitial                           :        17.96362865
     charge in muffin-tin spheres :
                  atom     1     C          :         3.75471036
                  atom     2     C          :         3.75435706
                  atom     3     C          :         3.75458435
                  atom     4     C          :         3.75446840
                  atom     5     C          :         3.75529984
                  atom     6     C          :         3.75381099
                  atom     7     C          :         3.75238870
                  atom     8     C          :         3.75675166
     total charge in muffin-tins            :        30.03637135
     total charge                           :        48.00000000
 
 Estimated fundamental gap                  :         0.15272569
        valence-band maximum at    1      0.0000  0.0000  0.0000
     conduction-band minimum at  108      0.3750  0.6000  0.4000
 
 Wall time (seconds)                        :      1530.02
 
 RMS change in effective potential (target) :  0.275813E-06  ( 0.100000E-05)
 Absolute change in total energy   (target) :  0.378658E-06  ( 0.100000E-05)
 Charge distance                   (target) :  0.259906E-06  ( 0.100000E-04)
 Abs. change in max-nonIBS-force   (target) :  0.902948E-06  ( 0.500000E-04)
                                                                                
++++++++++++++++++++++++++++++++++++++++++++++++++++++++++++++++++++++++++++++++
| Convergency criteria checked for the last 2 iterations                       +
| Convergence targets achieved. Performing final SCF iteration                 +
++++++++++++++++++++++++++++++++++++++++++++++++++++++++++++++++++++++++++++++++
 Total energy                               :      -304.79353528
 _______________________________________________________________
 Fermi energy                               :         0.51735958
 Kinetic energy                             :       303.61985879
 Coulomb energy                             :      -564.99825602
 Exchange energy                            :       -41.63638508
 Correlation energy                         :        -1.77875296
 
 DOS at Fermi energy (states/Ha/cell)       :         0.00000000
 
 Electron charges :
     core                                   :        16.00000000
     core leakage                           :         0.00340895
     valence                                :        32.00000000
     interstitial                           :        17.96362865
     charge in muffin-tin spheres :
                  atom     1     C          :         3.75471030
                  atom     2     C          :         3.75435728
                  atom     3     C          :         3.75458438
                  atom     4     C          :         3.75446821
                  atom     5     C          :         3.75530004
                  atom     6     C          :         3.75381058
                  atom     7     C          :         3.75238863
                  atom     8     C          :         3.75675193
     total charge in muffin-tins            :        30.03637135
     total charge                           :        48.00000000
 
 Estimated fundamental gap                  :         0.15272569
        valence-band maximum at    1      0.0000  0.0000  0.0000
     conduction-band minimum at  142      0.6250  0.4000  0.6000
 
++++++++++++++++++++++++++++++++++++++++++++++++++++++++++++++++++++++++++++++++
+ Self-consistent loop stopped                                                 +
++++++++++++++++++++++++++++++++++++++++++++++++++++++++++++++++++++++++++++++++
 STATE.OUT is written
 
--------------------------------------------------------------------------------
- Writing atomic positions and forces                                          -
--------------------------------------------------------------------------------
 
 Atomic positions (lattice) :
 atom     1   C  :     0.00000000    0.00000000    0.00000000
 atom     2   C  :     0.50000000    0.00000000    0.50000000
 atom     3   C  :     0.74970379    0.50059242    0.75088863
 atom     4   C  :     0.25029621    0.49940758    0.24911137
 atom     5   C  :     0.56250000    0.87500000    0.81250000
 atom     6   C  :     0.06250000    0.87500000    0.31250000
 atom     7   C  :     0.31250000    0.37500000    0.56250000
 atom     8   C  :     0.81250000    0.37500000    0.06250000
 
 Total atomic forces including IBS (cartesian) :
 atom     1   C  :     0.00000486   -0.00025240    0.00025240
 atom     2   C  :     0.00000664    0.00022229   -0.00022229
 atom     3   C  :     0.00436521   -0.00025587    0.00025587
 atom     4   C  :    -0.00434710    0.00023814   -0.00023814
 atom     5   C  :    -0.00072283   -0.00009897    0.00009897
 atom     6   C  :     0.00068882    0.00010407   -0.00010407
 atom     7   C  :    -0.00087385   -0.00017330    0.00017330
 atom     8   C  :     0.00087825    0.00021605   -0.00021605
 
 Atomic force components including IBS (cartesian) :
 atom     1   C  :    -0.00000026   -0.00020745    0.00020745   HF force
                 :    -0.00001051   -0.00003979    0.00003979   core correction
                 :     0.00001562   -0.00000516    0.00000516   IBS correction
 atom     2   C  :    -0.00008407    0.00018137   -0.00018137   HF force
                 :     0.00007524    0.00004844   -0.00004844   core correction
                 :     0.00001547   -0.00000753    0.00000753   IBS correction
 atom     3   C  :     0.00449152   -0.00031046    0.00031046   HF force
                 :    -0.00008659    0.00005771   -0.00005771   core correction
                 :    -0.00003972   -0.00000312    0.00000312   IBS correction
 atom     4   C  :    -0.00456631    0.00030378   -0.00030378   HF force
                 :     0.00014994   -0.00005450    0.00005450   core correction
                 :     0.00006928   -0.00001114    0.00001114   IBS correction
 atom     5   C  :    -0.00064884   -0.00012908    0.00012908   HF force
                 :    -0.00006586    0.00001834   -0.00001834   core correction
                 :    -0.00000813    0.00001177   -0.00001177   IBS correction
 atom     6   C  :     0.00070142    0.00011822   -0.00011822   HF force
                 :     0.00000727   -0.00001831    0.00001831   core correction
                 :    -0.00001987    0.00000415   -0.00000415   IBS correction
 atom     7   C  :    -0.00111176   -0.00024830    0.00024830   HF force
                 :     0.00023762    0.00006440   -0.00006440   core correction
                 :     0.00000029    0.00001060   -0.00001060   IBS correction
 atom     8   C  :     0.00121831    0.00029192   -0.00029192   HF force
                 :    -0.00030711   -0.00007630    0.00007630   core correction
                 :    -0.00003295    0.00000042   -0.00000042   IBS correction
 
********************************************************************************
* Groundstate module stopped                                                   *
********************************************************************************
 
 Total time spent (seconds)                 :      1834.83
================================================================================
| EXCITING NITROGEN-13 stopped                                                 =
================================================================================
