================================================================================
| EXCITING NITROGEN-13 started                                                 =
| version hash id: de0c1dba9f665d6c60514aa9e8bf40326ac9f394                    =
|                                                                              =
|                                                                              =
| Date (DD-MM-YYYY) : 04-05-2022                                               =
| Time (hh:mm:ss)   : 01:32:45                                                 =
|                                                                              =
| All units are atomic (Hartree, Bohr, etc.)                                   =
================================================================================
 
********************************************************************************
* Ground-state run resuming from STATE.OUT                                     *
********************************************************************************
 
++++++++++++++++++++++++++++++++++++++++++++++++++++++++++++++++++++++++++++++++
+ Starting initialization                                                      +
++++++++++++++++++++++++++++++++++++++++++++++++++++++++++++++++++++++++++++++++
 
 Lattice vectors (cartesian) :
      0.0000000000     -3.3759957000     -3.3759957000
     -6.7519914000     -3.3759957000      3.3759957000
      3.3759957000     -6.7519914000      3.3759957000
 
 Reciprocal lattice vectors (cartesian) :
     -0.2326419324     -0.6979257972     -1.1632096620
     -0.6979257972     -0.2326419324      0.2326419324
      0.4652838648     -0.4652838648      0.4652838648
 
 Unit cell volume                           :     307.8191548003
 Brillouin zone volume                      :       0.8058309874
 
 Species :    1 (C)
     parameters loaded from                 :    C.xml
     name                                   :    carbon
     nuclear charge                         :      -6.00000000
     electronic charge                      :       6.00000000
     atomic mass                            :   21894.16673000
     muffin-tin radius                      :       1.25000000
     # of radial points in muffin-tin       :     250
 
     atomic positions (lattice) :
       1 :   0.00000000  0.00000000  0.00000000
       2 :   0.25014810  0.75044431  0.49970379
       3 :   0.50000000  0.50000000  0.00000000
       4 :   0.74985190  0.24955569  0.50029621
       5 :   0.43750000  0.81250000  0.12500000
       6 :   0.68750000  0.56250000  0.62500000
       7 :   0.93750000  0.31250000  0.12500000
       8 :   0.18750000  0.06250000  0.62500000
 
 Total number of atoms per unit cell        :       8
 
 Spin treatment                             :    spin-unpolarised
 
 Number of Bravais lattice symmetries       :       4
 Number of crystal symmetries               :       2
 
 Sphere radius used for k-point grid density:      33.42065234
 
 k-point grid                               :       8    5    5
 Total number of k-points                   :     200
 k-point set is reduced with crystal symmetries
 
 R^MT_min * |G+k|_max (rgkmax)              :       8.00000000
 Species with R^MT_min                      :       1 (C)
 Maximum |G+k| for APW functions            :       6.40000000
 Maximum |G| for potential and density      :      16.00000000
 
 G-vector grid sizes                        :      25    45    45
 Total number of G-vectors                  :   21191
 
 Maximum angular momentum used for
     APW functions                          :       8
     computing H and O matrix elements      :       8
     potential and density                  :       8
     inner part of muffin-tin               :       2
 
 Total nuclear charge                       :     -48.00000000
 Total electronic charge                    :      48.00000000
 Total core charge                          :      16.00000000
 Total valence charge                       :      32.00000000
 
 Number of empty states                     :      20
 Total number of valence states             :      37
 
 Maximum Hamiltonian size                   :    1408
 Maximum number of plane-waves              :    1376
 Total number of local-orbitals             :      32
 
 Exchange-correlation type                  :      20
     Perdew-Burke-Ernzerhof, Phys. Rev. Lett. 77, 3865 (1996)
     Generalised gradient approximation (GGA)
 
 Smearing scheme                            :    Gaussian
 Smearing width                             :       0.00010000
 
 Using multisecant Broyden potential mixing
 
++++++++++++++++++++++++++++++++++++++++++++++++++++++++++++++++++++++++++++++++
+ Ending initialization                                                        +
++++++++++++++++++++++++++++++++++++++++++++++++++++++++++++++++++++++++++++++++
 
********************************************************************************
* Groundstate module started                                                   *
********************************************************************************
 Output level for this task is set to normal
 
++++++++++++++++++++++++++++++++++++++++++++++++++++++++++++++++++++++++++++++++
+ Self-consistent loop started                                                 +
++++++++++++++++++++++++++++++++++++++++++++++++++++++++++++++++++++++++++++++++
 Potential read in from STATE.OUT
 
 
++++++++++++++++++++++++++++++++++++++++++++++++++++++++++++++++++++++++++++++++
+ SCF iteration number :    1                                                  +
++++++++++++++++++++++++++++++++++++++++++++++++++++++++++++++++++++++++++++++++
 Total energy                               :      -304.79380957
 _______________________________________________________________
 Fermi energy                               :         0.51736122
 Kinetic energy                             :       303.61964695
 Coulomb energy                             :      -564.99831360
 Exchange energy                            :       -41.63639144
 Correlation energy                         :        -1.77875148
 
 DOS at Fermi energy (states/Ha/cell)       :         0.00000000
 
 Electron charges :
     core                                   :        16.00000000
     core leakage                           :         0.00340895
     valence                                :        32.00000000
     interstitial                           :        17.96360850
     charge in muffin-tin spheres :
                  atom     1     C          :         3.75484265
                  atom     2     C          :         3.75441920
                  atom     3     C          :         3.75427253
                  atom     4     C          :         3.75462557
                  atom     5     C          :         3.75650549
                  atom     6     C          :         3.75492487
                  atom     7     C          :         3.75259652
                  atom     8     C          :         3.75420467
     total charge in muffin-tins            :        30.03639150
     total charge                           :        48.00000000
 
 Estimated fundamental gap                  :         0.15273593
        valence-band maximum at    1      0.0000  0.0000  0.0000
     conduction-band minimum at  102      0.6250  0.4000  0.4000
 
 Wall time (seconds)                        :       119.42
 
++++++++++++++++++++++++++++++++++++++++++++++++++++++++++++++++++++++++++++++++
+ SCF iteration number :    2                                                  +
++++++++++++++++++++++++++++++++++++++++++++++++++++++++++++++++++++++++++++++++
 Total energy                               :      -304.79357892
 _______________________________________________________________
 Fermi energy                               :         0.51736076
 Kinetic energy                             :       303.61968867
 Coulomb energy                             :      -564.99813718
 Exchange energy                            :       -41.63637796
 Correlation energy                         :        -1.77875245
 
 DOS at Fermi energy (states/Ha/cell)       :         0.00000000
 
 Electron charges :
     core                                   :        16.00000000
     core leakage                           :         0.00340895
     valence                                :        32.00000000
     interstitial                           :        17.96367087
     charge in muffin-tin spheres :
                  atom     1     C          :         3.75477360
                  atom     2     C          :         3.75439392
                  atom     3     C          :         3.75429514
                  atom     4     C          :         3.75464230
                  atom     5     C          :         3.75426662
                  atom     6     C          :         3.75285140
                  atom     7     C          :         3.75483345
                  atom     8     C          :         3.75627268
     total charge in muffin-tins            :        30.03632913
     total charge                           :        48.00000000
 
 Estimated fundamental gap                  :         0.15273881
        valence-band maximum at    1      0.0000  0.0000  0.0000
     conduction-band minimum at  102      0.6250  0.4000  0.4000
 
 Wall time (seconds)                        :       239.15
 
 RMS change in effective potential (target) :  0.255675E-02  ( 0.100000E-05)
 Absolute change in total energy   (target) :  0.230644E-03  ( 0.100000E-05)
 Charge distance                   (target) :  0.788434E-03  ( 0.100000E-04)
 Abs. change in max-nonIBS-force   (target) :  0.155588E-01  ( 0.500000E-04)
 
++++++++++++++++++++++++++++++++++++++++++++++++++++++++++++++++++++++++++++++++
+ SCF iteration number :    3                                                  +
++++++++++++++++++++++++++++++++++++++++++++++++++++++++++++++++++++++++++++++++
 Total energy                               :      -304.79357683
 _______________________________________________________________
 Fermi energy                               :         0.51736145
 Kinetic energy                             :       303.61973023
 Coulomb energy                             :      -564.99817621
 Exchange energy                            :       -41.63637837
 Correlation energy                         :        -1.77875248
 
 DOS at Fermi energy (states/Ha/cell)       :         0.00000000
 
 Electron charges :
     core                                   :        16.00000000
     core leakage                           :         0.00340895
     valence                                :        32.00000000
     interstitial                           :        17.96366319
     charge in muffin-tin spheres :
                  atom     1     C          :         3.75482889
                  atom     2     C          :         3.75445897
                  atom     3     C          :         3.75423462
                  atom     4     C          :         3.75457910
                  atom     5     C          :         3.75425062
                  atom     6     C          :         3.75285582
                  atom     7     C          :         3.75485672
                  atom     8     C          :         3.75627207
     total charge in muffin-tins            :        30.03633681
     total charge                           :        48.00000000
 
 Estimated fundamental gap                  :         0.15273879
        valence-band maximum at    1      0.0000  0.0000  0.0000
     conduction-band minimum at  148      0.3750  0.6000  0.6000
 
 Wall time (seconds)                        :       359.38
 
 RMS change in effective potential (target) :  0.177603E-02  ( 0.100000E-05)
 Absolute change in total energy   (target) :  0.209277E-05  ( 0.100000E-05)
 Charge distance                   (target) :  0.242549E-03  ( 0.100000E-04)
 Abs. change in max-nonIBS-force   (target) :  0.460709E-02  ( 0.500000E-04)
 
++++++++++++++++++++++++++++++++++++++++++++++++++++++++++++++++++++++++++++++++
+ SCF iteration number :    4                                                  +
++++++++++++++++++++++++++++++++++++++++++++++++++++++++++++++++++++++++++++++++
 Total energy                               :      -304.79361163
 _______________________________________________________________
 Fermi energy                               :         0.51736214
 Kinetic energy                             :       303.61985043
 Coulomb energy                             :      -564.99832093
 Exchange energy                            :       -41.63638935
 Correlation energy                         :        -1.77875178
 
 DOS at Fermi energy (states/Ha/cell)       :         0.00000000
 
 Electron charges :
     core                                   :        16.00000000
     core leakage                           :         0.00340895
     valence                                :        32.00000000
     interstitial                           :        17.96366292
     charge in muffin-tin spheres :
                  atom     1     C          :         3.75343466
                  atom     2     C          :         3.75484103
                  atom     3     C          :         3.75565954
                  atom     4     C          :         3.75418524
                  atom     5     C          :         3.75687493
                  atom     6     C          :         3.75495617
                  atom     7     C          :         3.75220876
                  atom     8     C          :         3.75417674
     total charge in muffin-tins            :        30.03633708
     total charge                           :        48.00000000
 
 Estimated fundamental gap                  :         0.15273576
        valence-band maximum at    1      0.0000  0.0000  0.0000
     conduction-band minimum at  102      0.6250  0.4000  0.4000
 
 Wall time (seconds)                        :       478.00
 
 RMS change in effective potential (target) :  0.165749E-02  ( 0.100000E-05)
 Absolute change in total energy   (target) :  0.348001E-04  ( 0.100000E-05)
 Charge distance                   (target) :  0.551349E-03  ( 0.100000E-04)
 Abs. change in max-nonIBS-force   (target) :  0.254818E-02  ( 0.500000E-04)
 
++++++++++++++++++++++++++++++++++++++++++++++++++++++++++++++++++++++++++++++++
+ SCF iteration number :    5                                                  +
++++++++++++++++++++++++++++++++++++++++++++++++++++++++++++++++++++++++++++++++
 Total energy                               :      -304.79361656
 _______________________________________________________________
 Fermi energy                               :         0.51736077
 Kinetic energy                             :       303.61972410
 Coulomb energy                             :      -564.99820870
 Exchange energy                            :       -41.63637949
 Correlation energy                         :        -1.77875247
 
 DOS at Fermi energy (states/Ha/cell)       :         0.00000000
 
 Electron charges :
     core                                   :        16.00000000
     core leakage                           :         0.00340895
     valence                                :        32.00000000
     interstitial                           :        17.96365451
     charge in muffin-tin spheres :
                  atom     1     C          :         3.75520630
                  atom     2     C          :         3.75438793
                  atom     3     C          :         3.75386817
                  atom     4     C          :         3.75466162
                  atom     5     C          :         3.75519891
                  atom     6     C          :         3.75385830
                  atom     7     C          :         3.75390175
                  atom     8     C          :         3.75526252
     total charge in muffin-tins            :        30.03634549
     total charge                           :        48.00000000
 
 Estimated fundamental gap                  :         0.15273760
        valence-band maximum at    1      0.0000  0.0000  0.0000
     conduction-band minimum at  102      0.6250  0.4000  0.4000
 
 Wall time (seconds)                        :       595.70
 
 RMS change in effective potential (target) :  0.497785E-03  ( 0.100000E-05)
 Absolute change in total energy   (target) :  0.492656E-05  ( 0.100000E-05)
 Charge distance                   (target) :  0.488961E-03  ( 0.100000E-04)
 Abs. change in max-nonIBS-force   (target) :  0.426456E-02  ( 0.500000E-04)
 
++++++++++++++++++++++++++++++++++++++++++++++++++++++++++++++++++++++++++++++++
+ SCF iteration number :    6                                                  +
++++++++++++++++++++++++++++++++++++++++++++++++++++++++++++++++++++++++++++++++
 Total energy                               :      -304.79363603
 _______________________________________________________________
 Fermi energy                               :         0.51736069
 Kinetic energy                             :       303.61971896
 Coulomb energy                             :      -564.99822185
 Exchange energy                            :       -41.63638074
 Correlation energy                         :        -1.77875241
 
 DOS at Fermi energy (states/Ha/cell)       :         0.00000000
 
 Electron charges :
     core                                   :        16.00000000
     core leakage                           :         0.00340895
     valence                                :        32.00000000
     interstitial                           :        17.96365238
     charge in muffin-tin spheres :
                  atom     1     C          :         3.75452904
                  atom     2     C          :         3.75461976
                  atom     3     C          :         3.75453756
                  atom     4     C          :         3.75441514
                  atom     5     C          :         3.75506393
                  atom     6     C          :         3.75360302
                  atom     7     C          :         3.75404596
                  atom     8     C          :         3.75553321
     total charge in muffin-tins            :        30.03634762
     total charge                           :        48.00000000
 
 Estimated fundamental gap                  :         0.15273769
        valence-band maximum at    1      0.0000  0.0000  0.0000
     conduction-band minimum at  148      0.3750  0.6000  0.6000
 
 Wall time (seconds)                        :       712.98
 
 RMS change in effective potential (target) :  0.256233E-03  ( 0.100000E-05)
 Absolute change in total energy   (target) :  0.194781E-04  ( 0.100000E-05)
 Charge distance                   (target) :  0.865071E-04  ( 0.100000E-04)
 Abs. change in max-nonIBS-force   (target) :  0.442602E-03  ( 0.500000E-04)
 
++++++++++++++++++++++++++++++++++++++++++++++++++++++++++++++++++++++++++++++++
+ SCF iteration number :    7                                                  +
++++++++++++++++++++++++++++++++++++++++++++++++++++++++++++++++++++++++++++++++
 Total energy                               :      -304.79362130
 _______________________________________________________________
 Fermi energy                               :         0.51736107
 Kinetic energy                             :       303.61973566
 Coulomb energy                             :      -564.99822382
 Exchange energy                            :       -41.63638073
 Correlation energy                         :        -1.77875241
 
 DOS at Fermi energy (states/Ha/cell)       :         0.00000000
 
 Electron charges :
     core                                   :        16.00000000
     core leakage                           :         0.00340895
     valence                                :        32.00000000
     interstitial                           :        17.96365239
     charge in muffin-tin spheres :
                  atom     1     C          :         3.75467448
                  atom     2     C          :         3.75456537
                  atom     3     C          :         3.75439423
                  atom     4     C          :         3.75447555
                  atom     5     C          :         3.75508454
                  atom     6     C          :         3.75359582
                  atom     7     C          :         3.75402311
                  atom     8     C          :         3.75553449
     total charge in muffin-tins            :        30.03634761
     total charge                           :        48.00000000
 
 Estimated fundamental gap                  :         0.15273769
        valence-band maximum at    1      0.0000  0.0000  0.0000
     conduction-band minimum at  148      0.3750  0.6000  0.6000
 
 Wall time (seconds)                        :       833.27
 
 RMS change in effective potential (target) :  0.177660E-03  ( 0.100000E-05)
 Absolute change in total energy   (target) :  0.147352E-04  ( 0.100000E-05)
 Charge distance                   (target) :  0.345765E-04  ( 0.100000E-04)
 Abs. change in max-nonIBS-force   (target) :  0.146116E-02  ( 0.500000E-04)
 
++++++++++++++++++++++++++++++++++++++++++++++++++++++++++++++++++++++++++++++++
+ SCF iteration number :    8                                                  +
++++++++++++++++++++++++++++++++++++++++++++++++++++++++++++++++++++++++++++++++
 Total energy                               :      -304.79359534
 _______________________________________________________________
 Fermi energy                               :         0.51736144
 Kinetic energy                             :       303.61975622
 Coulomb energy                             :      -564.99821903
 Exchange energy                            :       -41.63638008
 Correlation energy                         :        -1.77875245
 
 DOS at Fermi energy (states/Ha/cell)       :         0.00000000
 
 Electron charges :
     core                                   :        16.00000000
     core leakage                           :         0.00340895
     valence                                :        32.00000000
     interstitial                           :        17.96365346
     charge in muffin-tin spheres :
                  atom     1     C          :         3.75465384
                  atom     2     C          :         3.75453493
                  atom     3     C          :         3.75441546
                  atom     4     C          :         3.75450077
                  atom     5     C          :         3.75498364
                  atom     6     C          :         3.75361066
                  atom     7     C          :         3.75412345
                  atom     8     C          :         3.75552378
     total charge in muffin-tins            :        30.03634654
     total charge                           :        48.00000000
 
 Estimated fundamental gap                  :         0.15273757
        valence-band maximum at    1      0.0000  0.0000  0.0000
     conduction-band minimum at  102      0.6250  0.4000  0.4000
 
 Wall time (seconds)                        :       951.84
 
 RMS change in effective potential (target) :  0.120623E-03  ( 0.100000E-05)
 Absolute change in total energy   (target) :  0.259547E-04  ( 0.100000E-05)
 Charge distance                   (target) :  0.240936E-04  ( 0.100000E-04)
 Abs. change in max-nonIBS-force   (target) :  0.496920E-03  ( 0.500000E-04)
 
++++++++++++++++++++++++++++++++++++++++++++++++++++++++++++++++++++++++++++++++
+ SCF iteration number :    9                                                  +
++++++++++++++++++++++++++++++++++++++++++++++++++++++++++++++++++++++++++++++++
 Total energy                               :      -304.79356937
 _______________________________________________________________
 Fermi energy                               :         0.51736191
 Kinetic energy                             :       303.61977756
 Coulomb energy                             :      -564.99821490
 Exchange energy                            :       -41.63637953
 Correlation energy                         :        -1.77875250
 
 DOS at Fermi energy (states/Ha/cell)       :         0.00000000
 
 Electron charges :
     core                                   :        16.00000000
     core leakage                           :         0.00340895
     valence                                :        32.00000000
     interstitial                           :        17.96365436
     charge in muffin-tin spheres :
                  atom     1     C          :         3.75464615
                  atom     2     C          :         3.75455448
                  atom     3     C          :         3.75442150
                  atom     4     C          :         3.75448446
                  atom     5     C          :         3.75495137
                  atom     6     C          :         3.75350765
                  atom     7     C          :         3.75415660
                  atom     8     C          :         3.75562344
     total charge in muffin-tins            :        30.03634564
     total charge                           :        48.00000000
 
 Estimated fundamental gap                  :         0.15273755
        valence-band maximum at    1      0.0000  0.0000  0.0000
     conduction-band minimum at  148      0.3750  0.6000  0.6000
 
 Wall time (seconds)                        :      1072.10
 
 RMS change in effective potential (target) :  0.386252E-04  ( 0.100000E-05)
 Absolute change in total energy   (target) :  0.259743E-04  ( 0.100000E-05)
 Charge distance                   (target) :  0.281058E-04  ( 0.100000E-04)
 Abs. change in max-nonIBS-force   (target) :  0.316220E-03  ( 0.500000E-04)
 
++++++++++++++++++++++++++++++++++++++++++++++++++++++++++++++++++++++++++++++++
+ SCF iteration number :   10                                                  +
++++++++++++++++++++++++++++++++++++++++++++++++++++++++++++++++++++++++++++++++
 Total energy                               :      -304.79356287
 _______________________________________________________________
 Fermi energy                               :         0.51736208
 Kinetic energy                             :       303.61978493
 Coulomb energy                             :      -564.99821573
 Exchange energy                            :       -41.63637957
 Correlation energy                         :        -1.77875250
 
 DOS at Fermi energy (states/Ha/cell)       :         0.00000000
 
 Electron charges :
     core                                   :        16.00000000
     core leakage                           :         0.00340895
     valence                                :        32.00000000
     interstitial                           :        17.96365429
     charge in muffin-tin spheres :
                  atom     1     C          :         3.75463155
                  atom     2     C          :         3.75453711
                  atom     3     C          :         3.75443713
                  atom     4     C          :         3.75450132
                  atom     5     C          :         3.75493006
                  atom     6     C          :         3.75347713
                  atom     7     C          :         3.75417673
                  atom     8     C          :         3.75565469
     total charge in muffin-tins            :        30.03634571
     total charge                           :        48.00000000
 
 Estimated fundamental gap                  :         0.15273756
        valence-band maximum at    1      0.0000  0.0000  0.0000
     conduction-band minimum at  102      0.6250  0.4000  0.4000
 
 Wall time (seconds)                        :      1191.46
 
 RMS change in effective potential (target) :  0.842903E-05  ( 0.100000E-05)
 Absolute change in total energy   (target) :  0.649821E-05  ( 0.100000E-05)
 Charge distance                   (target) :  0.113438E-04  ( 0.100000E-04)
 Abs. change in max-nonIBS-force   (target) :  0.163392E-03  ( 0.500000E-04)
 
++++++++++++++++++++++++++++++++++++++++++++++++++++++++++++++++++++++++++++++++
+ SCF iteration number :   11                                                  +
++++++++++++++++++++++++++++++++++++++++++++++++++++++++++++++++++++++++++++++++
 Total energy                               :      -304.79356184
 _______________________________________________________________
 Fermi energy                               :         0.51736210
 Kinetic energy                             :       303.61978595
 Coulomb energy                             :      -564.99821572
 Exchange energy                            :       -41.63637957
 Correlation energy                         :        -1.77875250
 
 DOS at Fermi energy (states/Ha/cell)       :         0.00000000
 
 Electron charges :
     core                                   :        16.00000000
     core leakage                           :         0.00340895
     valence                                :        32.00000000
     interstitial                           :        17.96365430
     charge in muffin-tin spheres :
                  atom     1     C          :         3.75463267
                  atom     2     C          :         3.75455206
                  atom     3     C          :         3.75443478
                  atom     4     C          :         3.75448707
                  atom     5     C          :         3.75492346
                  atom     6     C          :         3.75347215
                  atom     7     C          :         3.75418467
                  atom     8     C          :         3.75565884
     total charge in muffin-tins            :        30.03634570
     total charge                           :        48.00000000
 
 Estimated fundamental gap                  :         0.15273756
        valence-band maximum at    1      0.0000  0.0000  0.0000
     conduction-band minimum at  148      0.3750  0.6000  0.6000
 
 Wall time (seconds)                        :      1312.37
 
 RMS change in effective potential (target) :  0.260319E-05  ( 0.100000E-05)
 Absolute change in total energy   (target) :  0.103115E-05  ( 0.100000E-05)
 Charge distance                   (target) :  0.289566E-05  ( 0.100000E-04)
 Abs. change in max-nonIBS-force   (target) :  0.594916E-05  ( 0.500000E-04)
 
++++++++++++++++++++++++++++++++++++++++++++++++++++++++++++++++++++++++++++++++
+ SCF iteration number :   12                                                  +
++++++++++++++++++++++++++++++++++++++++++++++++++++++++++++++++++++++++++++++++
 Total energy                               :      -304.79356134
 _______________________________________________________________
 Fermi energy                               :         0.51736210
 Kinetic energy                             :       303.61978614
 Coulomb energy                             :      -564.99821545
 Exchange energy                            :       -41.63637954
 Correlation energy                         :        -1.77875250
 
 DOS at Fermi energy (states/Ha/cell)       :         0.00000000
 
 Electron charges :
     core                                   :        16.00000000
     core leakage                           :         0.00340895
     valence                                :        32.00000000
     interstitial                           :        17.96365435
     charge in muffin-tin spheres :
                  atom     1     C          :         3.75463065
                  atom     2     C          :         3.75454801
                  atom     3     C          :         3.75443735
                  atom     4     C          :         3.75449063
                  atom     5     C          :         3.75492393
                  atom     6     C          :         3.75347396
                  atom     7     C          :         3.75418360
                  atom     8     C          :         3.75565751
     total charge in muffin-tins            :        30.03634565
     total charge                           :        48.00000000
 
 Estimated fundamental gap                  :         0.15273756
        valence-band maximum at    1      0.0000  0.0000  0.0000
     conduction-band minimum at  102      0.6250  0.4000  0.4000
 
 Wall time (seconds)                        :      1433.14
 
 RMS change in effective potential (target) :  0.700107E-06  ( 0.100000E-05)
 Absolute change in total energy   (target) :  0.498422E-06  ( 0.100000E-05)
 Charge distance                   (target) :  0.763046E-06  ( 0.100000E-04)
 Abs. change in max-nonIBS-force   (target) :  0.170320E-06  ( 0.500000E-04)
 
++++++++++++++++++++++++++++++++++++++++++++++++++++++++++++++++++++++++++++++++
+ SCF iteration number :   13                                                  +
++++++++++++++++++++++++++++++++++++++++++++++++++++++++++++++++++++++++++++++++
 Total energy                               :      -304.79356133
 _______________________________________________________________
 Fermi energy                               :         0.51736210
 Kinetic energy                             :       303.61978616
 Coulomb energy                             :      -564.99821545
 Exchange energy                            :       -41.63637954
 Correlation energy                         :        -1.77875250
 
 DOS at Fermi energy (states/Ha/cell)       :         0.00000000
 
 Electron charges :
     core                                   :        16.00000000
     core leakage                           :         0.00340895
     valence                                :        32.00000000
     interstitial                           :        17.96365435
     charge in muffin-tin spheres :
                  atom     1     C          :         3.75463064
                  atom     2     C          :         3.75454812
                  atom     3     C          :         3.75443708
                  atom     4     C          :         3.75449074
                  atom     5     C          :         3.75492405
                  atom     6     C          :         3.75347443
                  atom     7     C          :         3.75418378
                  atom     8     C          :         3.75565682
     total charge in muffin-tins            :        30.03634565
     total charge                           :        48.00000000
 
 Estimated fundamental gap                  :         0.15273756
        valence-band maximum at    1      0.0000  0.0000  0.0000
     conduction-band minimum at  148      0.3750  0.6000  0.6000
 
 Wall time (seconds)                        :      1553.50
 
 RMS change in effective potential (target) :  0.250229E-06  ( 0.100000E-05)
 Absolute change in total energy   (target) :  0.141895E-07  ( 0.100000E-05)
 Charge distance                   (target) :  0.352369E-06  ( 0.100000E-04)
 Abs. change in max-nonIBS-force   (target) :  0.566709E-05  ( 0.500000E-04)
                                                                                
++++++++++++++++++++++++++++++++++++++++++++++++++++++++++++++++++++++++++++++++
| Convergency criteria checked for the last 2 iterations                       +
| Convergence targets achieved. Performing final SCF iteration                 +
++++++++++++++++++++++++++++++++++++++++++++++++++++++++++++++++++++++++++++++++
 Total energy                               :      -304.79356136
 _______________________________________________________________
 Fermi energy                               :         0.51736210
 Kinetic energy                             :       303.61978614
 Coulomb energy                             :      -564.99821546
 Exchange energy                            :       -41.63637954
 Correlation energy                         :        -1.77875250
 
 DOS at Fermi energy (states/Ha/cell)       :         0.00000000
 
 Electron charges :
     core                                   :        16.00000000
     core leakage                           :         0.00340895
     valence                                :        32.00000000
     interstitial                           :        17.96365435
     charge in muffin-tin spheres :
                  atom     1     C          :         3.75463092
                  atom     2     C          :         3.75454822
                  atom     3     C          :         3.75443706
                  atom     4     C          :         3.75449042
                  atom     5     C          :         3.75492407
                  atom     6     C          :         3.75347430
                  atom     7     C          :         3.75418349
                  atom     8     C          :         3.75565717
     total charge in muffin-tins            :        30.03634565
     total charge                           :        48.00000000
 
 Estimated fundamental gap                  :         0.15273756
        valence-band maximum at    1      0.0000  0.0000  0.0000
     conduction-band minimum at  102      0.6250  0.4000  0.4000
 
++++++++++++++++++++++++++++++++++++++++++++++++++++++++++++++++++++++++++++++++
+ Self-consistent loop stopped                                                 +
++++++++++++++++++++++++++++++++++++++++++++++++++++++++++++++++++++++++++++++++
 STATE.OUT is written
 
--------------------------------------------------------------------------------
- Writing atomic positions and forces                                          -
--------------------------------------------------------------------------------
 
 Atomic positions (lattice) :
 atom     1   C  :     0.00000000    0.00000000    0.00000000
 atom     2   C  :     0.25014810    0.75044431    0.49970379
 atom     3   C  :     0.50000000    0.50000000    0.00000000
 atom     4   C  :     0.74985190    0.24955569    0.50029621
 atom     5   C  :     0.43750000    0.81250000    0.12500000
 atom     6   C  :     0.68750000    0.56250000    0.62500000
 atom     7   C  :     0.93750000    0.31250000    0.12500000
 atom     8   C  :     0.18750000    0.06250000    0.62500000
 
 Total atomic forces including IBS (cartesian) :
 atom     1   C  :     0.00000437    0.00011227   -0.00011227
 atom     2   C  :     0.00218935    0.00011158   -0.00011158
 atom     3   C  :     0.00000617   -0.00012416    0.00012416
 atom     4   C  :    -0.00216973   -0.00013556    0.00013556
 atom     5   C  :    -0.00037254    0.00006495   -0.00006495
 atom     6   C  :    -0.00044508    0.00010026   -0.00010026
 atom     7   C  :     0.00034390   -0.00003236    0.00003236
 atom     8   C  :     0.00044356   -0.00009696    0.00009696
 
 Atomic force components including IBS (cartesian) :
 atom     1   C  :    -0.00002357    0.00009733   -0.00009733   HF force
                 :     0.00001187    0.00002269   -0.00002269   core correction
                 :     0.00001606   -0.00000775    0.00000775   IBS correction
 atom     2   C  :     0.00223227    0.00014857   -0.00014857   HF force
                 :    -0.00002960   -0.00002715    0.00002715   core correction
                 :    -0.00001331   -0.00000984    0.00000984   IBS correction
 atom     3   C  :    -0.00006170   -0.00009530    0.00009530   HF force
                 :     0.00005288   -0.00002205    0.00002205   core correction
                 :     0.00001499   -0.00000681    0.00000681   IBS correction
 atom     4   C  :    -0.00230426   -0.00016429    0.00016429   HF force
                 :     0.00009185    0.00003188   -0.00003188   core correction
                 :     0.00004268   -0.00000315    0.00000315   IBS correction
 atom     5   C  :    -0.00031309    0.00007399   -0.00007399   HF force
                 :    -0.00004832   -0.00001301    0.00001301   core correction
                 :    -0.00001113    0.00000397   -0.00000397   IBS correction
 atom     6   C  :    -0.00054496    0.00012664   -0.00012664   HF force
                 :     0.00010615   -0.00003281    0.00003281   core correction
                 :    -0.00000627    0.00000643   -0.00000643   IBS correction
 atom     7   C  :     0.00037113   -0.00004483    0.00004483   HF force
                 :    -0.00001049    0.00000509   -0.00000509   core correction
                 :    -0.00001674    0.00000737   -0.00000737   IBS correction
 atom     8   C  :     0.00064417   -0.00014210    0.00014210   HF force
                 :    -0.00017433    0.00003537   -0.00003537   core correction
                 :    -0.00002628    0.00000977   -0.00000977   IBS correction
 
********************************************************************************
* Groundstate module stopped                                                   *
********************************************************************************
 
 Total time spent (seconds)                 :      1863.40
================================================================================
| EXCITING NITROGEN-13 stopped                                                 =
================================================================================
