    -304.792958232    
    -304.792938345    
    -304.793126339    
    -304.793533289    
    -304.793664688    
    -304.793632917    
    -304.793601756    
    -304.793535610    
    -304.793529905    
    -304.793530028    
    -304.793529738    
    -304.793529711    
    -304.793529724    
 
