================================================================================
| EXCITING NITROGEN-13 started                                                 =
| version hash id: de0c1dba9f665d6c60514aa9e8bf40326ac9f394                    =
|                                                                              =
|                                                                              =
| Date (DD-MM-YYYY) : 04-05-2022                                               =
| Time (hh:mm:ss)   : 10:23:57                                                 =
|                                                                              =
| All units are atomic (Hartree, Bohr, etc.)                                   =
================================================================================
 
********************************************************************************
* Ground-state run resuming from STATE.OUT                                     *
********************************************************************************
 
++++++++++++++++++++++++++++++++++++++++++++++++++++++++++++++++++++++++++++++++
+ Starting initialization                                                      +
++++++++++++++++++++++++++++++++++++++++++++++++++++++++++++++++++++++++++++++++
 
 Lattice vectors (cartesian) :
     -3.3759957000      0.0000000000      3.3759957000
      0.0000000000     -3.3759957000      3.3759957000
    -10.1279871000    -10.1279871000     -6.7519914000
 
 Reciprocal lattice vectors (cartesian) :
     -1.1632096620      0.6979257972      0.6979257972
      0.6979257972     -1.1632096620      0.6979257972
     -0.2326419324     -0.2326419324     -0.2326419324
 
 Unit cell volume                           :     307.8191548003
 Brillouin zone volume                      :       0.8058309874
 
 Species :    1 (C)
     parameters loaded from                 :    C.xml
     name                                   :    carbon
     nuclear charge                         :      -6.00000000
     electronic charge                      :       6.00000000
     atomic mass                            :   21894.16673000
     muffin-tin radius                      :       1.25000000
     # of radial points in muffin-tin       :     250
 
     atomic positions (lattice) :
       1 :   0.00000000  0.00000000  0.00000000
       2 :   0.74851896  0.75088863  0.74970379
       3 :   0.50000000  0.50000000  0.50000000
       4 :   0.25148104  0.24911137  0.25029621
       5 :   0.06250000  0.06250000  0.81250000
       6 :   0.81250000  0.81250000  0.56250000
       7 :   0.56250000  0.56250000  0.31250000
       8 :   0.31250000  0.31250000  0.06250000
 
 Total number of atoms per unit cell        :       8
 
 Spin treatment                             :    spin-unpolarised
 
 Number of Bravais lattice symmetries       :      12
 Number of crystal symmetries               :       2
 
 Sphere radius used for k-point grid density:      33.42065234
 
 k-point grid                               :       8    8    3
 Total number of k-points                   :     192
 k-point set is reduced with crystal symmetries
 
 R^MT_min * |G+k|_max (rgkmax)              :       8.00000000
 Species with R^MT_min                      :       1 (C)
 Maximum |G+k| for APW functions            :       6.40000000
 Maximum |G| for potential and density      :      16.00000000
 
 G-vector grid sizes                        :      25    25    81
 Total number of G-vectors                  :   21163
 
 Maximum angular momentum used for
     APW functions                          :       8
     computing H and O matrix elements      :       8
     potential and density                  :       8
     inner part of muffin-tin               :       2
 
 Total nuclear charge                       :     -48.00000000
 Total electronic charge                    :      48.00000000
 Total core charge                          :      16.00000000
 Total valence charge                       :      32.00000000
 
 Number of empty states                     :      20
 Total number of valence states             :      37
 
 Maximum Hamiltonian size                   :    1423
 Maximum number of plane-waves              :    1391
 Total number of local-orbitals             :      32
 
 Exchange-correlation type                  :      20
     Perdew-Burke-Ernzerhof, Phys. Rev. Lett. 77, 3865 (1996)
     Generalised gradient approximation (GGA)
 
 Smearing scheme                            :    Gaussian
 Smearing width                             :       0.00010000
 
 Using multisecant Broyden potential mixing
 
++++++++++++++++++++++++++++++++++++++++++++++++++++++++++++++++++++++++++++++++
+ Ending initialization                                                        +
++++++++++++++++++++++++++++++++++++++++++++++++++++++++++++++++++++++++++++++++
 
********************************************************************************
* Groundstate module started                                                   *
********************************************************************************
 Output level for this task is set to normal
 
++++++++++++++++++++++++++++++++++++++++++++++++++++++++++++++++++++++++++++++++
+ Self-consistent loop started                                                 +
++++++++++++++++++++++++++++++++++++++++++++++++++++++++++++++++++++++++++++++++
 Potential read in from STATE.OUT
 
 
++++++++++++++++++++++++++++++++++++++++++++++++++++++++++++++++++++++++++++++++
+ SCF iteration number :    1                                                  +
++++++++++++++++++++++++++++++++++++++++++++++++++++++++++++++++++++++++++++++++
 Total energy                               :      -304.79351512
 _______________________________________________________________
 Fermi energy                               :         0.51748773
 Kinetic energy                             :       303.61992329
 Coulomb energy                             :      -564.99826377
 Exchange energy                            :       -41.63642572
 Correlation energy                         :        -1.77874892
 
 DOS at Fermi energy (states/Ha/cell)       :         0.00000000
 
 Electron charges :
     core                                   :        16.00000000
     core leakage                           :         0.00340896
     valence                                :        32.00000000
     interstitial                           :        17.96349618
     charge in muffin-tin spheres :
                  atom     1     C          :         3.75431410
                  atom     2     C          :         3.75463985
                  atom     3     C          :         3.75477737
                  atom     4     C          :         3.75444646
                  atom     5     C          :         3.75421134
                  atom     6     C          :         3.75505154
                  atom     7     C          :         3.75496133
                  atom     8     C          :         3.75410183
     total charge in muffin-tins            :        30.03650382
     total charge                           :        48.00000000
 
 Estimated fundamental gap                  :         0.15290946
        valence-band maximum at    1      0.0000  0.0000  0.0000
     conduction-band minimum at  174      0.6250  0.6250  0.6667
 
 Wall time (seconds)                        :       116.42
 
++++++++++++++++++++++++++++++++++++++++++++++++++++++++++++++++++++++++++++++++
+ SCF iteration number :    2                                                  +
++++++++++++++++++++++++++++++++++++++++++++++++++++++++++++++++++++++++++++++++
 Total energy                               :      -304.79346724
 _______________________________________________________________
 Fermi energy                               :         0.51748676
 Kinetic energy                             :       303.61994569
 Coulomb energy                             :      -564.99824111
 Exchange energy                            :       -41.63642267
 Correlation energy                         :        -1.77874915
 
 DOS at Fermi energy (states/Ha/cell)       :         0.00000000
 
 Electron charges :
     core                                   :        16.00000000
     core leakage                           :         0.00340896
     valence                                :        32.00000000
     interstitial                           :        17.96350843
     charge in muffin-tin spheres :
                  atom     1     C          :         3.75427856
                  atom     2     C          :         3.75461098
                  atom     3     C          :         3.75481490
                  atom     4     C          :         3.75446998
                  atom     5     C          :         3.75363227
                  atom     6     C          :         3.75554365
                  atom     7     C          :         3.75553487
                  atom     8     C          :         3.75360636
     total charge in muffin-tins            :        30.03649157
     total charge                           :        48.00000000
 
 Estimated fundamental gap                  :         0.15291062
        valence-band maximum at    1      0.0000  0.0000  0.0000
     conduction-band minimum at  174      0.6250  0.6250  0.6667
 
 Wall time (seconds)                        :       231.03
 
 RMS change in effective potential (target) :  0.111433E-02  ( 0.100000E-05)
 Absolute change in total energy   (target) :  0.478723E-04  ( 0.100000E-05)
 Charge distance                   (target) :  0.256253E-03  ( 0.100000E-04)
 Abs. change in max-nonIBS-force   (target) :  0.102506E-01  ( 0.500000E-04)
 
++++++++++++++++++++++++++++++++++++++++++++++++++++++++++++++++++++++++++++++++
+ SCF iteration number :    3                                                  +
++++++++++++++++++++++++++++++++++++++++++++++++++++++++++++++++++++++++++++++++
 Total energy                               :      -304.79347995
 _______________________________________________________________
 Fermi energy                               :         0.51748794
 Kinetic energy                             :       303.61994267
 Coulomb energy                             :      -564.99825040
 Exchange energy                            :       -41.63642303
 Correlation energy                         :        -1.77874919
 
 DOS at Fermi energy (states/Ha/cell)       :         0.00000000
 
 Electron charges :
     core                                   :        16.00000000
     core leakage                           :         0.00340896
     valence                                :        32.00000000
     interstitial                           :        17.96350494
     charge in muffin-tin spheres :
                  atom     1     C          :         3.75432185
                  atom     2     C          :         3.75464428
                  atom     3     C          :         3.75477176
                  atom     4     C          :         3.75443466
                  atom     5     C          :         3.75370927
                  atom     6     C          :         3.75552325
                  atom     7     C          :         3.75546134
                  atom     8     C          :         3.75362865
     total charge in muffin-tins            :        30.03649506
     total charge                           :        48.00000000
 
 Estimated fundamental gap                  :         0.15290833
        valence-band maximum at    1      0.0000  0.0000  0.0000
     conduction-band minimum at   92      0.3750  0.3750  0.3333
 
 Wall time (seconds)                        :       345.07
 
 RMS change in effective potential (target) :  0.788629E-03  ( 0.100000E-05)
 Absolute change in total energy   (target) :  0.127026E-04  ( 0.100000E-05)
 Charge distance                   (target) :  0.805847E-04  ( 0.100000E-04)
 Abs. change in max-nonIBS-force   (target) :  0.296888E-02  ( 0.500000E-04)
 
++++++++++++++++++++++++++++++++++++++++++++++++++++++++++++++++++++++++++++++++
+ SCF iteration number :    4                                                  +
++++++++++++++++++++++++++++++++++++++++++++++++++++++++++++++++++++++++++++++++
 Total energy                               :      -304.79350963
 _______________________________________________________________
 Fermi energy                               :         0.51749831
 Kinetic energy                             :       303.62000918
 Coulomb energy                             :      -564.99834024
 Exchange energy                            :       -41.63642995
 Correlation energy                         :        -1.77874861
 
 DOS at Fermi energy (states/Ha/cell)       :         0.00000000
 
 Electron charges :
     core                                   :        16.00000000
     core leakage                           :         0.00340897
     valence                                :        32.00000000
     interstitial                           :        17.96350276
     charge in muffin-tin spheres :
                  atom     1     C          :         3.75465985
                  atom     2     C          :         3.75399592
                  atom     3     C          :         3.75442717
                  atom     4     C          :         3.75507684
                  atom     5     C          :         3.75406011
                  atom     6     C          :         3.75457270
                  atom     7     C          :         3.75512251
                  atom     8     C          :         3.75458213
     total charge in muffin-tins            :        30.03649724
     total charge                           :        48.00000000
 
 Estimated fundamental gap                  :         0.15288057
        valence-band maximum at    1      0.0000  0.0000  0.0000
     conduction-band minimum at  174      0.6250  0.6250  0.6667
 
 Wall time (seconds)                        :       462.67
 
 RMS change in effective potential (target) :  0.146439E-02  ( 0.100000E-05)
 Absolute change in total energy   (target) :  0.296787E-04  ( 0.100000E-05)
 Charge distance                   (target) :  0.254211E-03  ( 0.100000E-04)
 Abs. change in max-nonIBS-force   (target) :  0.194635E-03  ( 0.500000E-04)
 
++++++++++++++++++++++++++++++++++++++++++++++++++++++++++++++++++++++++++++++++
+ SCF iteration number :    5                                                  +
++++++++++++++++++++++++++++++++++++++++++++++++++++++++++++++++++++++++++++++++
 Total energy                               :      -304.79349188
 _______________________________________________________________
 Fermi energy                               :         0.51749035
 Kinetic energy                             :       303.61993362
 Coulomb energy                             :      -564.99825328
 Exchange energy                            :       -41.63642301
 Correlation energy                         :        -1.77874920
 
 DOS at Fermi energy (states/Ha/cell)       :         0.00000000
 
 Electron charges :
     core                                   :        16.00000000
     core leakage                           :         0.00340897
     valence                                :        32.00000000
     interstitial                           :        17.96349950
     charge in muffin-tin spheres :
                  atom     1     C          :         3.75436712
                  atom     2     C          :         3.75467149
                  atom     3     C          :         3.75472644
                  atom     4     C          :         3.75441186
                  atom     5     C          :         3.75402325
                  atom     6     C          :         3.75529359
                  atom     7     C          :         3.75515051
                  atom     8     C          :         3.75385624
     total charge in muffin-tins            :        30.03650050
     total charge                           :        48.00000000
 
 Estimated fundamental gap                  :         0.15290186
        valence-band maximum at    1      0.0000  0.0000  0.0000
     conduction-band minimum at  174      0.6250  0.6250  0.6667
 
 Wall time (seconds)                        :       576.89
 
 RMS change in effective potential (target) :  0.219055E-03  ( 0.100000E-05)
 Absolute change in total energy   (target) :  0.177503E-04  ( 0.100000E-05)
 Charge distance                   (target) :  0.189915E-03  ( 0.100000E-04)
 Abs. change in max-nonIBS-force   (target) :  0.463635E-02  ( 0.500000E-04)
 
++++++++++++++++++++++++++++++++++++++++++++++++++++++++++++++++++++++++++++++++
+ SCF iteration number :    6                                                  +
++++++++++++++++++++++++++++++++++++++++++++++++++++++++++++++++++++++++++++++++
 Total energy                               :      -304.79351317
 _______________________________________________________________
 Fermi energy                               :         0.51749181
 Kinetic energy                             :       303.61992062
 Coulomb energy                             :      -564.99826079
 Exchange energy                            :       -41.63642382
 Correlation energy                         :        -1.77874917
 
 DOS at Fermi energy (states/Ha/cell)       :         0.00000000
 
 Electron charges :
     core                                   :        16.00000000
     core leakage                           :         0.00340897
     valence                                :        32.00000000
     interstitial                           :        17.96349813
     charge in muffin-tin spheres :
                  atom     1     C          :         3.75441201
                  atom     2     C          :         3.75460804
                  atom     3     C          :         3.75468115
                  atom     4     C          :         3.75446682
                  atom     5     C          :         3.75390140
                  atom     6     C          :         3.75532619
                  atom     7     C          :         3.75527735
                  atom     8     C          :         3.75382890
     total charge in muffin-tins            :        30.03650187
     total charge                           :        48.00000000
 
 Estimated fundamental gap                  :         0.15289895
        valence-band maximum at    1      0.0000  0.0000  0.0000
     conduction-band minimum at   92      0.3750  0.3750  0.3333
 
 Wall time (seconds)                        :       690.13
 
 RMS change in effective potential (target) :  0.874405E-04  ( 0.100000E-05)
 Absolute change in total energy   (target) :  0.212939E-04  ( 0.100000E-05)
 Charge distance                   (target) :  0.255794E-04  ( 0.100000E-04)
 Abs. change in max-nonIBS-force   (target) :  0.386791E-05  ( 0.500000E-04)
 
++++++++++++++++++++++++++++++++++++++++++++++++++++++++++++++++++++++++++++++++
+ SCF iteration number :    7                                                  +
++++++++++++++++++++++++++++++++++++++++++++++++++++++++++++++++++++++++++++++++
 Total energy                               :      -304.79350746
 _______________________________________________________________
 Fermi energy                               :         0.51749161
 Kinetic energy                             :       303.61992698
 Coulomb energy                             :      -564.99826146
 Exchange energy                            :       -41.63642381
 Correlation energy                         :        -1.77874917
 
 DOS at Fermi energy (states/Ha/cell)       :         0.00000000
 
 Electron charges :
     core                                   :        16.00000000
     core leakage                           :         0.00340897
     valence                                :        32.00000000
     interstitial                           :        17.96349832
     charge in muffin-tin spheres :
                  atom     1     C          :         3.75442083
                  atom     2     C          :         3.75460145
                  atom     3     C          :         3.75467144
                  atom     4     C          :         3.75447919
                  atom     5     C          :         3.75390277
                  atom     6     C          :         3.75533435
                  atom     7     C          :         3.75527218
                  atom     8     C          :         3.75381946
     total charge in muffin-tins            :        30.03650168
     total charge                           :        48.00000000
 
 Estimated fundamental gap                  :         0.15289948
        valence-band maximum at    1      0.0000  0.0000  0.0000
     conduction-band minimum at   92      0.3750  0.3750  0.3333
 
 Wall time (seconds)                        :       805.23
 
 RMS change in effective potential (target) :  0.638152E-04  ( 0.100000E-05)
 Absolute change in total energy   (target) :  0.571142E-05  ( 0.100000E-05)
 Charge distance                   (target) :  0.114952E-04  ( 0.100000E-04)
 Abs. change in max-nonIBS-force   (target) :  0.306561E-03  ( 0.500000E-04)
 
++++++++++++++++++++++++++++++++++++++++++++++++++++++++++++++++++++++++++++++++
+ SCF iteration number :    8                                                  +
++++++++++++++++++++++++++++++++++++++++++++++++++++++++++++++++++++++++++++++++
 Total energy                               :      -304.79350645
 _______________________________________________________________
 Fermi energy                               :         0.51749182
 Kinetic energy                             :       303.61992795
 Coulomb energy                             :      -564.99826143
 Exchange energy                            :       -41.63642379
 Correlation energy                         :        -1.77874917
 
 DOS at Fermi energy (states/Ha/cell)       :         0.00000000
 
 Electron charges :
     core                                   :        16.00000000
     core leakage                           :         0.00340897
     valence                                :        32.00000000
     interstitial                           :        17.96349838
     charge in muffin-tin spheres :
                  atom     1     C          :         3.75439221
                  atom     2     C          :         3.75459493
                  atom     3     C          :         3.75470189
                  atom     4     C          :         3.75448072
                  atom     5     C          :         3.75389070
                  atom     6     C          :         3.75531701
                  atom     7     C          :         3.75528788
                  atom     8     C          :         3.75383628
     total charge in muffin-tins            :        30.03650162
     total charge                           :        48.00000000
 
 Estimated fundamental gap                  :         0.15289910
        valence-band maximum at    1      0.0000  0.0000  0.0000
     conduction-band minimum at   92      0.3750  0.3750  0.3333
 
 Wall time (seconds)                        :       920.00
 
 RMS change in effective potential (target) :  0.383755E-04  ( 0.100000E-05)
 Absolute change in total energy   (target) :  0.100656E-05  ( 0.100000E-05)
 Charge distance                   (target) :  0.639937E-05  ( 0.100000E-04)
 Abs. change in max-nonIBS-force   (target) :  0.169093E-03  ( 0.500000E-04)
 
++++++++++++++++++++++++++++++++++++++++++++++++++++++++++++++++++++++++++++++++
+ SCF iteration number :    9                                                  +
++++++++++++++++++++++++++++++++++++++++++++++++++++++++++++++++++++++++++++++++
 Total energy                               :      -304.79350341
 _______________________________________________________________
 Fermi energy                               :         0.51749188
 Kinetic energy                             :       303.61993090
 Coulomb energy                             :      -564.99826137
 Exchange energy                            :       -41.63642376
 Correlation energy                         :        -1.77874917
 
 DOS at Fermi energy (states/Ha/cell)       :         0.00000000
 
 Electron charges :
     core                                   :        16.00000000
     core leakage                           :         0.00340897
     valence                                :        32.00000000
     interstitial                           :        17.96349849
     charge in muffin-tin spheres :
                  atom     1     C          :         3.75440758
                  atom     2     C          :         3.75459162
                  atom     3     C          :         3.75468501
                  atom     4     C          :         3.75448656
                  atom     5     C          :         3.75387725
                  atom     6     C          :         3.75533522
                  atom     7     C          :         3.75529910
                  atom     8     C          :         3.75381917
     total charge in muffin-tins            :        30.03650151
     total charge                           :        48.00000000
 
 Estimated fundamental gap                  :         0.15289906
        valence-band maximum at    1      0.0000  0.0000  0.0000
     conduction-band minimum at   92      0.3750  0.3750  0.3333
 
 Wall time (seconds)                        :      1034.47
 
 RMS change in effective potential (target) :  0.181994E-04  ( 0.100000E-05)
 Absolute change in total energy   (target) :  0.303959E-05  ( 0.100000E-05)
 Charge distance                   (target) :  0.611947E-05  ( 0.100000E-04)
 Abs. change in max-nonIBS-force   (target) :  0.257588E-03  ( 0.500000E-04)
 
++++++++++++++++++++++++++++++++++++++++++++++++++++++++++++++++++++++++++++++++
+ SCF iteration number :   10                                                  +
++++++++++++++++++++++++++++++++++++++++++++++++++++++++++++++++++++++++++++++++
 Total energy                               :      -304.79350149
 _______________________________________________________________
 Fermi energy                               :         0.51749188
 Kinetic energy                             :       303.61993279
 Coulomb energy                             :      -564.99826136
 Exchange energy                            :       -41.63642375
 Correlation energy                         :        -1.77874917
 
 DOS at Fermi energy (states/Ha/cell)       :         0.00000000
 
 Electron charges :
     core                                   :        16.00000000
     core leakage                           :         0.00340897
     valence                                :        32.00000000
     interstitial                           :        17.96349856
     charge in muffin-tin spheres :
                  atom     1     C          :         3.75440412
                  atom     2     C          :         3.75458809
                  atom     3     C          :         3.75468931
                  atom     4     C          :         3.75449042
                  atom     5     C          :         3.75387443
                  atom     6     C          :         3.75533511
                  atom     7     C          :         3.75530204
                  atom     8     C          :         3.75381792
     total charge in muffin-tins            :        30.03650144
     total charge                           :        48.00000000
 
 Estimated fundamental gap                  :         0.15289911
        valence-band maximum at    1      0.0000  0.0000  0.0000
     conduction-band minimum at  174      0.6250  0.6250  0.6667
 
 Wall time (seconds)                        :      1148.90
 
 RMS change in effective potential (target) :  0.782845E-05  ( 0.100000E-05)
 Absolute change in total energy   (target) :  0.192437E-05  ( 0.100000E-05)
 Charge distance                   (target) :  0.289577E-05  ( 0.100000E-04)
 Abs. change in max-nonIBS-force   (target) :  0.180493E-03  ( 0.500000E-04)
 
++++++++++++++++++++++++++++++++++++++++++++++++++++++++++++++++++++++++++++++++
+ SCF iteration number :   11                                                  +
++++++++++++++++++++++++++++++++++++++++++++++++++++++++++++++++++++++++++++++++
 Total energy                               :      -304.79350021
 _______________________________________________________________
 Fermi energy                               :         0.51749189
 Kinetic energy                             :       303.61993407
 Coulomb energy                             :      -564.99826137
 Exchange energy                            :       -41.63642374
 Correlation energy                         :        -1.77874917
 
 DOS at Fermi energy (states/Ha/cell)       :         0.00000000
 
 Electron charges :
     core                                   :        16.00000000
     core leakage                           :         0.00340897
     valence                                :        32.00000000
     interstitial                           :        17.96349861
     charge in muffin-tin spheres :
                  atom     1     C          :         3.75440489
                  atom     2     C          :         3.75458832
                  atom     3     C          :         3.75468668
                  atom     4     C          :         3.75449146
                  atom     5     C          :         3.75386808
                  atom     6     C          :         3.75534033
                  atom     7     C          :         3.75530687
                  atom     8     C          :         3.75381476
     total charge in muffin-tins            :        30.03650139
     total charge                           :        48.00000000
 
 Estimated fundamental gap                  :         0.15289914
        valence-band maximum at    1      0.0000  0.0000  0.0000
     conduction-band minimum at  174      0.6250  0.6250  0.6667
 
 Wall time (seconds)                        :      1264.04
 
 RMS change in effective potential (target) :  0.102147E-05  ( 0.100000E-05)
 Absolute change in total energy   (target) :  0.127434E-05  ( 0.100000E-05)
 Charge distance                   (target) :  0.223164E-05  ( 0.100000E-04)
 Abs. change in max-nonIBS-force   (target) :  0.612334E-04  ( 0.500000E-04)
 
++++++++++++++++++++++++++++++++++++++++++++++++++++++++++++++++++++++++++++++++
+ SCF iteration number :   12                                                  +
++++++++++++++++++++++++++++++++++++++++++++++++++++++++++++++++++++++++++++++++
 Total energy                               :      -304.79350016
 _______________________________________________________________
 Fermi energy                               :         0.51749189
 Kinetic energy                             :       303.61993409
 Coulomb energy                             :      -564.99826134
 Exchange energy                            :       -41.63642374
 Correlation energy                         :        -1.77874917
 
 DOS at Fermi energy (states/Ha/cell)       :         0.00000000
 
 Electron charges :
     core                                   :        16.00000000
     core leakage                           :         0.00340897
     valence                                :        32.00000000
     interstitial                           :        17.96349861
     charge in muffin-tin spheres :
                  atom     1     C          :         3.75440596
                  atom     2     C          :         3.75458672
                  atom     3     C          :         3.75468743
                  atom     4     C          :         3.75449225
                  atom     5     C          :         3.75386965
                  atom     6     C          :         3.75533986
                  atom     7     C          :         3.75530648
                  atom     8     C          :         3.75381304
     total charge in muffin-tins            :        30.03650139
     total charge                           :        48.00000000
 
 Estimated fundamental gap                  :         0.15289913
        valence-band maximum at    1      0.0000  0.0000  0.0000
     conduction-band minimum at  174      0.6250  0.6250  0.6667
 
 Wall time (seconds)                        :      1378.26
 
 RMS change in effective potential (target) :  0.297149E-06  ( 0.100000E-05)
 Absolute change in total energy   (target) :  0.522375E-07  ( 0.100000E-05)
 Charge distance                   (target) :  0.290821E-06  ( 0.100000E-04)
 Abs. change in max-nonIBS-force   (target) :  0.212113E-05  ( 0.500000E-04)
 
++++++++++++++++++++++++++++++++++++++++++++++++++++++++++++++++++++++++++++++++
+ SCF iteration number :   13                                                  +
++++++++++++++++++++++++++++++++++++++++++++++++++++++++++++++++++++++++++++++++
 Total energy                               :      -304.79350014
 _______________________________________________________________
 Fermi energy                               :         0.51749189
 Kinetic energy                             :       303.61993410
 Coulomb energy                             :      -564.99826133
 Exchange energy                            :       -41.63642373
 Correlation energy                         :        -1.77874917
 
 DOS at Fermi energy (states/Ha/cell)       :         0.00000000
 
 Electron charges :
     core                                   :        16.00000000
     core leakage                           :         0.00340897
     valence                                :        32.00000000
     interstitial                           :        17.96349862
     charge in muffin-tin spheres :
                  atom     1     C          :         3.75440576
                  atom     2     C          :         3.75458704
                  atom     3     C          :         3.75468692
                  atom     4     C          :         3.75449258
                  atom     5     C          :         3.75386927
                  atom     6     C          :         3.75534033
                  atom     7     C          :         3.75530620
                  atom     8     C          :         3.75381329
     total charge in muffin-tins            :        30.03650138
     total charge                           :        48.00000000
 
 Estimated fundamental gap                  :         0.15289913
        valence-band maximum at    1      0.0000  0.0000  0.0000
     conduction-band minimum at   92      0.3750  0.3750  0.3333
 
 Wall time (seconds)                        :      1492.76
 
 RMS change in effective potential (target) :  0.176619E-06  ( 0.100000E-05)
 Absolute change in total energy   (target) :  0.205704E-07  ( 0.100000E-05)
 Charge distance                   (target) :  0.105900E-06  ( 0.100000E-04)
 Abs. change in max-nonIBS-force   (target) :  0.103086E-05  ( 0.500000E-04)
                                                                                
++++++++++++++++++++++++++++++++++++++++++++++++++++++++++++++++++++++++++++++++
| Convergency criteria checked for the last 2 iterations                       +
| Convergence targets achieved. Performing final SCF iteration                 +
++++++++++++++++++++++++++++++++++++++++++++++++++++++++++++++++++++++++++++++++
 Total energy                               :      -304.79350014
 _______________________________________________________________
 Fermi energy                               :         0.51749189
 Kinetic energy                             :       303.61993410
 Coulomb energy                             :      -564.99826133
 Exchange energy                            :       -41.63642373
 Correlation energy                         :        -1.77874917
 
 DOS at Fermi energy (states/Ha/cell)       :         0.00000000
 
 Electron charges :
     core                                   :        16.00000000
     core leakage                           :         0.00340897
     valence                                :        32.00000000
     interstitial                           :        17.96349862
     charge in muffin-tin spheres :
                  atom     1     C          :         3.75440588
                  atom     2     C          :         3.75458702
                  atom     3     C          :         3.75468706
                  atom     4     C          :         3.75449226
                  atom     5     C          :         3.75386932
                  atom     6     C          :         3.75534016
                  atom     7     C          :         3.75530646
                  atom     8     C          :         3.75381324
     total charge in muffin-tins            :        30.03650138
     total charge                           :        48.00000000
 
 Estimated fundamental gap                  :         0.15289913
        valence-band maximum at    1      0.0000  0.0000  0.0000
     conduction-band minimum at   92      0.3750  0.3750  0.3333
 
++++++++++++++++++++++++++++++++++++++++++++++++++++++++++++++++++++++++++++++++
+ Self-consistent loop stopped                                                 +
++++++++++++++++++++++++++++++++++++++++++++++++++++++++++++++++++++++++++++++++
 STATE.OUT is written
 
--------------------------------------------------------------------------------
- Writing atomic positions and forces                                          -
--------------------------------------------------------------------------------
 
 Atomic positions (lattice) :
 atom     1   C  :     0.00000000    0.00000000    0.00000000
 atom     2   C  :     0.74851896    0.75088863    0.74970379
 atom     3   C  :     0.50000000    0.50000000    0.50000000
 atom     4   C  :     0.25148104    0.24911137    0.25029621
 atom     5   C  :     0.06250000    0.06250000    0.81250000
 atom     6   C  :     0.81250000    0.81250000    0.56250000
 atom     7   C  :     0.56250000    0.56250000    0.31250000
 atom     8   C  :     0.31250000    0.31250000    0.06250000
 
 Total atomic forces including IBS (cartesian) :
 atom     1   C  :    -0.00000473   -0.00001931   -0.00001931
 atom     2   C  :    -0.00336302   -0.00030517   -0.00030517
 atom     3   C  :     0.00000084   -0.00001448   -0.00001448
 atom     4   C  :     0.00335964    0.00026834    0.00026834
 atom     5   C  :     0.00226916   -0.00012568   -0.00012568
 atom     6   C  :     0.00068112    0.00015728    0.00015728
 atom     7   C  :    -0.00228298    0.00014914    0.00014914
 atom     8   C  :    -0.00066002   -0.00011012   -0.00011012
 
 Atomic force components including IBS (cartesian) :
 atom     1   C  :     0.00003183   -0.00013902   -0.00013902   HF force
                 :    -0.00005014    0.00011826    0.00011826   core correction
                 :     0.00001358    0.00000145    0.00000145   IBS correction
 atom     2   C  :    -0.00351703   -0.00038517   -0.00038517   HF force
                 :     0.00009990    0.00007691    0.00007691   core correction
                 :     0.00005411    0.00000308    0.00000308   IBS correction
 atom     3   C  :    -0.00004839    0.00012459    0.00012459   HF force
                 :     0.00003242   -0.00013664   -0.00013664   core correction
                 :     0.00001681   -0.00000243   -0.00000243   IBS correction
 atom     4   C  :     0.00350253    0.00036555    0.00036555   HF force
                 :    -0.00011879   -0.00009304   -0.00009304   core correction
                 :    -0.00002411   -0.00000417   -0.00000417   IBS correction
 atom     5   C  :     0.00253627   -0.00007210   -0.00007210   HF force
                 :    -0.00022160   -0.00005483   -0.00005483   core correction
                 :    -0.00004552    0.00000124    0.00000124   IBS correction
 atom     6   C  :     0.00066377    0.00011272    0.00011272   HF force
                 :     0.00004139    0.00004813    0.00004813   core correction
                 :    -0.00002404   -0.00000357   -0.00000357   IBS correction
 atom     7   C  :    -0.00254640    0.00007732    0.00007732   HF force
                 :     0.00024595    0.00007193    0.00007193   core correction
                 :     0.00001747   -0.00000012   -0.00000012   IBS correction
 atom     8   C  :    -0.00062258   -0.00008390   -0.00008390   HF force
                 :    -0.00002913   -0.00003074   -0.00003074   core correction
                 :    -0.00000831    0.00000453    0.00000453   IBS correction
 
********************************************************************************
* Groundstate module stopped                                                   *
********************************************************************************
 
 Total time spent (seconds)                 :      1790.31
================================================================================
| EXCITING NITROGEN-13 stopped                                                 =
================================================================================
