================================================================================
| EXCITING NITROGEN-13 started                                                 =
| version hash id: de0c1dba9f665d6c60514aa9e8bf40326ac9f394                    =
|                                                                              =
|                                                                              =
| Date (DD-MM-YYYY) : 04-05-2022                                               =
| Time (hh:mm:ss)   : 08:49:58                                                 =
|                                                                              =
| All units are atomic (Hartree, Bohr, etc.)                                   =
================================================================================
 
********************************************************************************
* Ground-state run resuming from STATE.OUT                                     *
********************************************************************************
 
++++++++++++++++++++++++++++++++++++++++++++++++++++++++++++++++++++++++++++++++
+ Starting initialization                                                      +
++++++++++++++++++++++++++++++++++++++++++++++++++++++++++++++++++++++++++++++++
 
 Lattice vectors (cartesian) :
     -3.3759957000      0.0000000000      3.3759957000
      0.0000000000     -3.3759957000      3.3759957000
    -10.1279871000    -10.1279871000     -6.7519914000
 
 Reciprocal lattice vectors (cartesian) :
     -1.1632096620      0.6979257972      0.6979257972
      0.6979257972     -1.1632096620      0.6979257972
     -0.2326419324     -0.2326419324     -0.2326419324
 
 Unit cell volume                           :     307.8191548003
 Brillouin zone volume                      :       0.8058309874
 
 Species :    1 (C)
     parameters loaded from                 :    C.xml
     name                                   :    carbon
     nuclear charge                         :      -6.00000000
     electronic charge                      :       6.00000000
     atomic mass                            :   21894.16673000
     muffin-tin radius                      :       1.25000000
     # of radial points in muffin-tin       :     250
 
     atomic positions (lattice) :
       1 :   0.99925948  0.00044431  0.99985190
       2 :   0.75000000  0.75000000  0.75000000
       3 :   0.50074052  0.49955569  0.50014810
       4 :   0.25000000  0.25000000  0.25000000
       5 :   0.06250000  0.06250000  0.81250000
       6 :   0.81250000  0.81250000  0.56250000
       7 :   0.56250000  0.56250000  0.31250000
       8 :   0.31250000  0.31250000  0.06250000
 
 Total number of atoms per unit cell        :       8
 
 Spin treatment                             :    spin-unpolarised
 
 Number of Bravais lattice symmetries       :      12
 Number of crystal symmetries               :       2
 
 Sphere radius used for k-point grid density:      33.42065234
 
 k-point grid                               :       8    8    3
 Total number of k-points                   :     192
 k-point set is reduced with crystal symmetries
 
 R^MT_min * |G+k|_max (rgkmax)              :       8.00000000
 Species with R^MT_min                      :       1 (C)
 Maximum |G+k| for APW functions            :       6.40000000
 Maximum |G| for potential and density      :      16.00000000
 
 G-vector grid sizes                        :      25    25    81
 Total number of G-vectors                  :   21163
 
 Maximum angular momentum used for
     APW functions                          :       8
     computing H and O matrix elements      :       8
     potential and density                  :       8
     inner part of muffin-tin               :       2
 
 Total nuclear charge                       :     -48.00000000
 Total electronic charge                    :      48.00000000
 Total core charge                          :      16.00000000
 Total valence charge                       :      32.00000000
 
 Number of empty states                     :      20
 Total number of valence states             :      37
 
 Maximum Hamiltonian size                   :    1423
 Maximum number of plane-waves              :    1391
 Total number of local-orbitals             :      32
 
 Exchange-correlation type                  :      20
     Perdew-Burke-Ernzerhof, Phys. Rev. Lett. 77, 3865 (1996)
     Generalised gradient approximation (GGA)
 
 Smearing scheme                            :    Gaussian
 Smearing width                             :       0.00010000
 
 Using multisecant Broyden potential mixing
 
++++++++++++++++++++++++++++++++++++++++++++++++++++++++++++++++++++++++++++++++
+ Ending initialization                                                        +
++++++++++++++++++++++++++++++++++++++++++++++++++++++++++++++++++++++++++++++++
 
********************************************************************************
* Groundstate module started                                                   *
********************************************************************************
 Output level for this task is set to normal
 
++++++++++++++++++++++++++++++++++++++++++++++++++++++++++++++++++++++++++++++++
+ Self-consistent loop started                                                 +
++++++++++++++++++++++++++++++++++++++++++++++++++++++++++++++++++++++++++++++++
 Supercell potential constructed from STATE.OUT
 
 
++++++++++++++++++++++++++++++++++++++++++++++++++++++++++++++++++++++++++++++++
+ SCF iteration number :    1                                                  +
++++++++++++++++++++++++++++++++++++++++++++++++++++++++++++++++++++++++++++++++
 Total energy                               :      -304.83441436
 _______________________________________________________________
 Fermi energy                               :         0.51596629
 Kinetic energy                             :       303.51967511
 Coulomb energy                             :      -564.94389857
 Exchange energy                            :       -41.63101374
 Correlation energy                         :        -1.77917716
 
 DOS at Fermi energy (states/Ha/cell)       :         0.00000000
 
 Electron charges :
     core                                   :        16.00000000
     core leakage                           :         0.00340894
     valence                                :        32.00000000
     interstitial                           :        17.97907075
     charge in muffin-tin spheres :
                  atom     1     C          :         3.75316942
                  atom     2     C          :         3.75259681
                  atom     3     C          :         3.75266927
                  atom     4     C          :         3.75208063
                  atom     5     C          :         3.75318741
                  atom     6     C          :         3.75268489
                  atom     7     C          :         3.75208296
                  atom     8     C          :         3.75245785
     total charge in muffin-tins            :        30.02092925
     total charge                           :        48.00000000
 
 Estimated fundamental gap                  :         0.15166418
        valence-band maximum at    1      0.0000  0.0000  0.0000
     conduction-band minimum at  174      0.6250  0.6250  0.6667
 
 Wall time (seconds)                        :       114.00
 
++++++++++++++++++++++++++++++++++++++++++++++++++++++++++++++++++++++++++++++++
+ SCF iteration number :    2                                                  +
++++++++++++++++++++++++++++++++++++++++++++++++++++++++++++++++++++++++++++++++
 Total energy                               :      -304.83375359
 _______________________________________________________________
 Fermi energy                               :         0.51624660
 Kinetic energy                             :       303.53953538
 Coulomb energy                             :      -564.96143028
 Exchange energy                            :       -41.63282195
 Correlation energy                         :        -1.77903673
 
 DOS at Fermi energy (states/Ha/cell)       :         0.00000000
 
 Electron charges :
     core                                   :        16.00000000
     core leakage                           :         0.00340852
     valence                                :        32.00000000
     interstitial                           :        17.97448173
     charge in muffin-tin spheres :
                  atom     1     C          :         3.75347200
                  atom     2     C          :         3.75333783
                  atom     3     C          :         3.75305492
                  atom     4     C          :         3.75281239
                  atom     5     C          :         3.75382159
                  atom     6     C          :         3.75356720
                  atom     7     C          :         3.75253807
                  atom     8     C          :         3.75291428
     total charge in muffin-tins            :        30.02551827
     total charge                           :        48.00000000
 
 Estimated fundamental gap                  :         0.15207235
        valence-band maximum at    1      0.0000  0.0000  0.0000
     conduction-band minimum at   92      0.3750  0.3750  0.3333
 
 Wall time (seconds)                        :       226.31
 
 RMS change in effective potential (target) :  0.104266E-01  ( 0.100000E-05)
 Absolute change in total energy   (target) :  0.660771E-03  ( 0.100000E-05)
 Charge distance                   (target) :  0.379951E-03  ( 0.100000E-04)
 Abs. change in max-nonIBS-force   (target) :  0.942457E-02  ( 0.500000E-04)
 
++++++++++++++++++++++++++++++++++++++++++++++++++++++++++++++++++++++++++++++++
+ SCF iteration number :    3                                                  +
++++++++++++++++++++++++++++++++++++++++++++++++++++++++++++++++++++++++++++++++
 Total energy                               :      -304.83001326
 _______________________________________________________________
 Fermi energy                               :         0.51651017
 Kinetic energy                             :       303.55745801
 Coulomb energy                             :      -564.97439851
 Exchange energy                            :       -41.63413876
 Correlation energy                         :        -1.77893399
 
 DOS at Fermi energy (states/Ha/cell)       :         0.00000000
 
 Electron charges :
     core                                   :        16.00000000
     core leakage                           :         0.00340830
     valence                                :        32.00000000
     interstitial                           :        17.97099150
     charge in muffin-tin spheres :
                  atom     1     C          :         3.75375871
                  atom     2     C          :         3.75374493
                  atom     3     C          :         3.75351010
                  atom     4     C          :         3.75341554
                  atom     5     C          :         3.75416670
                  atom     6     C          :         3.75403606
                  atom     7     C          :         3.75303227
                  atom     8     C          :         3.75334419
     total charge in muffin-tins            :        30.02900850
     total charge                           :        48.00000000
 
 Estimated fundamental gap                  :         0.15237683
        valence-band maximum at    1      0.0000  0.0000  0.0000
     conduction-band minimum at   92      0.3750  0.3750  0.3333
 
 Wall time (seconds)                        :       341.41
 
 RMS change in effective potential (target) :  0.755252E-02  ( 0.100000E-05)
 Absolute change in total energy   (target) :  0.374032E-02  ( 0.100000E-05)
 Charge distance                   (target) :  0.290963E-03  ( 0.100000E-04)
 Abs. change in max-nonIBS-force   (target) :  0.228021E-02  ( 0.500000E-04)
 
++++++++++++++++++++++++++++++++++++++++++++++++++++++++++++++++++++++++++++++++
+ SCF iteration number :    4                                                  +
++++++++++++++++++++++++++++++++++++++++++++++++++++++++++++++++++++++++++++++++
 Total energy                               :      -304.78984357
 _______________________________________________________________
 Fermi energy                               :         0.51752787
 Kinetic energy                             :       303.62193598
 Coulomb energy                             :      -564.99676120
 Exchange energy                            :       -41.63625865
 Correlation energy                         :        -1.77875971
 
 DOS at Fermi energy (states/Ha/cell)       :         0.00000000
 
 Electron charges :
     core                                   :        16.00000000
     core leakage                           :         0.00340912
     valence                                :        32.00000000
     interstitial                           :        17.96376064
     charge in muffin-tin spheres :
                  atom     1     C          :         3.75496735
                  atom     2     C          :         3.75612904
                  atom     3     C          :         3.75344977
                  atom     4     C          :         3.75296337
                  atom     5     C          :         3.75620015
                  atom     6     C          :         3.75632105
                  atom     7     C          :         3.75302397
                  atom     8     C          :         3.75318467
     total charge in muffin-tins            :        30.03623936
     total charge                           :        48.00000000
 
 Estimated fundamental gap                  :         0.15286693
        valence-band maximum at    1      0.0000  0.0000  0.0000
     conduction-band minimum at  174      0.6250  0.6250  0.6667
 
 Wall time (seconds)                        :       456.09
 
 RMS change in effective potential (target) :  0.361424E-02  ( 0.100000E-05)
 Absolute change in total energy   (target) :  0.401697E-01  ( 0.100000E-05)
 Charge distance                   (target) :  0.740292E-03  ( 0.100000E-04)
 Abs. change in max-nonIBS-force   (target) :  0.635704E-02  ( 0.500000E-04)
 
++++++++++++++++++++++++++++++++++++++++++++++++++++++++++++++++++++++++++++++++
+ SCF iteration number :    5                                                  +
++++++++++++++++++++++++++++++++++++++++++++++++++++++++++++++++++++++++++++++++
 Total energy                               :      -304.79201139
 _______________________________________________________________
 Fermi energy                               :         0.51750026
 Kinetic energy                             :       303.62076942
 Coulomb energy                             :      -564.99766515
 Exchange energy                            :       -41.63636305
 Correlation energy                         :        -1.77875261
 
 DOS at Fermi energy (states/Ha/cell)       :         0.00000000
 
 Electron charges :
     core                                   :        16.00000000
     core leakage                           :         0.00340902
     valence                                :        32.00000000
     interstitial                           :        17.96359687
     charge in muffin-tin spheres :
                  atom     1     C          :         3.75392072
                  atom     2     C          :         3.75234246
                  atom     3     C          :         3.75566665
                  atom     4     C          :         3.75645858
                  atom     5     C          :         3.75329368
                  atom     6     C          :         3.75302690
                  atom     7     C          :         3.75596421
                  atom     8     C          :         3.75572993
     total charge in muffin-tins            :        30.03640313
     total charge                           :        48.00000000
 
 Estimated fundamental gap                  :         0.15286292
        valence-band maximum at    1      0.0000  0.0000  0.0000
     conduction-band minimum at   92      0.3750  0.3750  0.3333
 
 Wall time (seconds)                        :       571.26
 
 RMS change in effective potential (target) :  0.503192E-02  ( 0.100000E-05)
 Absolute change in total energy   (target) :  0.216782E-02  ( 0.100000E-05)
 Charge distance                   (target) :  0.106860E-02  ( 0.100000E-04)
 Abs. change in max-nonIBS-force   (target) :  0.842820E-02  ( 0.500000E-04)
 
++++++++++++++++++++++++++++++++++++++++++++++++++++++++++++++++++++++++++++++++
+ SCF iteration number :    6                                                  +
++++++++++++++++++++++++++++++++++++++++++++++++++++++++++++++++++++++++++++++++
 Total energy                               :      -304.79402102
 _______________________________________________________________
 Fermi energy                               :         0.51747561
 Kinetic energy                             :       303.61961530
 Coulomb energy                             :      -564.99844529
 Exchange energy                            :       -41.63644391
 Correlation energy                         :        -1.77874712
 
 DOS at Fermi energy (states/Ha/cell)       :         0.00000000
 
 Electron charges :
     core                                   :        16.00000000
     core leakage                           :         0.00340895
     valence                                :        32.00000000
     interstitial                           :        17.96348294
     charge in muffin-tin spheres :
                  atom     1     C          :         3.75473761
                  atom     2     C          :         3.75465521
                  atom     3     C          :         3.75473876
                  atom     4     C          :         3.75442665
                  atom     5     C          :         3.75492679
                  atom     6     C          :         3.75480282
                  atom     7     C          :         3.75411404
                  atom     8     C          :         3.75411518
     total charge in muffin-tins            :        30.03651706
     total charge                           :        48.00000000
 
 Estimated fundamental gap                  :         0.15293768
        valence-band maximum at    1      0.0000  0.0000  0.0000
     conduction-band minimum at   92      0.3750  0.3750  0.3333
 
 Wall time (seconds)                        :       685.35
 
 RMS change in effective potential (target) :  0.193251E-03  ( 0.100000E-05)
 Absolute change in total energy   (target) :  0.200963E-02  ( 0.100000E-05)
 Charge distance                   (target) :  0.636444E-03  ( 0.100000E-04)
 Abs. change in max-nonIBS-force   (target) :  0.204661E-01  ( 0.500000E-04)
 
++++++++++++++++++++++++++++++++++++++++++++++++++++++++++++++++++++++++++++++++
+ SCF iteration number :    7                                                  +
++++++++++++++++++++++++++++++++++++++++++++++++++++++++++++++++++++++++++++++++
 Total energy                               :      -304.79358785
 _______________________________________________________________
 Fermi energy                               :         0.51747957
 Kinetic energy                             :       303.61983966
 Coulomb energy                             :      -564.99825623
 Exchange energy                            :       -41.63642261
 Correlation energy                         :        -1.77874867
 
 DOS at Fermi energy (states/Ha/cell)       :         0.00000000
 
 Electron charges :
     core                                   :        16.00000000
     core leakage                           :         0.00340896
     valence                                :        32.00000000
     interstitial                           :        17.96351786
     charge in muffin-tin spheres :
                  atom     1     C          :         3.75441025
                  atom     2     C          :         3.75462677
                  atom     3     C          :         3.75426010
                  atom     4     C          :         3.75449310
                  atom     5     C          :         3.75497999
                  atom     6     C          :         3.75512618
                  atom     7     C          :         3.75424400
                  atom     8     C          :         3.75434174
     total charge in muffin-tins            :        30.03648214
     total charge                           :        48.00000000
 
 Estimated fundamental gap                  :         0.15293602
        valence-band maximum at    1      0.0000  0.0000  0.0000
     conduction-band minimum at   92      0.3750  0.3750  0.3333
 
 Wall time (seconds)                        :       798.34
 
 RMS change in effective potential (target) :  0.154031E-03  ( 0.100000E-05)
 Absolute change in total energy   (target) :  0.433171E-03  ( 0.100000E-05)
 Charge distance                   (target) :  0.635788E-04  ( 0.100000E-04)
 Abs. change in max-nonIBS-force   (target) :  0.568009E-03  ( 0.500000E-04)
 
++++++++++++++++++++++++++++++++++++++++++++++++++++++++++++++++++++++++++++++++
+ SCF iteration number :    8                                                  +
++++++++++++++++++++++++++++++++++++++++++++++++++++++++++++++++++++++++++++++++
 Total energy                               :      -304.79352153
 _______________________________________________________________
 Fermi energy                               :         0.51748027
 Kinetic energy                             :       303.61987412
 Coulomb energy                             :      -564.99822739
 Exchange energy                            :       -41.63641936
 Correlation energy                         :        -1.77874890
 
 DOS at Fermi energy (states/Ha/cell)       :         0.00000000
 
 Electron charges :
     core                                   :        16.00000000
     core leakage                           :         0.00340896
     valence                                :        32.00000000
     interstitial                           :        17.96352290
     charge in muffin-tin spheres :
                  atom     1     C          :         3.75460484
                  atom     2     C          :         3.75458806
                  atom     3     C          :         3.75450823
                  atom     4     C          :         3.75443693
                  atom     5     C          :         3.75499199
                  atom     6     C          :         3.75491755
                  atom     7     C          :         3.75422450
                  atom     8     C          :         3.75420501
     total charge in muffin-tins            :        30.03647710
     total charge                           :        48.00000000
 
 Estimated fundamental gap                  :         0.15293553
        valence-band maximum at    1      0.0000  0.0000  0.0000
     conduction-band minimum at   92      0.3750  0.3750  0.3333
 
 Wall time (seconds)                        :       911.81
 
 RMS change in effective potential (target) :  0.231889E-04  ( 0.100000E-05)
 Absolute change in total energy   (target) :  0.663238E-04  ( 0.100000E-05)
 Charge distance                   (target) :  0.364198E-04  ( 0.100000E-04)
 Abs. change in max-nonIBS-force   (target) :  0.286473E-03  ( 0.500000E-04)
 
++++++++++++++++++++++++++++++++++++++++++++++++++++++++++++++++++++++++++++++++
+ SCF iteration number :    9                                                  +
++++++++++++++++++++++++++++++++++++++++++++++++++++++++++++++++++++++++++++++++
 Total energy                               :      -304.79351916
 _______________________________________________________________
 Fermi energy                               :         0.51748026
 Kinetic energy                             :       303.61987530
 Coulomb energy                             :      -564.99822630
 Exchange energy                            :       -41.63641925
 Correlation energy                         :        -1.77874890
 
 DOS at Fermi energy (states/Ha/cell)       :         0.00000000
 
 Electron charges :
     core                                   :        16.00000000
     core leakage                           :         0.00340896
     valence                                :        32.00000000
     interstitial                           :        17.96352288
     charge in muffin-tin spheres :
                  atom     1     C          :         3.75458125
                  atom     2     C          :         3.75462208
                  atom     3     C          :         3.75451248
                  atom     4     C          :         3.75446247
                  atom     5     C          :         3.75494697
                  atom     6     C          :         3.75493745
                  atom     7     C          :         3.75418911
                  atom     8     C          :         3.75422532
     total charge in muffin-tins            :        30.03647712
     total charge                           :        48.00000000
 
 Estimated fundamental gap                  :         0.15293553
        valence-band maximum at    1      0.0000  0.0000  0.0000
     conduction-band minimum at  174      0.6250  0.6250  0.6667
 
 Wall time (seconds)                        :      1026.38
 
 RMS change in effective potential (target) :  0.131325E-04  ( 0.100000E-05)
 Absolute change in total energy   (target) :  0.236436E-05  ( 0.100000E-05)
 Charge distance                   (target) :  0.745161E-05  ( 0.100000E-04)
 Abs. change in max-nonIBS-force   (target) :  0.692140E-05  ( 0.500000E-04)
 
++++++++++++++++++++++++++++++++++++++++++++++++++++++++++++++++++++++++++++++++
+ SCF iteration number :   10                                                  +
++++++++++++++++++++++++++++++++++++++++++++++++++++++++++++++++++++++++++++++++
 Total energy                               :      -304.79352003
 _______________________________________________________________
 Fermi energy                               :         0.51748013
 Kinetic energy                             :       303.61987496
 Coulomb energy                             :      -564.99822677
 Exchange energy                            :       -41.63641932
 Correlation energy                         :        -1.77874890
 
 DOS at Fermi energy (states/Ha/cell)       :         0.00000000
 
 Electron charges :
     core                                   :        16.00000000
     core leakage                           :         0.00340896
     valence                                :        32.00000000
     interstitial                           :        17.96352260
     charge in muffin-tin spheres :
                  atom     1     C          :         3.75459101
                  atom     2     C          :         3.75460843
                  atom     3     C          :         3.75450445
                  atom     4     C          :         3.75445526
                  atom     5     C          :         3.75496522
                  atom     6     C          :         3.75493080
                  atom     7     C          :         3.75419761
                  atom     8     C          :         3.75422463
     total charge in muffin-tins            :        30.03647740
     total charge                           :        48.00000000
 
 Estimated fundamental gap                  :         0.15293576
        valence-band maximum at    1      0.0000  0.0000  0.0000
     conduction-band minimum at  174      0.6250  0.6250  0.6667
 
 Wall time (seconds)                        :      1141.66
 
 RMS change in effective potential (target) :  0.918577E-05  ( 0.100000E-05)
 Absolute change in total energy   (target) :  0.871485E-06  ( 0.100000E-05)
 Charge distance                   (target) :  0.309283E-05  ( 0.100000E-04)
 Abs. change in max-nonIBS-force   (target) :  0.355933E-04  ( 0.500000E-04)
 
++++++++++++++++++++++++++++++++++++++++++++++++++++++++++++++++++++++++++++++++
+ SCF iteration number :   11                                                  +
++++++++++++++++++++++++++++++++++++++++++++++++++++++++++++++++++++++++++++++++
 Total energy                               :      -304.79352134
 _______________________________________________________________
 Fermi energy                               :         0.51748016
 Kinetic energy                             :       303.61987446
 Coulomb energy                             :      -564.99822750
 Exchange energy                            :       -41.63641940
 Correlation energy                         :        -1.77874889
 
 DOS at Fermi energy (states/Ha/cell)       :         0.00000000
 
 Electron charges :
     core                                   :        16.00000000
     core leakage                           :         0.00340896
     valence                                :        32.00000000
     interstitial                           :        17.96352246
     charge in muffin-tin spheres :
                  atom     1     C          :         3.75458801
                  atom     2     C          :         3.75460874
                  atom     3     C          :         3.75450845
                  atom     4     C          :         3.75445258
                  atom     5     C          :         3.75496444
                  atom     6     C          :         3.75493282
                  atom     7     C          :         3.75420290
                  atom     8     C          :         3.75421959
     total charge in muffin-tins            :        30.03647754
     total charge                           :        48.00000000
 
 Estimated fundamental gap                  :         0.15293569
        valence-band maximum at    1      0.0000  0.0000  0.0000
     conduction-band minimum at   92      0.3750  0.3750  0.3333
 
 Wall time (seconds)                        :      1254.84
 
 RMS change in effective potential (target) :  0.146963E-05  ( 0.100000E-05)
 Absolute change in total energy   (target) :  0.130739E-05  ( 0.100000E-05)
 Charge distance                   (target) :  0.122652E-05  ( 0.100000E-04)
 Abs. change in max-nonIBS-force   (target) :  0.381948E-05  ( 0.500000E-04)
 
++++++++++++++++++++++++++++++++++++++++++++++++++++++++++++++++++++++++++++++++
+ SCF iteration number :   12                                                  +
++++++++++++++++++++++++++++++++++++++++++++++++++++++++++++++++++++++++++++++++
 Total energy                               :      -304.79352169
 _______________________________________________________________
 Fermi energy                               :         0.51748017
 Kinetic energy                             :       303.61987445
 Coulomb energy                             :      -564.99822781
 Exchange energy                            :       -41.63641943
 Correlation energy                         :        -1.77874889
 
 DOS at Fermi energy (states/Ha/cell)       :         0.00000000
 
 Electron charges :
     core                                   :        16.00000000
     core leakage                           :         0.00340896
     valence                                :        32.00000000
     interstitial                           :        17.96352241
     charge in muffin-tin spheres :
                  atom     1     C          :         3.75458821
                  atom     2     C          :         3.75461041
                  atom     3     C          :         3.75450814
                  atom     4     C          :         3.75445440
                  atom     5     C          :         3.75496294
                  atom     6     C          :         3.75493238
                  atom     7     C          :         3.75420080
                  atom     8     C          :         3.75422031
     total charge in muffin-tins            :        30.03647759
     total charge                           :        48.00000000
 
 Estimated fundamental gap                  :         0.15293568
        valence-band maximum at    1      0.0000  0.0000  0.0000
     conduction-band minimum at  174      0.6250  0.6250  0.6667
 
 Wall time (seconds)                        :      1368.42
 
 RMS change in effective potential (target) :  0.534692E-06  ( 0.100000E-05)
 Absolute change in total energy   (target) :  0.346874E-06  ( 0.100000E-05)
 Charge distance                   (target) :  0.428591E-06  ( 0.100000E-04)
 Abs. change in max-nonIBS-force   (target) :  0.651141E-05  ( 0.500000E-04)
 
++++++++++++++++++++++++++++++++++++++++++++++++++++++++++++++++++++++++++++++++
+ SCF iteration number :   13                                                  +
++++++++++++++++++++++++++++++++++++++++++++++++++++++++++++++++++++++++++++++++
 Total energy                               :      -304.79352028
 _______________________________________________________________
 Fermi energy                               :         0.51748019
 Kinetic energy                             :       303.61987514
 Coulomb energy                             :      -564.99822717
 Exchange energy                            :       -41.63641936
 Correlation energy                         :        -1.77874889
 
 DOS at Fermi energy (states/Ha/cell)       :         0.00000000
 
 Electron charges :
     core                                   :        16.00000000
     core leakage                           :         0.00340896
     valence                                :        32.00000000
     interstitial                           :        17.96352253
     charge in muffin-tin spheres :
                  atom     1     C          :         3.75458861
                  atom     2     C          :         3.75460964
                  atom     3     C          :         3.75450884
                  atom     4     C          :         3.75445355
                  atom     5     C          :         3.75496330
                  atom     6     C          :         3.75493210
                  atom     7     C          :         3.75420112
                  atom     8     C          :         3.75422031
     total charge in muffin-tins            :        30.03647747
     total charge                           :        48.00000000
 
 Estimated fundamental gap                  :         0.15293566
        valence-band maximum at    1      0.0000  0.0000  0.0000
     conduction-band minimum at  174      0.6250  0.6250  0.6667
 
 Wall time (seconds)                        :      1482.37
 
 RMS change in effective potential (target) :  0.199679E-06  ( 0.100000E-05)
 Absolute change in total energy   (target) :  0.140259E-05  ( 0.100000E-05)
 Charge distance                   (target) :  0.178258E-06  ( 0.100000E-04)
 Abs. change in max-nonIBS-force   (target) :  0.153399E-05  ( 0.500000E-04)
 
++++++++++++++++++++++++++++++++++++++++++++++++++++++++++++++++++++++++++++++++
+ SCF iteration number :   14                                                  +
++++++++++++++++++++++++++++++++++++++++++++++++++++++++++++++++++++++++++++++++
 Total energy                               :      -304.79352018
 _______________________________________________________________
 Fermi energy                               :         0.51748019
 Kinetic energy                             :       303.61987519
 Coulomb energy                             :      -564.99822712
 Exchange energy                            :       -41.63641936
 Correlation energy                         :        -1.77874890
 
 DOS at Fermi energy (states/Ha/cell)       :         0.00000000
 
 Electron charges :
     core                                   :        16.00000000
     core leakage                           :         0.00340896
     valence                                :        32.00000000
     interstitial                           :        17.96352254
     charge in muffin-tin spheres :
                  atom     1     C          :         3.75458867
                  atom     2     C          :         3.75460983
                  atom     3     C          :         3.75450874
                  atom     4     C          :         3.75445379
                  atom     5     C          :         3.75496330
                  atom     6     C          :         3.75493197
                  atom     7     C          :         3.75420111
                  atom     8     C          :         3.75422005
     total charge in muffin-tins            :        30.03647746
     total charge                           :        48.00000000
 
 Estimated fundamental gap                  :         0.15293566
        valence-band maximum at    1      0.0000  0.0000  0.0000
     conduction-band minimum at   92      0.3750  0.3750  0.3333
 
 Wall time (seconds)                        :      1594.78
 
 RMS change in effective potential (target) :  0.330652E-07  ( 0.100000E-05)
 Absolute change in total energy   (target) :  0.101024E-06  ( 0.100000E-05)
 Charge distance                   (target) :  0.371132E-07  ( 0.100000E-04)
 Abs. change in max-nonIBS-force   (target) :  0.126537E-06  ( 0.500000E-04)
 
++++++++++++++++++++++++++++++++++++++++++++++++++++++++++++++++++++++++++++++++
+ SCF iteration number :   15                                                  +
++++++++++++++++++++++++++++++++++++++++++++++++++++++++++++++++++++++++++++++++
 Total energy                               :      -304.79352025
 _______________________________________________________________
 Fermi energy                               :         0.51748019
 Kinetic energy                             :       303.61987516
 Coulomb energy                             :      -564.99822715
 Exchange energy                            :       -41.63641936
 Correlation energy                         :        -1.77874890
 
 DOS at Fermi energy (states/Ha/cell)       :         0.00000000
 
 Electron charges :
     core                                   :        16.00000000
     core leakage                           :         0.00340896
     valence                                :        32.00000000
     interstitial                           :        17.96352253
     charge in muffin-tin spheres :
                  atom     1     C          :         3.75458863
                  atom     2     C          :         3.75460986
                  atom     3     C          :         3.75450871
                  atom     4     C          :         3.75445378
                  atom     5     C          :         3.75496329
                  atom     6     C          :         3.75493202
                  atom     7     C          :         3.75420109
                  atom     8     C          :         3.75422009
     total charge in muffin-tins            :        30.03647747
     total charge                           :        48.00000000
 
 Estimated fundamental gap                  :         0.15293566
        valence-band maximum at    1      0.0000  0.0000  0.0000
     conduction-band minimum at   92      0.3750  0.3750  0.3333
 
 Wall time (seconds)                        :      1708.15
 
 RMS change in effective potential (target) :  0.324403E-07  ( 0.100000E-05)
 Absolute change in total energy   (target) :  0.638221E-07  ( 0.100000E-05)
 Charge distance                   (target) :  0.144069E-07  ( 0.100000E-04)
 Abs. change in max-nonIBS-force   (target) :  0.837034E-07  ( 0.500000E-04)
                                                                                
++++++++++++++++++++++++++++++++++++++++++++++++++++++++++++++++++++++++++++++++
| Convergency criteria checked for the last 2 iterations                       +
| Convergence targets achieved. Performing final SCF iteration                 +
++++++++++++++++++++++++++++++++++++++++++++++++++++++++++++++++++++++++++++++++
 Total energy                               :      -304.79352027
 _______________________________________________________________
 Fermi energy                               :         0.51748019
 Kinetic energy                             :       303.61987515
 Coulomb energy                             :      -564.99822716
 Exchange energy                            :       -41.63641936
 Correlation energy                         :        -1.77874890
 
 DOS at Fermi energy (states/Ha/cell)       :         0.00000000
 
 Electron charges :
     core                                   :        16.00000000
     core leakage                           :         0.00340896
     valence                                :        32.00000000
     interstitial                           :        17.96352253
     charge in muffin-tin spheres :
                  atom     1     C          :         3.75458864
                  atom     2     C          :         3.75460983
                  atom     3     C          :         3.75450872
                  atom     4     C          :         3.75445380
                  atom     5     C          :         3.75496329
                  atom     6     C          :         3.75493200
                  atom     7     C          :         3.75420111
                  atom     8     C          :         3.75422008
     total charge in muffin-tins            :        30.03647747
     total charge                           :        48.00000000
 
 Estimated fundamental gap                  :         0.15293566
        valence-band maximum at    1      0.0000  0.0000  0.0000
     conduction-band minimum at  174      0.6250  0.6250  0.6667
 
++++++++++++++++++++++++++++++++++++++++++++++++++++++++++++++++++++++++++++++++
+ Self-consistent loop stopped                                                 +
++++++++++++++++++++++++++++++++++++++++++++++++++++++++++++++++++++++++++++++++
 STATE.OUT is written
 
--------------------------------------------------------------------------------
- Writing atomic positions and forces                                          -
--------------------------------------------------------------------------------
 
 Atomic positions (lattice) :
 atom     1   C  :     0.99925948    0.00044431    0.99985190
 atom     2   C  :     0.75000000    0.75000000    0.75000000
 atom     3   C  :     0.50074052    0.49955569    0.50014810
 atom     4   C  :     0.25000000    0.25000000    0.25000000
 atom     5   C  :     0.06250000    0.06250000    0.81250000
 atom     6   C  :     0.81250000    0.81250000    0.56250000
 atom     7   C  :     0.56250000    0.56250000    0.31250000
 atom     8   C  :     0.31250000    0.31250000    0.06250000
 
 Total atomic forces including IBS (cartesian) :
 atom     1   C  :    -0.00168318   -0.00016267   -0.00016267
 atom     2   C  :    -0.00000369   -0.00001891   -0.00001891
 atom     3   C  :     0.00168185    0.00012816    0.00012816
 atom     4   C  :    -0.00000168   -0.00001759   -0.00001759
 atom     5   C  :     0.00033578    0.00008226    0.00008226
 atom     6   C  :    -0.00113859    0.00008418    0.00008418
 atom     7   C  :    -0.00034012   -0.00004982   -0.00004982
 atom     8   C  :     0.00114962   -0.00004562   -0.00004562
 
 Atomic force components including IBS (cartesian) :
 atom     1   C  :    -0.00176274   -0.00019836   -0.00019836   HF force
                 :     0.00004536    0.00003449    0.00003449   core correction
                 :     0.00003419    0.00000120    0.00000120   IBS correction
 atom     2   C  :    -0.00002447    0.00005892    0.00005892   HF force
                 :     0.00000709   -0.00007484   -0.00007484   core correction
                 :     0.00001369   -0.00000298   -0.00000298   IBS correction
 atom     3   C  :     0.00175247    0.00018232    0.00018232   HF force
                 :    -0.00006621   -0.00005200   -0.00005200   core correction
                 :    -0.00000441   -0.00000215   -0.00000215   IBS correction
 atom     4   C  :     0.00000568   -0.00007717   -0.00007717   HF force
                 :    -0.00002369    0.00005771    0.00005771   core correction
                 :     0.00001633    0.00000187    0.00000187   IBS correction
 atom     5   C  :     0.00033320    0.00005871    0.00005871   HF force
                 :     0.00002227    0.00002559    0.00002559   core correction
                 :    -0.00001969   -0.00000204   -0.00000204   IBS correction
 atom     6   C  :    -0.00125733    0.00005216    0.00005216   HF force
                 :     0.00012080    0.00003460    0.00003460   core correction
                 :    -0.00000206   -0.00000258   -0.00000258   IBS correction
 atom     7   C  :    -0.00033407   -0.00004434   -0.00004434   HF force
                 :     0.00000206   -0.00000848   -0.00000848   core correction
                 :    -0.00000810    0.00000300    0.00000300   IBS correction
 atom     8   C  :     0.00128725   -0.00003224   -0.00003224   HF force
                 :    -0.00010769   -0.00001706   -0.00001706   core correction
                 :    -0.00002994    0.00000368    0.00000368   IBS correction
 
********************************************************************************
* Groundstate module stopped                                                   *
********************************************************************************
 
 Total time spent (seconds)                 :      2013.64
================================================================================
| EXCITING NITROGEN-13 stopped                                                 =
================================================================================
