 
Distance between is =    1 (C), ia =    1 and
 is =    1 (C), ia =    1 :    0.000000000    
 is =    1 (C), ia =    2 :    4.768725406    
 is =    1 (C), ia =    3 :    4.774378905    
 is =    1 (C), ia =    4 :    4.768725406    
 is =    1 (C), ia =    5 :    2.923698039    
 is =    1 (C), ia =    6 :    5.598455515    
 is =    1 (C), ia =    7 :    2.923698039    
 is =    1 (C), ia =    8 :    2.923698039    
 
Distance between is =    1 (C), ia =    2 and
 is =    1 (C), ia =    1 :    4.768725406    
 is =    1 (C), ia =    2 :    0.000000000    
 is =    1 (C), ia =    3 :    4.768725406    
 is =    1 (C), ia =    4 :    4.763078634    
 is =    1 (C), ia =    5 :    2.919086545    
 is =    1 (C), ia =    6 :    2.919086545    
 is =    1 (C), ia =    7 :    5.591220284    
 is =    1 (C), ia =    8 :    2.928324127    
 
Distance between is =    1 (C), ia =    3 and
 is =    1 (C), ia =    1 :    4.774378905    
 is =    1 (C), ia =    2 :    4.768725406    
 is =    1 (C), ia =    3 :    0.000000000    
 is =    1 (C), ia =    4 :    4.768725406    
 is =    1 (C), ia =    5 :    2.923698039    
 is =    1 (C), ia =    6 :    2.923698039    
 is =    1 (C), ia =    7 :    2.923698039    
 is =    1 (C), ia =    8 :    5.598455515    
 
Distance between is =    1 (C), ia =    4 and
 is =    1 (C), ia =    1 :    4.768725406    
 is =    1 (C), ia =    2 :    4.763078634    
 is =    1 (C), ia =    3 :    4.768725406    
 is =    1 (C), ia =    4 :    0.000000000    
 is =    1 (C), ia =    5 :    5.596048623    
 is =    1 (C), ia =    6 :    2.919086545    
 is =    1 (C), ia =    7 :    2.928324127    
 is =    1 (C), ia =    8 :    2.919086545    
 
Distance between is =    1 (C), ia =    5 and
 is =    1 (C), ia =    1 :    2.923698039    
 is =    1 (C), ia =    2 :    2.919086545    
 is =    1 (C), ia =    3 :    2.923698039    
 is =    1 (C), ia =    4 :    5.596048623    
 is =    1 (C), ia =    5 :    0.000000000    
 is =    1 (C), ia =    6 :    4.774378905    
 is =    1 (C), ia =    7 :    4.774378905    
 is =    1 (C), ia =    8 :    4.774378905    
 
Distance between is =    1 (C), ia =    6 and
 is =    1 (C), ia =    1 :    5.598455515    
 is =    1 (C), ia =    2 :    2.919086545    
 is =    1 (C), ia =    3 :    2.923698039    
 is =    1 (C), ia =    4 :    2.919086545    
 is =    1 (C), ia =    5 :    4.774378905    
 is =    1 (C), ia =    6 :    0.000000000    
 is =    1 (C), ia =    7 :    4.774378905    
 is =    1 (C), ia =    8 :    4.774378905    
 
Distance between is =    1 (C), ia =    7 and
 is =    1 (C), ia =    1 :    2.923698039    
 is =    1 (C), ia =    2 :    5.591220284    
 is =    1 (C), ia =    3 :    2.923698039    
 is =    1 (C), ia =    4 :    2.928324127    
 is =    1 (C), ia =    5 :    4.774378905    
 is =    1 (C), ia =    6 :    4.774378905    
 is =    1 (C), ia =    7 :    0.000000000    
 is =    1 (C), ia =    8 :    4.774378905    
 
Distance between is =    1 (C), ia =    8 and
 is =    1 (C), ia =    1 :    2.923698039    
 is =    1 (C), ia =    2 :    2.928324127    
 is =    1 (C), ia =    3 :    5.598455515    
 is =    1 (C), ia =    4 :    2.919086545    
 is =    1 (C), ia =    5 :    4.774378905    
 is =    1 (C), ia =    6 :    4.774378905    
 is =    1 (C), ia =    7 :    4.774378905    
 is =    1 (C), ia =    8 :    0.000000000    
