 
Species :    1 (C), atom :    1
 n =  1, l =  0, k =  1 :   -9.327471849    
 
Species :    1 (C), atom :    2
 n =  1, l =  0, k =  1 :   -9.327468337    
 
Species :    1 (C), atom :    3
 n =  1, l =  0, k =  1 :   -9.327431572    
 
Species :    1 (C), atom :    4
 n =  1, l =  0, k =  1 :   -9.327463217    
 
Species :    1 (C), atom :    5
 n =  1, l =  0, k =  1 :   -9.327412244    
 
Species :    1 (C), atom :    6
 n =  1, l =  0, k =  1 :   -9.327471062    
 
Species :    1 (C), atom :    7
 n =  1, l =  0, k =  1 :   -9.327450117    
 
Species :    1 (C), atom :    8
 n =  1, l =  0, k =  1 :   -9.327377801    
