================================================================================
| EXCITING NITROGEN-13 started                                                 =
| version hash id: de0c1dba9f665d6c60514aa9e8bf40326ac9f394                    =
|                                                                              =
|                                                                              =
| Date (DD-MM-YYYY) : 04-05-2022                                               =
| Time (hh:mm:ss)   : 06:58:33                                                 =
|                                                                              =
| All units are atomic (Hartree, Bohr, etc.)                                   =
================================================================================
 
********************************************************************************
* Ground-state run resuming from STATE.OUT                                     *
********************************************************************************
 
++++++++++++++++++++++++++++++++++++++++++++++++++++++++++++++++++++++++++++++++
+ Starting initialization                                                      +
++++++++++++++++++++++++++++++++++++++++++++++++++++++++++++++++++++++++++++++++
 
 Lattice vectors (cartesian) :
     -3.3759957000      0.0000000000     -3.3759957000
     -3.3759957000     -6.7519914000      3.3759957000
     -6.7519914000      3.3759957000      3.3759957000
 
 Reciprocal lattice vectors (cartesian) :
     -0.6979257972     -0.2326419324     -1.1632096620
     -0.2326419324     -0.6979257972      0.2326419324
     -0.4652838648      0.4652838648      0.4652838648
 
 Unit cell volume                           :     307.8191548003
 Brillouin zone volume                      :       0.8058309874
 
 Species :    1 (C)
     parameters loaded from                 :    C.xml
     name                                   :    carbon
     nuclear charge                         :      -6.00000000
     electronic charge                      :       6.00000000
     atomic mass                            :   21894.16673000
     muffin-tin radius                      :       1.25000000
     # of radial points in muffin-tin       :     250
 
     atomic positions (lattice) :
       1 :   0.00000000  0.00000000  0.00000000
       2 :   0.24911137  0.74970379  0.49940758
       3 :   0.50000000  0.50000000  0.00000000
       4 :   0.75088863  0.25029621  0.50059242
       5 :   0.43750000  0.81250000  0.12500000
       6 :   0.68750000  0.56250000  0.62500000
       7 :   0.93750000  0.31250000  0.12500000
       8 :   0.18750000  0.06250000  0.62500000
 
 Total number of atoms per unit cell        :       8
 
 Spin treatment                             :    spin-unpolarised
 
 Number of Bravais lattice symmetries       :       4
 Number of crystal symmetries               :       1
 
 Sphere radius used for k-point grid density:      33.42065234
 
 k-point grid                               :       8    5    5
 Total number of k-points                   :     200
 k-point set is reduced with crystal symmetries
 
 R^MT_min * |G+k|_max (rgkmax)              :       8.00000000
 Species with R^MT_min                      :       1 (C)
 Maximum |G+k| for APW functions            :       6.40000000
 Maximum |G| for potential and density      :      16.00000000
 
 G-vector grid sizes                        :      25    45    45
 Total number of G-vectors                  :   21191
 
 Maximum angular momentum used for
     APW functions                          :       8
     computing H and O matrix elements      :       8
     potential and density                  :       8
     inner part of muffin-tin               :       2
 
 Total nuclear charge                       :     -48.00000000
 Total electronic charge                    :      48.00000000
 Total core charge                          :      16.00000000
 Total valence charge                       :      32.00000000
 
 Number of empty states                     :      20
 Total number of valence states             :      37
 
 Maximum Hamiltonian size                   :    1408
 Maximum number of plane-waves              :    1376
 Total number of local-orbitals             :      32
 
 Exchange-correlation type                  :      20
     Perdew-Burke-Ernzerhof, Phys. Rev. Lett. 77, 3865 (1996)
     Generalised gradient approximation (GGA)
 
 Smearing scheme                            :    Gaussian
 Smearing width                             :       0.00010000
 
 Using multisecant Broyden potential mixing
 
++++++++++++++++++++++++++++++++++++++++++++++++++++++++++++++++++++++++++++++++
+ Ending initialization                                                        +
++++++++++++++++++++++++++++++++++++++++++++++++++++++++++++++++++++++++++++++++
 
********************************************************************************
* Groundstate module started                                                   *
********************************************************************************
 Output level for this task is set to normal
 
++++++++++++++++++++++++++++++++++++++++++++++++++++++++++++++++++++++++++++++++
+ Self-consistent loop started                                                 +
++++++++++++++++++++++++++++++++++++++++++++++++++++++++++++++++++++++++++++++++
 Potential read in from STATE.OUT
 
 
++++++++++++++++++++++++++++++++++++++++++++++++++++++++++++++++++++++++++++++++
+ SCF iteration number :    1                                                  +
++++++++++++++++++++++++++++++++++++++++++++++++++++++++++++++++++++++++++++++++
 Total energy                               :      -304.79356559
 _______________________________________________________________
 Fermi energy                               :         0.51735825
 Kinetic energy                             :       303.61985071
 Coulomb energy                             :      -564.99827308
 Exchange energy                            :       -41.63639047
 Correlation energy                         :        -1.77875275
 
 DOS at Fermi energy (states/Ha/cell)       :         0.00000000
 
 Electron charges :
     core                                   :        16.00000000
     core leakage                           :         0.00340897
     valence                                :        32.00000000
     interstitial                           :        17.96361502
     charge in muffin-tin spheres :
                  atom     1     C          :         3.75454117
                  atom     2     C          :         3.75446893
                  atom     3     C          :         3.75451551
                  atom     4     C          :         3.75457750
                  atom     5     C          :         3.75503338
                  atom     6     C          :         3.75501193
                  atom     7     C          :         3.75409294
                  atom     8     C          :         3.75414362
     total charge in muffin-tins            :        30.03638498
     total charge                           :        48.00000000
 
 Estimated fundamental gap                  :         0.15272844
        valence-band maximum at    1      0.0000  0.0000  0.0000
     conduction-band minimum at  102      0.6250  0.4000  0.4000
 
 Wall time (seconds)                        :       119.52
 
++++++++++++++++++++++++++++++++++++++++++++++++++++++++++++++++++++++++++++++++
+ SCF iteration number :    2                                                  +
++++++++++++++++++++++++++++++++++++++++++++++++++++++++++++++++++++++++++++++++
 Total energy                               :      -304.79349753
 _______________________________________________________________
 Fermi energy                               :         0.51735773
 Kinetic energy                             :       303.61988736
 Coulomb energy                             :      -564.99824514
 Exchange energy                            :       -41.63638672
 Correlation energy                         :        -1.77875303
 
 DOS at Fermi energy (states/Ha/cell)       :         0.00000000
 
 Electron charges :
     core                                   :        16.00000000
     core leakage                           :         0.00340897
     valence                                :        32.00000000
     interstitial                           :        17.96362792
     charge in muffin-tin spheres :
                  atom     1     C          :         3.75452635
                  atom     2     C          :         3.75446175
                  atom     3     C          :         3.75453201
                  atom     4     C          :         3.75457811
                  atom     5     C          :         3.75540886
                  atom     6     C          :         3.75543395
                  atom     7     C          :         3.75371519
                  atom     8     C          :         3.75371587
     total charge in muffin-tins            :        30.03637208
     total charge                           :        48.00000000
 
 Estimated fundamental gap                  :         0.15272741
        valence-band maximum at    1      0.0000  0.0000  0.0000
     conduction-band minimum at  148      0.3750  0.6000  0.6000
 
 Wall time (seconds)                        :       237.46
 
 RMS change in effective potential (target) :  0.111911E-02  ( 0.100000E-05)
 Absolute change in total energy   (target) :  0.680614E-04  ( 0.100000E-05)
 Charge distance                   (target) :  0.234536E-03  ( 0.100000E-04)
 Abs. change in max-nonIBS-force   (target) :  0.109526E-01  ( 0.500000E-04)
 
++++++++++++++++++++++++++++++++++++++++++++++++++++++++++++++++++++++++++++++++
+ SCF iteration number :    3                                                  +
++++++++++++++++++++++++++++++++++++++++++++++++++++++++++++++++++++++++++++++++
 Total energy                               :      -304.79351988
 _______________________________________________________________
 Fermi energy                               :         0.51735790
 Kinetic energy                             :       303.61987751
 Coulomb energy                             :      -564.99825677
 Exchange energy                            :       -41.63638755
 Correlation energy                         :        -1.77875307
 
 DOS at Fermi energy (states/Ha/cell)       :         0.00000000
 
 Electron charges :
     core                                   :        16.00000000
     core leakage                           :         0.00340897
     valence                                :        32.00000000
     interstitial                           :        17.96362356
     charge in muffin-tin spheres :
                  atom     1     C          :         3.75452922
                  atom     2     C          :         3.75443370
                  atom     3     C          :         3.75453007
                  atom     4     C          :         3.75460633
                  atom     5     C          :         3.75539190
                  atom     6     C          :         3.75545691
                  atom     7     C          :         3.75373277
                  atom     8     C          :         3.75369554
     total charge in muffin-tins            :        30.03637644
     total charge                           :        48.00000000
 
 Estimated fundamental gap                  :         0.15272719
        valence-band maximum at    1      0.0000  0.0000  0.0000
     conduction-band minimum at  148      0.3750  0.6000  0.6000
 
 Wall time (seconds)                        :       354.48
 
 RMS change in effective potential (target) :  0.782359E-03  ( 0.100000E-05)
 Absolute change in total energy   (target) :  0.223444E-04  ( 0.100000E-05)
 Charge distance                   (target) :  0.904869E-04  ( 0.100000E-04)
 Abs. change in max-nonIBS-force   (target) :  0.368938E-02  ( 0.500000E-04)
 
++++++++++++++++++++++++++++++++++++++++++++++++++++++++++++++++++++++++++++++++
+ SCF iteration number :    4                                                  +
++++++++++++++++++++++++++++++++++++++++++++++++++++++++++++++++++++++++++++++++
 Total energy                               :      -304.79353402
 _______________________________________________________________
 Fermi energy                               :         0.51735772
 Kinetic energy                             :       303.61987254
 Coulomb energy                             :      -564.99826567
 Exchange energy                            :       -41.63638785
 Correlation energy                         :        -1.77875304
 
 DOS at Fermi energy (states/Ha/cell)       :         0.00000000
 
 Electron charges :
     core                                   :        16.00000000
     core leakage                           :         0.00340897
     valence                                :        32.00000000
     interstitial                           :        17.96361861
     charge in muffin-tin spheres :
                  atom     1     C          :         3.75465651
                  atom     2     C          :         3.75483986
                  atom     3     C          :         3.75439329
                  atom     4     C          :         3.75419812
                  atom     5     C          :         3.75507683
                  atom     6     C          :         3.75459474
                  atom     7     C          :         3.75405497
                  atom     8     C          :         3.75456708
     total charge in muffin-tins            :        30.03638139
     total charge                           :        48.00000000
 
 Estimated fundamental gap                  :         0.15272594
        valence-band maximum at    1      0.0000  0.0000  0.0000
     conduction-band minimum at  148      0.3750  0.6000  0.6000
 
 Wall time (seconds)                        :       473.06
 
 RMS change in effective potential (target) :  0.482687E-03  ( 0.100000E-05)
 Absolute change in total energy   (target) :  0.141448E-04  ( 0.100000E-05)
 Charge distance                   (target) :  0.203876E-03  ( 0.100000E-04)
 Abs. change in max-nonIBS-force   (target) :  0.349587E-02  ( 0.500000E-04)
 
++++++++++++++++++++++++++++++++++++++++++++++++++++++++++++++++++++++++++++++++
+ SCF iteration number :    5                                                  +
++++++++++++++++++++++++++++++++++++++++++++++++++++++++++++++++++++++++++++++++
 Total energy                               :      -304.79356872
 _______________________________________________________________
 Fermi energy                               :         0.51735770
 Kinetic energy                             :       303.61984550
 Coulomb energy                             :      -564.99827223
 Exchange energy                            :       -41.63638893
 Correlation energy                         :        -1.77875306
 
 DOS at Fermi energy (states/Ha/cell)       :         0.00000000
 
 Electron charges :
     core                                   :        16.00000000
     core leakage                           :         0.00340897
     valence                                :        32.00000000
     interstitial                           :        17.96361636
     charge in muffin-tin spheres :
                  atom     1     C          :         3.75448828
                  atom     2     C          :         3.75439035
                  atom     3     C          :         3.75457083
                  atom     4     C          :         3.75465234
                  atom     5     C          :         3.75516357
                  atom     6     C          :         3.75531291
                  atom     7     C          :         3.75396129
                  atom     8     C          :         3.75384408
     total charge in muffin-tins            :        30.03638364
     total charge                           :        48.00000000
 
 Estimated fundamental gap                  :         0.15272606
        valence-band maximum at    1      0.0000  0.0000  0.0000
     conduction-band minimum at  148      0.3750  0.6000  0.6000
 
 Wall time (seconds)                        :       590.88
 
 RMS change in effective potential (target) :  0.155781E-03  ( 0.100000E-05)
 Absolute change in total energy   (target) :  0.347047E-04  ( 0.100000E-05)
 Charge distance                   (target) :  0.133389E-03  ( 0.100000E-04)
 Abs. change in max-nonIBS-force   (target) :  0.254499E-02  ( 0.500000E-04)
 
++++++++++++++++++++++++++++++++++++++++++++++++++++++++++++++++++++++++++++++++
+ SCF iteration number :    6                                                  +
++++++++++++++++++++++++++++++++++++++++++++++++++++++++++++++++++++++++++++++++
 Total energy                               :      -304.79356887
 _______________________________________________________________
 Fermi energy                               :         0.51735779
 Kinetic energy                             :       303.61984591
 Coulomb energy                             :      -564.99827265
 Exchange energy                            :       -41.63638906
 Correlation energy                         :        -1.77875307
 
 DOS at Fermi energy (states/Ha/cell)       :         0.00000000
 
 Electron charges :
     core                                   :        16.00000000
     core leakage                           :         0.00340897
     valence                                :        32.00000000
     interstitial                           :        17.96361613
     charge in muffin-tin spheres :
                  atom     1     C          :         3.75457228
                  atom     2     C          :         3.75448874
                  atom     3     C          :         3.75448588
                  atom     4     C          :         3.75455235
                  atom     5     C          :         3.75529201
                  atom     6     C          :         3.75528350
                  atom     7     C          :         3.75383540
                  atom     8     C          :         3.75387371
     total charge in muffin-tins            :        30.03638387
     total charge                           :        48.00000000
 
 Estimated fundamental gap                  :         0.15272611
        valence-band maximum at    1      0.0000  0.0000  0.0000
     conduction-band minimum at  148      0.3750  0.6000  0.6000
 
 Wall time (seconds)                        :       710.07
 
 RMS change in effective potential (target) :  0.959814E-04  ( 0.100000E-05)
 Absolute change in total energy   (target) :  0.148594E-06  ( 0.100000E-05)
 Charge distance                   (target) :  0.261334E-04  ( 0.100000E-04)
 Abs. change in max-nonIBS-force   (target) :  0.243422E-03  ( 0.500000E-04)
 
++++++++++++++++++++++++++++++++++++++++++++++++++++++++++++++++++++++++++++++++
+ SCF iteration number :    7                                                  +
++++++++++++++++++++++++++++++++++++++++++++++++++++++++++++++++++++++++++++++++
 Total energy                               :      -304.79356140
 _______________________________________________________________
 Fermi energy                               :         0.51735784
 Kinetic energy                             :       303.61985217
 Coulomb energy                             :      -564.99827161
 Exchange energy                            :       -41.63638888
 Correlation energy                         :        -1.77875307
 
 DOS at Fermi energy (states/Ha/cell)       :         0.00000000
 
 Electron charges :
     core                                   :        16.00000000
     core leakage                           :         0.00340897
     valence                                :        32.00000000
     interstitial                           :        17.96361652
     charge in muffin-tin spheres :
                  atom     1     C          :         3.75453626
                  atom     2     C          :         3.75447280
                  atom     3     C          :         3.75452203
                  atom     4     C          :         3.75456836
                  atom     5     C          :         3.75525001
                  atom     6     C          :         3.75528168
                  atom     7     C          :         3.75387648
                  atom     8     C          :         3.75387586
     total charge in muffin-tins            :        30.03638348
     total charge                           :        48.00000000
 
 Estimated fundamental gap                  :         0.15272610
        valence-band maximum at    1      0.0000  0.0000  0.0000
     conduction-band minimum at  148      0.3750  0.6000  0.6000
 
 Wall time (seconds)                        :       828.62
 
 RMS change in effective potential (target) :  0.760929E-04  ( 0.100000E-05)
 Absolute change in total energy   (target) :  0.747652E-05  ( 0.100000E-05)
 Charge distance                   (target) :  0.123333E-04  ( 0.100000E-04)
 Abs. change in max-nonIBS-force   (target) :  0.494738E-03  ( 0.500000E-04)
 
++++++++++++++++++++++++++++++++++++++++++++++++++++++++++++++++++++++++++++++++
+ SCF iteration number :    8                                                  +
++++++++++++++++++++++++++++++++++++++++++++++++++++++++++++++++++++++++++++++++
 Total energy                               :      -304.79355661
 _______________________________________________________________
 Fermi energy                               :         0.51735788
 Kinetic energy                             :       303.61985611
 Coulomb energy                             :      -564.99827087
 Exchange energy                            :       -41.63638876
 Correlation energy                         :        -1.77875307
 
 DOS at Fermi energy (states/Ha/cell)       :         0.00000000
 
 Electron charges :
     core                                   :        16.00000000
     core leakage                           :         0.00340897
     valence                                :        32.00000000
     interstitial                           :        17.96361678
     charge in muffin-tin spheres :
                  atom     1     C          :         3.75454904
                  atom     2     C          :         3.75447817
                  atom     3     C          :         3.75450920
                  atom     4     C          :         3.75456343
                  atom     5     C          :         3.75527474
                  atom     6     C          :         3.75529144
                  atom     7     C          :         3.75385183
                  atom     8     C          :         3.75386537
     total charge in muffin-tins            :        30.03638322
     total charge                           :        48.00000000
 
 Estimated fundamental gap                  :         0.15272611
        valence-band maximum at    1      0.0000  0.0000  0.0000
     conduction-band minimum at  102      0.6250  0.4000  0.4000
 
 Wall time (seconds)                        :       947.08
 
 RMS change in effective potential (target) :  0.555496E-04  ( 0.100000E-05)
 Absolute change in total energy   (target) :  0.478963E-05  ( 0.100000E-05)
 Charge distance                   (target) :  0.795229E-05  ( 0.100000E-04)
 Abs. change in max-nonIBS-force   (target) :  0.709542E-03  ( 0.500000E-04)
 
++++++++++++++++++++++++++++++++++++++++++++++++++++++++++++++++++++++++++++++++
+ SCF iteration number :    9                                                  +
++++++++++++++++++++++++++++++++++++++++++++++++++++++++++++++++++++++++++++++++
 Total energy                               :      -304.79354466
 _______________________________________________________________
 Fermi energy                               :         0.51735799
 Kinetic energy                             :       303.61986600
 Coulomb energy                             :      -564.99826910
 Exchange energy                            :       -41.63638848
 Correlation energy                         :        -1.77875308
 
 DOS at Fermi energy (states/Ha/cell)       :         0.00000000
 
 Electron charges :
     core                                   :        16.00000000
     core leakage                           :         0.00340897
     valence                                :        32.00000000
     interstitial                           :        17.96361742
     charge in muffin-tin spheres :
                  atom     1     C          :         3.75454057
                  atom     2     C          :         3.75448504
                  atom     3     C          :         3.75451767
                  atom     4     C          :         3.75455579
                  atom     5     C          :         3.75528183
                  atom     6     C          :         3.75530929
                  atom     7     C          :         3.75384465
                  atom     8     C          :         3.75384774
     total charge in muffin-tins            :        30.03638258
     total charge                           :        48.00000000
 
 Estimated fundamental gap                  :         0.15272609
        valence-band maximum at    1      0.0000  0.0000  0.0000
     conduction-band minimum at  148      0.3750  0.6000  0.6000
 
 Wall time (seconds)                        :      1065.71
 
 RMS change in effective potential (target) :  0.154610E-04  ( 0.100000E-05)
 Absolute change in total energy   (target) :  0.119466E-04  ( 0.100000E-05)
 Charge distance                   (target) :  0.137664E-04  ( 0.100000E-04)
 Abs. change in max-nonIBS-force   (target) :  0.636942E-03  ( 0.500000E-04)
 
++++++++++++++++++++++++++++++++++++++++++++++++++++++++++++++++++++++++++++++++
+ SCF iteration number :   10                                                  +
++++++++++++++++++++++++++++++++++++++++++++++++++++++++++++++++++++++++++++++++
 Total energy                               :      -304.79354155
 _______________________________________________________________
 Fermi energy                               :         0.51735802
 Kinetic energy                             :       303.61986864
 Coulomb energy                             :      -564.99826868
 Exchange energy                            :       -41.63638843
 Correlation energy                         :        -1.77875308
 
 DOS at Fermi energy (states/Ha/cell)       :         0.00000000
 
 Electron charges :
     core                                   :        16.00000000
     core leakage                           :         0.00340897
     valence                                :        32.00000000
     interstitial                           :        17.96361756
     charge in muffin-tin spheres :
                  atom     1     C          :         3.75453924
                  atom     2     C          :         3.75448238
                  atom     3     C          :         3.75451893
                  atom     4     C          :         3.75456018
                  atom     5     C          :         3.75529948
                  atom     6     C          :         3.75530975
                  atom     7     C          :         3.75382661
                  atom     8     C          :         3.75384587
     total charge in muffin-tins            :        30.03638244
     total charge                           :        48.00000000
 
 Estimated fundamental gap                  :         0.15272611
        valence-band maximum at    1      0.0000  0.0000  0.0000
     conduction-band minimum at  102      0.6250  0.4000  0.4000
 
 Wall time (seconds)                        :      1182.81
 
 RMS change in effective potential (target) :  0.437175E-05  ( 0.100000E-05)
 Absolute change in total energy   (target) :  0.311035E-05  ( 0.100000E-05)
 Charge distance                   (target) :  0.468340E-05  ( 0.100000E-04)
 Abs. change in max-nonIBS-force   (target) :  0.132428E-03  ( 0.500000E-04)
 
++++++++++++++++++++++++++++++++++++++++++++++++++++++++++++++++++++++++++++++++
+ SCF iteration number :   11                                                  +
++++++++++++++++++++++++++++++++++++++++++++++++++++++++++++++++++++++++++++++++
 Total energy                               :      -304.79354138
 _______________________________________________________________
 Fermi energy                               :         0.51735802
 Kinetic energy                             :       303.61986877
 Coulomb energy                             :      -564.99826864
 Exchange energy                            :       -41.63638842
 Correlation energy                         :        -1.77875308
 
 DOS at Fermi energy (states/Ha/cell)       :         0.00000000
 
 Electron charges :
     core                                   :        16.00000000
     core leakage                           :         0.00340897
     valence                                :        32.00000000
     interstitial                           :        17.96361757
     charge in muffin-tin spheres :
                  atom     1     C          :         3.75454269
                  atom     2     C          :         3.75448610
                  atom     3     C          :         3.75451565
                  atom     4     C          :         3.75455529
                  atom     5     C          :         3.75529603
                  atom     6     C          :         3.75531409
                  atom     7     C          :         3.75383017
                  atom     8     C          :         3.75384240
     total charge in muffin-tins            :        30.03638243
     total charge                           :        48.00000000
 
 Estimated fundamental gap                  :         0.15272610
        valence-band maximum at    1      0.0000  0.0000  0.0000
     conduction-band minimum at  148      0.3750  0.6000  0.6000
 
 Wall time (seconds)                        :      1303.38
 
 RMS change in effective potential (target) :  0.526056E-06  ( 0.100000E-05)
 Absolute change in total energy   (target) :  0.169092E-06  ( 0.100000E-05)
 Charge distance                   (target) :  0.990156E-06  ( 0.100000E-04)
 Abs. change in max-nonIBS-force   (target) :  0.664179E-05  ( 0.500000E-04)
 
++++++++++++++++++++++++++++++++++++++++++++++++++++++++++++++++++++++++++++++++
+ SCF iteration number :   12                                                  +
++++++++++++++++++++++++++++++++++++++++++++++++++++++++++++++++++++++++++++++++
 Total energy                               :      -304.79354133
 _______________________________________________________________
 Fermi energy                               :         0.51735802
 Kinetic energy                             :       303.61986880
 Coulomb energy                             :      -564.99826862
 Exchange energy                            :       -41.63638842
 Correlation energy                         :        -1.77875308
 
 DOS at Fermi energy (states/Ha/cell)       :         0.00000000
 
 Electron charges :
     core                                   :        16.00000000
     core leakage                           :         0.00340897
     valence                                :        32.00000000
     interstitial                           :        17.96361758
     charge in muffin-tin spheres :
                  atom     1     C          :         3.75454208
                  atom     2     C          :         3.75448628
                  atom     3     C          :         3.75451605
                  atom     4     C          :         3.75455531
                  atom     5     C          :         3.75529630
                  atom     6     C          :         3.75531433
                  atom     7     C          :         3.75383013
                  atom     8     C          :         3.75384195
     total charge in muffin-tins            :        30.03638242
     total charge                           :        48.00000000
 
 Estimated fundamental gap                  :         0.15272610
        valence-band maximum at    1      0.0000  0.0000  0.0000
     conduction-band minimum at  102      0.6250  0.4000  0.4000
 
 Wall time (seconds)                        :      1423.14
 
 RMS change in effective potential (target) :  0.190003E-06  ( 0.100000E-05)
 Absolute change in total energy   (target) :  0.560801E-07  ( 0.100000E-05)
 Charge distance                   (target) :  0.202297E-06  ( 0.100000E-04)
 Abs. change in max-nonIBS-force   (target) :  0.785380E-06  ( 0.500000E-04)
                                                                                
++++++++++++++++++++++++++++++++++++++++++++++++++++++++++++++++++++++++++++++++
| Convergency criteria checked for the last 2 iterations                       +
| Convergence targets achieved. Performing final SCF iteration                 +
++++++++++++++++++++++++++++++++++++++++++++++++++++++++++++++++++++++++++++++++
 Total energy                               :      -304.79354133
 _______________________________________________________________
 Fermi energy                               :         0.51735802
 Kinetic energy                             :       303.61986880
 Coulomb energy                             :      -564.99826863
 Exchange energy                            :       -41.63638842
 Correlation energy                         :        -1.77875308
 
 DOS at Fermi energy (states/Ha/cell)       :         0.00000000
 
 Electron charges :
     core                                   :        16.00000000
     core leakage                           :         0.00340897
     valence                                :        32.00000000
     interstitial                           :        17.96361758
     charge in muffin-tin spheres :
                  atom     1     C          :         3.75454228
                  atom     2     C          :         3.75448594
                  atom     3     C          :         3.75451609
                  atom     4     C          :         3.75455541
                  atom     5     C          :         3.75529596
                  atom     6     C          :         3.75531440
                  atom     7     C          :         3.75383022
                  atom     8     C          :         3.75384212
     total charge in muffin-tins            :        30.03638242
     total charge                           :        48.00000000
 
 Estimated fundamental gap                  :         0.15272610
        valence-band maximum at    1      0.0000  0.0000  0.0000
     conduction-band minimum at  148      0.3750  0.6000  0.6000
 
++++++++++++++++++++++++++++++++++++++++++++++++++++++++++++++++++++++++++++++++
+ Self-consistent loop stopped                                                 +
++++++++++++++++++++++++++++++++++++++++++++++++++++++++++++++++++++++++++++++++
 STATE.OUT is written
 
--------------------------------------------------------------------------------
- Writing atomic positions and forces                                          -
--------------------------------------------------------------------------------
 
 Atomic positions (lattice) :
 atom     1   C  :     0.00000000    0.00000000    0.00000000
 atom     2   C  :     0.24911137    0.74970379    0.49940758
 atom     3   C  :     0.50000000    0.50000000    0.00000000
 atom     4   C  :     0.75088863    0.25029621    0.50059242
 atom     5   C  :     0.43750000    0.81250000    0.12500000
 atom     6   C  :     0.68750000    0.56250000    0.62500000
 atom     7   C  :     0.93750000    0.31250000    0.12500000
 atom     8   C  :     0.18750000    0.06250000    0.62500000
 
 Total atomic forces including IBS (cartesian) :
 atom     1   C  :     0.00000750    0.00021642   -0.00000314
 atom     2   C  :    -0.00338652   -0.00025575    0.00026762
 atom     3   C  :     0.00001054   -0.00025769   -0.00000524
 atom     4   C  :     0.00339017    0.00022496   -0.00026635
 atom     5   C  :     0.00071597   -0.00010800   -0.00012867
 atom     6   C  :     0.00073576   -0.00017657    0.00058045
 atom     7   C  :    -0.00070782    0.00012582    0.00011187
 atom     8   C  :    -0.00076560    0.00023082   -0.00055653
 
 Atomic force components including IBS (cartesian) :
 atom     1   C  :    -0.00000424    0.00016262   -0.00021924   HF force
                 :    -0.00000378    0.00006228    0.00020480   core correction
                 :     0.00001552   -0.00000848    0.00001129   IBS correction
 atom     2   C  :    -0.00313761   -0.00033803    0.00023718   HF force
                 :    -0.00030049    0.00008765    0.00002566   core correction
                 :     0.00005157   -0.00000538    0.00000478   IBS correction
 atom     3   C  :    -0.00002999   -0.00026200    0.00016919   HF force
                 :     0.00002474    0.00001117   -0.00017874   core correction
                 :     0.00001579   -0.00000686    0.00000431   IBS correction
 atom     4   C  :     0.00308467    0.00025582   -0.00027002   HF force
                 :     0.00032436   -0.00001915   -0.00000541   core correction
                 :    -0.00001886   -0.00001171    0.00000908   IBS correction
 atom     5   C  :     0.00083492   -0.00015332   -0.00017924   HF force
                 :    -0.00009185    0.00003256    0.00005302   core correction
                 :    -0.00002710    0.00001277   -0.00000245   IBS correction
 atom     6   C  :     0.00076189   -0.00009577    0.00068681   HF force
                 :    -0.00000682   -0.00009375   -0.00008761   core correction
                 :    -0.00001932    0.00001295   -0.00001875   IBS correction
 atom     7   C  :    -0.00076822    0.00021918    0.00018917   HF force
                 :     0.00006675   -0.00009916   -0.00006847   core correction
                 :    -0.00000635    0.00000580   -0.00000884   IBS correction
 atom     8   C  :    -0.00074143    0.00021150   -0.00061384   HF force
                 :    -0.00001293    0.00001840    0.00005674   core correction
                 :    -0.00001124    0.00000092    0.00000057   IBS correction
 
********************************************************************************
* Groundstate module stopped                                                   *
********************************************************************************
 
 Total time spent (seconds)                 :      1726.34
================================================================================
| EXCITING NITROGEN-13 stopped                                                 =
================================================================================
