================================================================================
| EXCITING NITROGEN-13 started                                                 =
| version hash id: de0c1dba9f665d6c60514aa9e8bf40326ac9f394                    =
|                                                                              =
|                                                                              =
| Date (DD-MM-YYYY) : 04-05-2022                                               =
| Time (hh:mm:ss)   : 05:59:08                                                 =
|                                                                              =
| All units are atomic (Hartree, Bohr, etc.)                                   =
================================================================================
 
********************************************************************************
* Ground-state run resuming from STATE.OUT                                     *
********************************************************************************
 
++++++++++++++++++++++++++++++++++++++++++++++++++++++++++++++++++++++++++++++++
+ Starting initialization                                                      +
++++++++++++++++++++++++++++++++++++++++++++++++++++++++++++++++++++++++++++++++
 
 Lattice vectors (cartesian) :
     -3.3759957000      0.0000000000     -3.3759957000
     -3.3759957000     -6.7519914000      3.3759957000
     -6.7519914000      3.3759957000      3.3759957000
 
 Reciprocal lattice vectors (cartesian) :
     -0.6979257972     -0.2326419324     -1.1632096620
     -0.2326419324     -0.6979257972      0.2326419324
     -0.4652838648      0.4652838648      0.4652838648
 
 Unit cell volume                           :     307.8191548003
 Brillouin zone volume                      :       0.8058309874
 
 Species :    1 (C)
     parameters loaded from                 :    C.xml
     name                                   :    carbon
     nuclear charge                         :      -6.00000000
     electronic charge                      :       6.00000000
     atomic mass                            :   21894.16673000
     muffin-tin radius                      :       1.25000000
     # of radial points in muffin-tin       :     250
 
     atomic positions (lattice) :
       1 :   0.99911137  0.99970379  0.99940758
       2 :   0.25000000  0.75000000  0.50000000
       3 :   0.50088863  0.50029621  0.00059242
       4 :   0.75000000  0.25000000  0.50000000
       5 :   0.43750000  0.81250000  0.12500000
       6 :   0.68750000  0.56250000  0.62500000
       7 :   0.93750000  0.31250000  0.12500000
       8 :   0.18750000  0.06250000  0.62500000
 
 Total number of atoms per unit cell        :       8
 
 Spin treatment                             :    spin-unpolarised
 
 Number of Bravais lattice symmetries       :       4
 Number of crystal symmetries               :       1
 
 Sphere radius used for k-point grid density:      33.42065234
 
 k-point grid                               :       8    5    5
 Total number of k-points                   :     200
 k-point set is reduced with crystal symmetries
 
 R^MT_min * |G+k|_max (rgkmax)              :       8.00000000
 Species with R^MT_min                      :       1 (C)
 Maximum |G+k| for APW functions            :       6.40000000
 Maximum |G| for potential and density      :      16.00000000
 
 G-vector grid sizes                        :      25    45    45
 Total number of G-vectors                  :   21191
 
 Maximum angular momentum used for
     APW functions                          :       8
     computing H and O matrix elements      :       8
     potential and density                  :       8
     inner part of muffin-tin               :       2
 
 Total nuclear charge                       :     -48.00000000
 Total electronic charge                    :      48.00000000
 Total core charge                          :      16.00000000
 Total valence charge                       :      32.00000000
 
 Number of empty states                     :      20
 Total number of valence states             :      37
 
 Maximum Hamiltonian size                   :    1408
 Maximum number of plane-waves              :    1376
 Total number of local-orbitals             :      32
 
 Exchange-correlation type                  :      20
     Perdew-Burke-Ernzerhof, Phys. Rev. Lett. 77, 3865 (1996)
     Generalised gradient approximation (GGA)
 
 Smearing scheme                            :    Gaussian
 Smearing width                             :       0.00010000
 
 Using multisecant Broyden potential mixing
 
++++++++++++++++++++++++++++++++++++++++++++++++++++++++++++++++++++++++++++++++
+ Ending initialization                                                        +
++++++++++++++++++++++++++++++++++++++++++++++++++++++++++++++++++++++++++++++++
 
********************************************************************************
* Groundstate module started                                                   *
********************************************************************************
 Output level for this task is set to normal
 
++++++++++++++++++++++++++++++++++++++++++++++++++++++++++++++++++++++++++++++++
+ Self-consistent loop started                                                 +
++++++++++++++++++++++++++++++++++++++++++++++++++++++++++++++++++++++++++++++++
 Potential read in from STATE.OUT
 
 
++++++++++++++++++++++++++++++++++++++++++++++++++++++++++++++++++++++++++++++++
+ SCF iteration number :    1                                                  +
++++++++++++++++++++++++++++++++++++++++++++++++++++++++++++++++++++++++++++++++
 Total energy                               :      -304.79356640
 _______________________________________________________________
 Fermi energy                               :         0.51735825
 Kinetic energy                             :       303.61984993
 Coulomb energy                             :      -564.99827312
 Exchange energy                            :       -41.63639047
 Correlation energy                         :        -1.77875274
 
 DOS at Fermi energy (states/Ha/cell)       :         0.00000000
 
 Electron charges :
     core                                   :        16.00000000
     core leakage                           :         0.00340897
     valence                                :        32.00000000
     interstitial                           :        17.96361503
     charge in muffin-tin spheres :
                  atom     1     C          :         3.75450384
                  atom     2     C          :         3.75451532
                  atom     3     C          :         3.75457681
                  atom     4     C          :         3.75450716
                  atom     5     C          :         3.75499802
                  atom     6     C          :         3.75409969
                  atom     7     C          :         3.75413609
                  atom     8     C          :         3.75504806
     total charge in muffin-tins            :        30.03638497
     total charge                           :        48.00000000
 
 Estimated fundamental gap                  :         0.15272845
        valence-band maximum at    1      0.0000  0.0000  0.0000
     conduction-band minimum at  102      0.6250  0.4000  0.4000
 
 Wall time (seconds)                        :       118.54
 
++++++++++++++++++++++++++++++++++++++++++++++++++++++++++++++++++++++++++++++++
+ SCF iteration number :    2                                                  +
++++++++++++++++++++++++++++++++++++++++++++++++++++++++++++++++++++++++++++++++
 Total energy                               :      -304.79349747
 _______________________________________________________________
 Fermi energy                               :         0.51735774
 Kinetic energy                             :       303.61988729
 Coulomb energy                             :      -564.99824503
 Exchange energy                            :       -41.63638671
 Correlation energy                         :        -1.77875302
 
 DOS at Fermi energy (states/Ha/cell)       :         0.00000000
 
 Electron charges :
     core                                   :        16.00000000
     core leakage                           :         0.00340897
     valence                                :        32.00000000
     interstitial                           :        17.96362799
     charge in muffin-tin spheres :
                  atom     1     C          :         3.75449632
                  atom     2     C          :         3.75453184
                  atom     3     C          :         3.75457757
                  atom     4     C          :         3.75449230
                  atom     5     C          :         3.75542010
                  atom     6     C          :         3.75372188
                  atom     7     C          :         3.75370848
                  atom     8     C          :         3.75542351
     total charge in muffin-tins            :        30.03637201
     total charge                           :        48.00000000
 
 Estimated fundamental gap                  :         0.15272741
        valence-band maximum at    1      0.0000  0.0000  0.0000
     conduction-band minimum at  102      0.6250  0.4000  0.4000
 
 Wall time (seconds)                        :       239.19
 
 RMS change in effective potential (target) :  0.111895E-02  ( 0.100000E-05)
 Absolute change in total energy   (target) :  0.689359E-04  ( 0.100000E-05)
 Charge distance                   (target) :  0.234510E-03  ( 0.100000E-04)
 Abs. change in max-nonIBS-force   (target) :  0.109420E-01  ( 0.500000E-04)
 
++++++++++++++++++++++++++++++++++++++++++++++++++++++++++++++++++++++++++++++++
+ SCF iteration number :    3                                                  +
++++++++++++++++++++++++++++++++++++++++++++++++++++++++++++++++++++++++++++++++
 Total energy                               :      -304.79352002
 _______________________________________________________________
 Fermi energy                               :         0.51735791
 Kinetic energy                             :       303.61987721
 Coulomb energy                             :      -564.99825665
 Exchange energy                            :       -41.63638753
 Correlation energy                         :        -1.77875305
 
 DOS at Fermi energy (states/Ha/cell)       :         0.00000000
 
 Electron charges :
     core                                   :        16.00000000
     core leakage                           :         0.00340897
     valence                                :        32.00000000
     interstitial                           :        17.96362364
     charge in muffin-tin spheres :
                  atom     1     C          :         3.75446815
                  atom     2     C          :         3.75452987
                  atom     3     C          :         3.75460581
                  atom     4     C          :         3.75449523
                  atom     5     C          :         3.75544316
                  atom     6     C          :         3.75373947
                  atom     7     C          :         3.75368811
                  atom     8     C          :         3.75540657
     total charge in muffin-tins            :        30.03637636
     total charge                           :        48.00000000
 
 Estimated fundamental gap                  :         0.15272719
        valence-band maximum at    1      0.0000  0.0000  0.0000
     conduction-band minimum at  102      0.6250  0.4000  0.4000
 
 Wall time (seconds)                        :       356.50
 
 RMS change in effective potential (target) :  0.782216E-03  ( 0.100000E-05)
 Absolute change in total energy   (target) :  0.225562E-04  ( 0.100000E-05)
 Charge distance                   (target) :  0.904812E-04  ( 0.100000E-04)
 Abs. change in max-nonIBS-force   (target) :  0.368567E-02  ( 0.500000E-04)
 
++++++++++++++++++++++++++++++++++++++++++++++++++++++++++++++++++++++++++++++++
+ SCF iteration number :    4                                                  +
++++++++++++++++++++++++++++++++++++++++++++++++++++++++++++++++++++++++++++++++
 Total energy                               :      -304.79353398
 _______________________________________________________________
 Fermi energy                               :         0.51735777
 Kinetic energy                             :       303.61987248
 Coulomb energy                             :      -564.99826563
 Exchange energy                            :       -41.63638779
 Correlation energy                         :        -1.77875303
 
 DOS at Fermi energy (states/Ha/cell)       :         0.00000000
 
 Electron charges :
     core                                   :        16.00000000
     core leakage                           :         0.00340897
     valence                                :        32.00000000
     interstitial                           :        17.96361875
     charge in muffin-tin spheres :
                  atom     1     C          :         3.75487480
                  atom     2     C          :         3.75439321
                  atom     3     C          :         3.75419775
                  atom     4     C          :         3.75462234
                  atom     5     C          :         3.75458066
                  atom     6     C          :         3.75406156
                  atom     7     C          :         3.75455924
                  atom     8     C          :         3.75509170
     total charge in muffin-tins            :        30.03638125
     total charge                           :        48.00000000
 
 Estimated fundamental gap                  :         0.15272596
        valence-band maximum at    1      0.0000  0.0000  0.0000
     conduction-band minimum at  102      0.6250  0.4000  0.4000
 
 Wall time (seconds)                        :       473.59
 
 RMS change in effective potential (target) :  0.482674E-03  ( 0.100000E-05)
 Absolute change in total energy   (target) :  0.139548E-04  ( 0.100000E-05)
 Charge distance                   (target) :  0.203853E-03  ( 0.100000E-04)
 Abs. change in max-nonIBS-force   (target) :  0.348558E-02  ( 0.500000E-04)
 
++++++++++++++++++++++++++++++++++++++++++++++++++++++++++++++++++++++++++++++++
+ SCF iteration number :    5                                                  +
++++++++++++++++++++++++++++++++++++++++++++++++++++++++++++++++++++++++++++++++
 Total energy                               :      -304.79356890
 _______________________________________________________________
 Fermi energy                               :         0.51735774
 Kinetic energy                             :       303.61984524
 Coulomb energy                             :      -564.99827222
 Exchange energy                            :       -41.63638887
 Correlation energy                         :        -1.77875305
 
 DOS at Fermi energy (states/Ha/cell)       :         0.00000000
 
 Electron charges :
     core                                   :        16.00000000
     core leakage                           :         0.00340897
     valence                                :        32.00000000
     interstitial                           :        17.96361649
     charge in muffin-tin spheres :
                  atom     1     C          :         3.75442494
                  atom     2     C          :         3.75457069
                  atom     3     C          :         3.75465165
                  atom     4     C          :         3.75445427
                  atom     5     C          :         3.75529914
                  atom     6     C          :         3.75396788
                  atom     7     C          :         3.75383660
                  atom     8     C          :         3.75517835
     total charge in muffin-tins            :        30.03638351
     total charge                           :        48.00000000
 
 Estimated fundamental gap                  :         0.15272608
        valence-band maximum at    1      0.0000  0.0000  0.0000
     conduction-band minimum at  148      0.3750  0.6000  0.6000
 
 Wall time (seconds)                        :       591.37
 
 RMS change in effective potential (target) :  0.155597E-03  ( 0.100000E-05)
 Absolute change in total energy   (target) :  0.349225E-04  ( 0.100000E-05)
 Charge distance                   (target) :  0.133351E-03  ( 0.100000E-04)
 Abs. change in max-nonIBS-force   (target) :  0.255274E-02  ( 0.500000E-04)
 
++++++++++++++++++++++++++++++++++++++++++++++++++++++++++++++++++++++++++++++++
+ SCF iteration number :    6                                                  +
++++++++++++++++++++++++++++++++++++++++++++++++++++++++++++++++++++++++++++++++
 Total energy                               :      -304.79356899
 _______________________________________________________________
 Fermi energy                               :         0.51735783
 Kinetic energy                             :       303.61984571
 Coulomb energy                             :      -564.99827264
 Exchange energy                            :       -41.63638901
 Correlation energy                         :        -1.77875305
 
 DOS at Fermi energy (states/Ha/cell)       :         0.00000000
 
 Electron charges :
     core                                   :        16.00000000
     core leakage                           :         0.00340897
     valence                                :        32.00000000
     interstitial                           :        17.96361626
     charge in muffin-tin spheres :
                  atom     1     C          :         3.75452323
                  atom     2     C          :         3.75448568
                  atom     3     C          :         3.75455180
                  atom     4     C          :         3.75453826
                  atom     5     C          :         3.75526979
                  atom     6     C          :         3.75384203
                  atom     7     C          :         3.75386616
                  atom     8     C          :         3.75530681
     total charge in muffin-tins            :        30.03638374
     total charge                           :        48.00000000
 
 Estimated fundamental gap                  :         0.15272612
        valence-band maximum at    1      0.0000  0.0000  0.0000
     conduction-band minimum at  148      0.3750  0.6000  0.6000
 
 Wall time (seconds)                        :       710.52
 
 RMS change in effective potential (target) :  0.958500E-04  ( 0.100000E-05)
 Absolute change in total energy   (target) :  0.919884E-07  ( 0.100000E-05)
 Charge distance                   (target) :  0.261310E-04  ( 0.100000E-04)
 Abs. change in max-nonIBS-force   (target) :  0.243768E-03  ( 0.500000E-04)
 
++++++++++++++++++++++++++++++++++++++++++++++++++++++++++++++++++++++++++++++++
+ SCF iteration number :    7                                                  +
++++++++++++++++++++++++++++++++++++++++++++++++++++++++++++++++++++++++++++++++
 Total energy                               :      -304.79356153
 _______________________________________________________________
 Fermi energy                               :         0.51735788
 Kinetic energy                             :       303.61985194
 Coulomb energy                             :      -564.99827159
 Exchange energy                            :       -41.63638883
 Correlation energy                         :        -1.77875306
 
 DOS at Fermi energy (states/Ha/cell)       :         0.00000000
 
 Electron charges :
     core                                   :        16.00000000
     core leakage                           :         0.00340897
     valence                                :        32.00000000
     interstitial                           :        17.96361664
     charge in muffin-tin spheres :
                  atom     1     C          :         3.75450728
                  atom     2     C          :         3.75452189
                  atom     3     C          :         3.75456781
                  atom     4     C          :         3.75450222
                  atom     5     C          :         3.75526794
                  atom     6     C          :         3.75388313
                  atom     7     C          :         3.75386833
                  atom     8     C          :         3.75526474
     total charge in muffin-tins            :        30.03638336
     total charge                           :        48.00000000
 
 Estimated fundamental gap                  :         0.15272611
        valence-band maximum at    1      0.0000  0.0000  0.0000
     conduction-band minimum at  148      0.3750  0.6000  0.6000
 
 Wall time (seconds)                        :       828.40
 
 RMS change in effective potential (target) :  0.759640E-04  ( 0.100000E-05)
 Absolute change in total energy   (target) :  0.745733E-05  ( 0.100000E-05)
 Charge distance                   (target) :  0.123347E-04  ( 0.100000E-04)
 Abs. change in max-nonIBS-force   (target) :  0.493720E-03  ( 0.500000E-04)
 
++++++++++++++++++++++++++++++++++++++++++++++++++++++++++++++++++++++++++++++++
+ SCF iteration number :    8                                                  +
++++++++++++++++++++++++++++++++++++++++++++++++++++++++++++++++++++++++++++++++
 Total energy                               :      -304.79355669
 _______________________________________________________________
 Fermi energy                               :         0.51735792
 Kinetic energy                             :       303.61985593
 Coulomb energy                             :      -564.99827084
 Exchange energy                            :       -41.63638871
 Correlation energy                         :        -1.77875306
 
 DOS at Fermi energy (states/Ha/cell)       :         0.00000000
 
 Electron charges :
     core                                   :        16.00000000
     core leakage                           :         0.00340897
     valence                                :        32.00000000
     interstitial                           :        17.96361690
     charge in muffin-tin spheres :
                  atom     1     C          :         3.75451266
                  atom     2     C          :         3.75450904
                  atom     3     C          :         3.75456289
                  atom     4     C          :         3.75451500
                  atom     5     C          :         3.75527769
                  atom     6     C          :         3.75385850
                  atom     7     C          :         3.75385785
                  atom     8     C          :         3.75528946
     total charge in muffin-tins            :        30.03638310
     total charge                           :        48.00000000
 
 Estimated fundamental gap                  :         0.15272612
        valence-band maximum at    1      0.0000  0.0000  0.0000
     conduction-band minimum at  148      0.3750  0.6000  0.6000
 
 Wall time (seconds)                        :       945.40
 
 RMS change in effective potential (target) :  0.554478E-04  ( 0.100000E-05)
 Absolute change in total energy   (target) :  0.484741E-05  ( 0.100000E-05)
 Charge distance                   (target) :  0.794373E-05  ( 0.100000E-04)
 Abs. change in max-nonIBS-force   (target) :  0.705747E-03  ( 0.500000E-04)
 
++++++++++++++++++++++++++++++++++++++++++++++++++++++++++++++++++++++++++++++++
+ SCF iteration number :    9                                                  +
++++++++++++++++++++++++++++++++++++++++++++++++++++++++++++++++++++++++++++++++
 Total energy                               :      -304.79354471
 _______________________________________________________________
 Fermi energy                               :         0.51735802
 Kinetic energy                             :       303.61986586
 Coulomb energy                             :      -564.99826907
 Exchange energy                            :       -41.63638844
 Correlation energy                         :        -1.77875307
 
 DOS at Fermi energy (states/Ha/cell)       :         0.00000000
 
 Electron charges :
     core                                   :        16.00000000
     core leakage                           :         0.00340897
     valence                                :        32.00000000
     interstitial                           :        17.96361754
     charge in muffin-tin spheres :
                  atom     1     C          :         3.75451945
                  atom     2     C          :         3.75451753
                  atom     3     C          :         3.75455530
                  atom     4     C          :         3.75450653
                  atom     5     C          :         3.75529545
                  atom     6     C          :         3.75385141
                  atom     7     C          :         3.75384035
                  atom     8     C          :         3.75529644
     total charge in muffin-tins            :        30.03638246
     total charge                           :        48.00000000
 
 Estimated fundamental gap                  :         0.15272610
        valence-band maximum at    1      0.0000  0.0000  0.0000
     conduction-band minimum at  148      0.3750  0.6000  0.6000
 
 Wall time (seconds)                        :      1064.53
 
 RMS change in effective potential (target) :  0.155875E-04  ( 0.100000E-05)
 Absolute change in total energy   (target) :  0.119790E-04  ( 0.100000E-05)
 Charge distance                   (target) :  0.136848E-04  ( 0.100000E-04)
 Abs. change in max-nonIBS-force   (target) :  0.635034E-03  ( 0.500000E-04)
 
++++++++++++++++++++++++++++++++++++++++++++++++++++++++++++++++++++++++++++++++
+ SCF iteration number :   10                                                  +
++++++++++++++++++++++++++++++++++++++++++++++++++++++++++++++++++++++++++++++++
 Total energy                               :      -304.79354157
 _______________________________________________________________
 Fermi energy                               :         0.51735806
 Kinetic energy                             :       303.61986852
 Coulomb energy                             :      -564.99826864
 Exchange energy                            :       -41.63638838
 Correlation energy                         :        -1.77875307
 
 DOS at Fermi energy (states/Ha/cell)       :         0.00000000
 
 Electron charges :
     core                                   :        16.00000000
     core leakage                           :         0.00340897
     valence                                :        32.00000000
     interstitial                           :        17.96361768
     charge in muffin-tin spheres :
                  atom     1     C          :         3.75451686
                  atom     2     C          :         3.75451877
                  atom     3     C          :         3.75455967
                  atom     4     C          :         3.75450518
                  atom     5     C          :         3.75529592
                  atom     6     C          :         3.75383337
                  atom     7     C          :         3.75383840
                  atom     8     C          :         3.75531414
     total charge in muffin-tins            :        30.03638232
     total charge                           :        48.00000000
 
 Estimated fundamental gap                  :         0.15272612
        valence-band maximum at    1      0.0000  0.0000  0.0000
     conduction-band minimum at  148      0.3750  0.6000  0.6000
 
 Wall time (seconds)                        :      1181.15
 
 RMS change in effective potential (target) :  0.437029E-05  ( 0.100000E-05)
 Absolute change in total energy   (target) :  0.313866E-05  ( 0.100000E-05)
 Charge distance                   (target) :  0.470943E-05  ( 0.100000E-04)
 Abs. change in max-nonIBS-force   (target) :  0.133936E-03  ( 0.500000E-04)
 
++++++++++++++++++++++++++++++++++++++++++++++++++++++++++++++++++++++++++++++++
+ SCF iteration number :   11                                                  +
++++++++++++++++++++++++++++++++++++++++++++++++++++++++++++++++++++++++++++++++
 Total energy                               :      -304.79354138
 _______________________________________________________________
 Fermi energy                               :         0.51735806
 Kinetic energy                             :       303.61986866
 Coulomb energy                             :      -564.99826861
 Exchange energy                            :       -41.63638837
 Correlation energy                         :        -1.77875307
 
 DOS at Fermi energy (states/Ha/cell)       :         0.00000000
 
 Electron charges :
     core                                   :        16.00000000
     core leakage                           :         0.00340897
     valence                                :        32.00000000
     interstitial                           :        17.96361769
     charge in muffin-tin spheres :
                  atom     1     C          :         3.75452057
                  atom     2     C          :         3.75451549
                  atom     3     C          :         3.75455475
                  atom     4     C          :         3.75450867
                  atom     5     C          :         3.75530031
                  atom     6     C          :         3.75383692
                  atom     7     C          :         3.75383494
                  atom     8     C          :         3.75531067
     total charge in muffin-tins            :        30.03638231
     total charge                           :        48.00000000
 
 Estimated fundamental gap                  :         0.15272611
        valence-band maximum at    1      0.0000  0.0000  0.0000
     conduction-band minimum at  102      0.6250  0.4000  0.4000
 
 Wall time (seconds)                        :      1299.14
 
 RMS change in effective potential (target) :  0.533988E-06  ( 0.100000E-05)
 Absolute change in total energy   (target) :  0.184894E-06  ( 0.100000E-05)
 Charge distance                   (target) :  0.995670E-06  ( 0.100000E-04)
 Abs. change in max-nonIBS-force   (target) :  0.710542E-05  ( 0.500000E-04)
 
++++++++++++++++++++++++++++++++++++++++++++++++++++++++++++++++++++++++++++++++
+ SCF iteration number :   12                                                  +
++++++++++++++++++++++++++++++++++++++++++++++++++++++++++++++++++++++++++++++++
 Total energy                               :      -304.79354133
 _______________________________________________________________
 Fermi energy                               :         0.51735806
 Kinetic energy                             :       303.61986870
 Coulomb energy                             :      -564.99826858
 Exchange energy                            :       -41.63638837
 Correlation energy                         :        -1.77875307
 
 DOS at Fermi energy (states/Ha/cell)       :         0.00000000
 
 Electron charges :
     core                                   :        16.00000000
     core leakage                           :         0.00340897
     valence                                :        32.00000000
     interstitial                           :        17.96361770
     charge in muffin-tin spheres :
                  atom     1     C          :         3.75452074
                  atom     2     C          :         3.75451590
                  atom     3     C          :         3.75455481
                  atom     4     C          :         3.75450802
                  atom     5     C          :         3.75530051
                  atom     6     C          :         3.75383686
                  atom     7     C          :         3.75383450
                  atom     8     C          :         3.75531096
     total charge in muffin-tins            :        30.03638230
     total charge                           :        48.00000000
 
 Estimated fundamental gap                  :         0.15272611
        valence-band maximum at    1      0.0000  0.0000  0.0000
     conduction-band minimum at  102      0.6250  0.4000  0.4000
 
 Wall time (seconds)                        :      1416.28
 
 RMS change in effective potential (target) :  0.186371E-06  ( 0.100000E-05)
 Absolute change in total energy   (target) :  0.593009E-07  ( 0.100000E-05)
 Charge distance                   (target) :  0.201729E-06  ( 0.100000E-04)
 Abs. change in max-nonIBS-force   (target) :  0.778043E-06  ( 0.500000E-04)
                                                                                
++++++++++++++++++++++++++++++++++++++++++++++++++++++++++++++++++++++++++++++++
| Convergency criteria checked for the last 2 iterations                       +
| Convergence targets achieved. Performing final SCF iteration                 +
++++++++++++++++++++++++++++++++++++++++++++++++++++++++++++++++++++++++++++++++
 Total energy                               :      -304.79354133
 _______________________________________________________________
 Fermi energy                               :         0.51735806
 Kinetic energy                             :       303.61986870
 Coulomb energy                             :      -564.99826859
 Exchange energy                            :       -41.63638837
 Correlation energy                         :        -1.77875307
 
 DOS at Fermi energy (states/Ha/cell)       :         0.00000000
 
 Electron charges :
     core                                   :        16.00000000
     core leakage                           :         0.00340897
     valence                                :        32.00000000
     interstitial                           :        17.96361770
     charge in muffin-tin spheres :
                  atom     1     C          :         3.75452040
                  atom     2     C          :         3.75451594
                  atom     3     C          :         3.75455490
                  atom     4     C          :         3.75450824
                  atom     5     C          :         3.75530059
                  atom     6     C          :         3.75383694
                  atom     7     C          :         3.75383468
                  atom     8     C          :         3.75531062
     total charge in muffin-tins            :        30.03638230
     total charge                           :        48.00000000
 
 Estimated fundamental gap                  :         0.15272611
        valence-band maximum at    1      0.0000  0.0000  0.0000
     conduction-band minimum at  102      0.6250  0.4000  0.4000
 
++++++++++++++++++++++++++++++++++++++++++++++++++++++++++++++++++++++++++++++++
+ Self-consistent loop stopped                                                 +
++++++++++++++++++++++++++++++++++++++++++++++++++++++++++++++++++++++++++++++++
 STATE.OUT is written
 
--------------------------------------------------------------------------------
- Writing atomic positions and forces                                          -
--------------------------------------------------------------------------------
 
 Atomic positions (lattice) :
 atom     1   C  :     0.99911137    0.99970379    0.99940758
 atom     2   C  :     0.25000000    0.75000000    0.50000000
 atom     3   C  :     0.50088863    0.50029621    0.00059242
 atom     4   C  :     0.75000000    0.25000000    0.50000000
 atom     5   C  :     0.43750000    0.81250000    0.12500000
 atom     6   C  :     0.68750000    0.56250000    0.62500000
 atom     7   C  :     0.93750000    0.31250000    0.12500000
 atom     8   C  :     0.18750000    0.06250000    0.62500000
 
 Total atomic forces including IBS (cartesian) :
 atom     1   C  :    -0.00337940   -0.00026461    0.00026547
 atom     2   C  :     0.00000369   -0.00025164   -0.00000175
 atom     3   C  :     0.00339998    0.00022498   -0.00027250
 atom     4   C  :    -0.00000034    0.00021975    0.00000176
 atom     5   C  :     0.00074644   -0.00018622    0.00057893
 atom     6   C  :    -0.00072540    0.00011523    0.00012522
 atom     7   C  :    -0.00075390    0.00021716   -0.00058306
 atom     8   C  :     0.00070892   -0.00007464   -0.00011406
 
 Atomic force components including IBS (cartesian) :
 atom     1   C  :    -0.00312237   -0.00035728    0.00024177   HF force
                 :    -0.00030602    0.00009454    0.00002079   core correction
                 :     0.00004899   -0.00000187    0.00000291   IBS correction
 atom     2   C  :    -0.00004113   -0.00025197    0.00016817   HF force
                 :     0.00002771    0.00000862   -0.00017523   core correction
                 :     0.00001710   -0.00000829    0.00000531   IBS correction
 atom     3   C  :     0.00309605    0.00026261   -0.00028723   HF force
                 :     0.00032319   -0.00002384    0.00000262   core correction
                 :    -0.00001925   -0.00001379    0.00001210   IBS correction
 atom     4   C  :    -0.00001411    0.00016623   -0.00020455   HF force
                 :    -0.00000242    0.00006220    0.00019746   core correction
                 :     0.00001619   -0.00000868    0.00000885   IBS correction
 atom     5   C  :     0.00079406   -0.00009971    0.00068569   HF force
                 :    -0.00002191   -0.00009843   -0.00008821   core correction
                 :    -0.00002570    0.00001191   -0.00001855   IBS correction
 atom     6   C  :    -0.00080187    0.00020763    0.00020845   HF force
                 :     0.00007771   -0.00009839   -0.00007239   core correction
                 :    -0.00000124    0.00000599   -0.00001084   IBS correction
 atom     7   C  :    -0.00074503    0.00017836   -0.00066293   HF force
                 :    -0.00000176    0.00003225    0.00007257   core correction
                 :    -0.00000711    0.00000655    0.00000730   IBS correction
 atom     8   C  :     0.00083439   -0.00010586   -0.00014937   HF force
                 :    -0.00009650    0.00002305    0.00004238   core correction
                 :    -0.00002897    0.00000817   -0.00000707   IBS correction
 
********************************************************************************
* Groundstate module stopped                                                   *
********************************************************************************
 
 Total time spent (seconds)                 :      1721.12
================================================================================
| EXCITING NITROGEN-13 stopped                                                 =
================================================================================
