    -304.793566402    
    -304.793497466    
    -304.793520023    
    -304.793533977    
    -304.793568900    
    -304.793568992    
    -304.793561535    
    -304.793556687    
    -304.793544708    
    -304.793541569    
    -304.793541385    
    -304.793541325    
    -304.793541328    
 
