   0.000000000      0.2790126378E-01 : is =    1, ia =    1, ip =    1
 -0.6250681335E-01   0.000000000     : is =    1, ia =    1, ip =    2
  0.4473410198       0.000000000     : is =    1, ia =    1, ip =    3
   0.000000000     -0.4130033853E-01 : is =    1, ia =    2, ip =    1
 -0.3229440598E-01   0.000000000     : is =    1, ia =    2, ip =    2
 -0.1806051791       0.000000000     : is =    1, ia =    2, ip =    3
