 -0.1952141625       0.000000000     : is =    1, ia =    1, ip =    1
   0.000000000     -0.4131994378E-01 : is =    1, ia =    1, ip =    2
   0.000000000      0.4131994378E-01 : is =    1, ia =    1, ip =    3
  0.4601136497       0.000000000     : is =    1, ia =    2, ip =    1
   0.000000000     -0.2790730263E-01 : is =    1, ia =    2, ip =    2
   0.000000000      0.2790730263E-01 : is =    1, ia =    2, ip =    3
