 -0.2500859005E-01   0.000000000     : is =    1, ia =    1, ip =    1
 -0.6557149067E-01   0.000000000     : is =    1, ia =    1, ip =    2
   0.000000000      0.1611167006     : is =    1, ia =    1, ip =    3
   0.000000000     -0.4267196098E-01 : is =    1, ia =    2, ip =    1
   0.000000000     -0.8185958035E-02 : is =    1, ia =    2, ip =    2
  0.4384445727       0.000000000     : is =    1, ia =    2, ip =    3
