  0.3197560200E-01  0.1780111701E-01 : is =    1, ia =    1, ip =    1
 -0.2437780830      0.6990440977E-01 : is =    1, ia =    1, ip =    2
 -0.3197560200E-01 -0.1780111701E-01 : is =    1, ia =    1, ip =    3
  0.5263265463E-01  0.7261719105E-04 : is =    1, ia =    2, ip =    1
  0.4398479503      0.1778486238E-03 : is =    1, ia =    2, ip =    2
 -0.5263265463E-01 -0.7261719105E-04 : is =    1, ia =    2, ip =    3
