  0.4954921575E-01   0.000000000     : is =    1, ia =    1, ip =    1
 -0.2063211949       0.000000000     : is =    1, ia =    1, ip =    2
 -0.4954921575E-01   0.000000000     : is =    1, ia =    1, ip =    3
  0.6882844261E-01   0.000000000     : is =    1, ia =    2, ip =    1
  0.4596648537       0.000000000     : is =    1, ia =    2, ip =    2
 -0.6882844261E-01   0.000000000     : is =    1, ia =    2, ip =    3
