   0.000000000       0.000000000     : is =    1, ia =    1, ip =    1
  0.3853242447       0.000000000     : is =    1, ia =    1, ip =    2
   0.000000000      0.6227816547E-04 : is =    1, ia =    1, ip =    3
   0.000000000       0.000000000     : is =    1, ia =    2, ip =    1
 -0.1791178141     -0.1791178141     : is =    1, ia =    2, ip =    2
 -0.3970507781E-01  0.3970507781E-01 : is =    1, ia =    2, ip =    3
