  0.3649598498      0.2654751098E-05 : is =    1, ia =    1, ip =    1
 -0.1178316027E-01 -0.9094711993E-02 : is =    1, ia =    1, ip =    2
  0.1178316027E-01  0.9094711993E-02 : is =    1, ia =    1, ip =    3
 -0.3200885207E-01  0.5844462507E-01 : is =    2, ia =    1, ip =    1
 -0.8436525307E-02  0.1205963249E-01 : is =    2, ia =    1, ip =    2
  0.8436525307E-02 -0.1205963249E-01 : is =    2, ia =    1, ip =    3
