   0.000000000       0.000000000     : is =    1, ia =    1, ip =    1
   0.000000000      0.6946003443E-04 : is =    1, ia =    1, ip =    2
  0.1930527919     -0.3155817565E-10 : is =    1, ia =    1, ip =    3
   0.000000000       0.000000000     : is =    2, ia =    1, ip =    1
 -0.2100083741E-01  0.3637451731E-01 : is =    2, ia =    1, ip =    2
 -0.1391237451     -0.8032313167E-01 : is =    2, ia =    1, ip =    3
