  0.2538800025      0.1006091088E-04 : is =    1, ia =    1, ip =    1
  0.2826444044E-01 -0.1681742767E-01 : is =    1, ia =    1, ip =    2
 -0.2826444044E-01  0.1681742767E-01 : is =    1, ia =    1, ip =    3
 -0.9696323880E-01 -0.4402628098E-02 : is =    2, ia =    1, ip =    1
  0.2375809019E-01  0.5591994207E-01 : is =    2, ia =    1, ip =    2
 -0.2375809019E-01 -0.5591994207E-01 : is =    2, ia =    1, ip =    3
