  0.1398517115E-01  0.2899549751E-01 : is =    1, ia =    1, ip =    1
  0.1398517114E-01  0.2899549753E-01 : is =    1, ia =    1, ip =    2
 -0.1902708337     -0.5203838928E-01 : is =    1, ia =    1, ip =    3
 -0.3240025859E-01  0.1237691260E-03 : is =    2, ia =    1, ip =    1
 -0.3240025858E-01  0.1237691144E-03 : is =    2, ia =    1, ip =    2
  0.2260733524     -0.4437282857E-04 : is =    2, ia =    1, ip =    3
