  0.2331816926      0.1161976180E-04 : is =    1, ia =    1, ip =    1
  0.4032407239E-01  0.4038857493E-04 : is =    1, ia =    1, ip =    2
 -0.4032407239E-01 -0.4038857493E-04 : is =    1, ia =    1, ip =    3
 -0.1896035703      0.5192929732E-01 : is =    2, ia =    1, ip =    1
 -0.1370178055E-01  0.2949339192E-01 : is =    2, ia =    1, ip =    2
  0.1370178055E-01 -0.2949339192E-01 : is =    2, ia =    1, ip =    3
