  0.2934730505     -0.2078488622E-03 : is =    1, ia =    1, ip =    1
 -0.4027059307E-01 -0.1381865169E-01 : is =    1, ia =    1, ip =    2
  0.4027059307E-01  0.1381865169E-01 : is =    1, ia =    1, ip =    3
 -0.8171923863E-01  0.5815222890E-01 : is =    2, ia =    1, ip =    1
 -0.3501539499E-01  0.2266111050E-01 : is =    2, ia =    1, ip =    2
  0.3501539499E-01 -0.2266111050E-01 : is =    2, ia =    1, ip =    3
