  0.2826171843E-01 -0.1688361469E-01 : is =    1, ia =    1, ip =    1
 -0.5206114784E-01 -0.1854859642E-05 : is =    1, ia =    1, ip =    2
  0.2533931998     -0.2930341335E-05 : is =    1, ia =    1, ip =    3
  0.2825846906E-01 -0.3320513573E-01 : is =    2, ia =    1, ip =    1
 -0.3351936571E-01  0.1004503677E-01 : is =    2, ia =    1, ip =    2
 -0.1054503156     -0.4426194606E-02 : is =    2, ia =    1, ip =    3
