 -0.1902714572      0.5203855784E-01 : is =    1, ia =    1, ip =    1
 -0.1398589130E-01  0.2899482574E-01 : is =    1, ia =    1, ip =    2
  0.1398589131E-01 -0.2899482574E-01 : is =    1, ia =    1, ip =    3
  0.2260741968      0.4437187583E-04 : is =    2, ia =    1, ip =    1
  0.3239987075E-01  0.1239719159E-03 : is =    2, ia =    1, ip =    2
 -0.3239987079E-01 -0.1239719296E-03 : is =    2, ia =    1, ip =    3
