  0.1398589129E-01 -0.2899482575E-01 : is =    1, ia =    1, ip =    1
  0.1398589129E-01 -0.2899482575E-01 : is =    1, ia =    1, ip =    2
 -0.1902714571      0.5203855785E-01 : is =    1, ia =    1, ip =    3
 -0.3239987077E-01 -0.1239719180E-03 : is =    2, ia =    1, ip =    1
 -0.3239987076E-01 -0.1239719240E-03 : is =    2, ia =    1, ip =    2
  0.2260741968      0.4437187329E-04 : is =    2, ia =    1, ip =    3
