  0.8086069854E-06  0.1617934203     : is =    1, ia =    1, ip =    1
  0.7840600949E-01 -0.7310598118E-06 : is =    1, ia =    1, ip =    2
 -0.2150744925E-07  0.2994140513E-01 : is =    1, ia =    1, ip =    3
  0.4330285687      0.2766827874E-07 : is =    1, ia =    2, ip =    1
  0.1181948484E-05 -0.8659052711E-02 : is =    1, ia =    2, ip =    2
 -0.4768552020E-01 -0.5701821265E-08 : is =    1, ia =    2, ip =    3
