  0.4313766320      0.5607965619E-04 : is =    1, ia =    1, ip =    1
  0.1855000669E-01  0.6319617208E-04 : is =    1, ia =    1, ip =    2
 -0.1527911204E-01  0.2799199543E-01 : is =    1, ia =    1, ip =    3
 -0.4906034014E-01 -0.8024796991E-01 : is =    1, ia =    2, ip =    1
  0.1053033097     -0.2312017757E-01 : is =    1, ia =    2, ip =    2
 -0.1308650507E-01 -0.1272295860E-01 : is =    1, ia =    2, ip =    3
