   0.000000000       0.000000000     : is =    1, ia =    1, ip =    1
  0.8525196782E-01 -0.4922052568E-01 : is =    1, ia =    1, ip =    2
  0.1785288203E-01  0.3092241888E-01 : is =    1, ia =    1, ip =    3
  0.4266699346      0.1928716505E-07 : is =    1, ia =    2, ip =    1
   0.000000000       0.000000000     : is =    1, ia =    2, ip =    2
   0.000000000       0.000000000     : is =    1, ia =    2, ip =    3
