  0.6057798100E-02  0.6201265247E-01 : is =    1, ia =    1, ip =    1
 -0.1493610197E-01  0.2583436583E-01 : is =    1, ia =    1, ip =    2
 -0.5550744954E-01  0.8738833467E-01 : is =    1, ia =    1, ip =    3
 -0.3285034005E-01  0.9064934771E-02 : is =    1, ia =    2, ip =    1
 -0.1567711012E-01  0.5538364578E-01 : is =    1, ia =    2, ip =    2
  0.5204367707     -0.1243552339E-04 : is =    1, ia =    2, ip =    3
