 -0.3330025160E-01 -0.1628902166E-01 : is =    1, ia =    1, ip =    1
 -0.3330025160E-01 -0.1628902166E-01 : is =    1, ia =    1, ip =    2
  0.5222449842     -0.1829918713E-04 : is =    1, ia =    1, ip =    3
 -0.2198277906E-01  0.5684086073E-02 : is =    1, ia =    2, ip =    1
 -0.2198277906E-01  0.5684086073E-02 : is =    1, ia =    2, ip =    2
 -0.2033332981     -0.1641462252     : is =    1, ia =    2, ip =    3
