    -304.793513359    
    -304.793467613    
    -304.793480778    
    -304.793536329    
    -304.793482353    
    -304.793509388    
    -304.793504886    
    -304.793504155    
    -304.793501540    
    -304.793499968    
    -304.793498987    
    -304.793498912    
    -304.793498879    
    -304.793498883    
 
