    0.121871229797E-01
    0.231003194409E-02
    0.191147979846E-02
    0.570152207422E-02
    0.277971868683E-03
    0.716243407427E-03
    0.529124754503E-03
    0.421964091972E-03
    0.168846685137E-03
    0.403808761722E-04
    0.153359131387E-05
    0.926474402962E-06
 
