 
Species :    1 (C), atom :    1
 n =  1, l =  0, k =  1 :   -9.327500502    
 
Species :    1 (C), atom :    2
 n =  1, l =  0, k =  1 :   -9.327395922    
 
Species :    1 (C), atom :    3
 n =  1, l =  0, k =  1 :   -9.327433193    
 
Species :    1 (C), atom :    4
 n =  1, l =  0, k =  1 :   -9.327491120    
 
Species :    1 (C), atom :    5
 n =  1, l =  0, k =  1 :   -9.327382317    
 
Species :    1 (C), atom :    6
 n =  1, l =  0, k =  1 :   -9.327488904    
 
Species :    1 (C), atom :    7
 n =  1, l =  0, k =  1 :   -9.327375346    
 
Species :    1 (C), atom :    8
 n =  1, l =  0, k =  1 :   -9.327482327    
