 
Species :    1 (C), atom :    1
 n =  1, l =  0, k =  1 :   -9.327461876    
 
Species :    1 (C), atom :    2
 n =  1, l =  0, k =  1 :   -9.327434232    
 
Species :    1 (C), atom :    3
 n =  1, l =  0, k =  1 :   -9.327530458    
 
Species :    1 (C), atom :    4
 n =  1, l =  0, k =  1 :   -9.327394297    
 
Species :    1 (C), atom :    5
 n =  1, l =  0, k =  1 :   -9.327492364    
 
Species :    1 (C), atom :    6
 n =  1, l =  0, k =  1 :   -9.327379002    
 
Species :    1 (C), atom :    7
 n =  1, l =  0, k =  1 :   -9.327375246    
 
Species :    1 (C), atom :    8
 n =  1, l =  0, k =  1 :   -9.327482030    
