================================================================================
| EXCITING NITROGEN-13 started                                                 =
| version hash id: de0c1dba9f665d6c60514aa9e8bf40326ac9f394                    =
|                                                                              =
|                                                                              =
| Date (DD-MM-YYYY) : 03-05-2022                                               =
| Time (hh:mm:ss)   : 18:57:03                                                 =
|                                                                              =
| All units are atomic (Hartree, Bohr, etc.)                                   =
================================================================================
 
********************************************************************************
* Ground-state run resuming from STATE.OUT                                     *
********************************************************************************
 
++++++++++++++++++++++++++++++++++++++++++++++++++++++++++++++++++++++++++++++++
+ Starting initialization                                                      +
++++++++++++++++++++++++++++++++++++++++++++++++++++++++++++++++++++++++++++++++
 
 Lattice vectors (cartesian) :
      0.0000000000     -3.3759957000     -3.3759957000
     -3.3759957000     -6.7519914000      3.3759957000
     -6.7519914000      3.3759957000     -3.3759957000
 
 Reciprocal lattice vectors (cartesian) :
      0.2326419324     -0.6979257972     -1.1632096620
     -0.4652838648     -0.4652838648      0.4652838648
     -0.6979257972      0.2326419324     -0.2326419324
 
 Unit cell volume                           :     307.8191548003
 Brillouin zone volume                      :       0.8058309874
 
 Species :    1 (C)
     parameters loaded from                 :    C.xml
     name                                   :    carbon
     nuclear charge                         :      -6.00000000
     electronic charge                      :       6.00000000
     atomic mass                            :   21894.16673000
     muffin-tin radius                      :       1.25000000
     # of radial points in muffin-tin       :     250
 
     atomic positions (lattice) :
       1 :   0.00029621  0.99940758  0.99911137
       2 :   0.49970379  0.00059242  0.50088863
       3 :   0.75000000  0.50000000  0.75000000
       4 :   0.25000000  0.50000000  0.25000000
       5 :   0.56250000  0.87500000  0.81250000
       6 :   0.06250000  0.87500000  0.31250000
       7 :   0.31250000  0.37500000  0.56250000
       8 :   0.81250000  0.37500000  0.06250000
 
 Total number of atoms per unit cell        :       8
 
 Spin treatment                             :    spin-unpolarised
 
 Number of Bravais lattice symmetries       :       4
 Number of crystal symmetries               :       2
 
 Sphere radius used for k-point grid density:      33.42065234
 
 k-point grid                               :       8    5    5
 Total number of k-points                   :     200
 k-point set is reduced with crystal symmetries
 
 R^MT_min * |G+k|_max (rgkmax)              :       8.00000000
 Species with R^MT_min                      :       1 (C)
 Maximum |G+k| for APW functions            :       6.40000000
 Maximum |G| for potential and density      :      16.00000000
 
 G-vector grid sizes                        :      25    45    45
 Total number of G-vectors                  :   21191
 
 Maximum angular momentum used for
     APW functions                          :       8
     computing H and O matrix elements      :       8
     potential and density                  :       8
     inner part of muffin-tin               :       2
 
 Total nuclear charge                       :     -48.00000000
 Total electronic charge                    :      48.00000000
 Total core charge                          :      16.00000000
 Total valence charge                       :      32.00000000
 
 Number of empty states                     :      20
 Total number of valence states             :      37
 
 Maximum Hamiltonian size                   :    1408
 Maximum number of plane-waves              :    1376
 Total number of local-orbitals             :      32
 
 Exchange-correlation type                  :      20
     Perdew-Burke-Ernzerhof, Phys. Rev. Lett. 77, 3865 (1996)
     Generalised gradient approximation (GGA)
 
 Smearing scheme                            :    Gaussian
 Smearing width                             :       0.00010000
 
 Using multisecant Broyden potential mixing
 
++++++++++++++++++++++++++++++++++++++++++++++++++++++++++++++++++++++++++++++++
+ Ending initialization                                                        +
++++++++++++++++++++++++++++++++++++++++++++++++++++++++++++++++++++++++++++++++
 
********************************************************************************
* Groundstate module started                                                   *
********************************************************************************
 Output level for this task is set to normal
 
++++++++++++++++++++++++++++++++++++++++++++++++++++++++++++++++++++++++++++++++
+ Self-consistent loop started                                                 +
++++++++++++++++++++++++++++++++++++++++++++++++++++++++++++++++++++++++++++++++
 Potential read in from STATE.OUT
 
 
++++++++++++++++++++++++++++++++++++++++++++++++++++++++++++++++++++++++++++++++
+ SCF iteration number :    1                                                  +
++++++++++++++++++++++++++++++++++++++++++++++++++++++++++++++++++++++++++++++++
 Total energy                               :      -304.79352884
 _______________________________________________________________
 Fermi energy                               :         0.51735946
 Kinetic energy                             :       303.61986705
 Coulomb energy                             :      -564.99825672
 Exchange energy                            :       -41.63638661
 Correlation energy                         :        -1.77875256
 
 DOS at Fermi energy (states/Ha/cell)       :         0.00000000
 
 Electron charges :
     core                                   :        16.00000000
     core leakage                           :         0.00340895
     valence                                :        32.00000000
     interstitial                           :        17.96362726
     charge in muffin-tin spheres :
                  atom     1     C          :         3.75445381
                  atom     2     C          :         3.75463395
                  atom     3     C          :         3.75476512
                  atom     4     C          :         3.75426715
                  atom     5     C          :         3.75581390
                  atom     6     C          :         3.75330616
                  atom     7     C          :         3.75505027
                  atom     8     C          :         3.75408237
     total charge in muffin-tins            :        30.03637274
     total charge                           :        48.00000000
 
 Estimated fundamental gap                  :         0.15272774
        valence-band maximum at    1      0.0000  0.0000  0.0000
     conduction-band minimum at  142      0.6250  0.4000  0.6000
 
 Wall time (seconds)                        :       157.66
 
++++++++++++++++++++++++++++++++++++++++++++++++++++++++++++++++++++++++++++++++
+ SCF iteration number :    2                                                  +
++++++++++++++++++++++++++++++++++++++++++++++++++++++++++++++++++++++++++++++++
 Total energy                               :      -304.79348856
 _______________________________________________________________
 Fermi energy                               :         0.51736052
 Kinetic energy                             :       303.61988137
 Coulomb energy                             :      -564.99823302
 Exchange energy                            :       -41.63638401
 Correlation energy                         :        -1.77875290
 
 DOS at Fermi energy (states/Ha/cell)       :         0.00000000
 
 Electron charges :
     core                                   :        16.00000000
     core leakage                           :         0.00340895
     valence                                :        32.00000000
     interstitial                           :        17.96363827
     charge in muffin-tin spheres :
                  atom     1     C          :         3.75447513
                  atom     2     C          :         3.75461015
                  atom     3     C          :         3.75476504
                  atom     4     C          :         3.75426854
                  atom     5     C          :         3.75711921
                  atom     6     C          :         3.75199335
                  atom     7     C          :         3.75542993
                  atom     8     C          :         3.75370038
     total charge in muffin-tins            :        30.03636173
     total charge                           :        48.00000000
 
 Estimated fundamental gap                  :         0.15272754
        valence-band maximum at    1      0.0000  0.0000  0.0000
     conduction-band minimum at  108      0.3750  0.6000  0.4000
 
 Wall time (seconds)                        :       318.51
 
 RMS change in effective potential (target) :  0.114344E-02  ( 0.100000E-05)
 Absolute change in total energy   (target) :  0.402728E-04  ( 0.100000E-05)
 Charge distance                   (target) :  0.290274E-03  ( 0.100000E-04)
 Abs. change in max-nonIBS-force   (target) :  0.121927E-01  ( 0.500000E-04)
 
++++++++++++++++++++++++++++++++++++++++++++++++++++++++++++++++++++++++++++++++
+ SCF iteration number :    3                                                  +
++++++++++++++++++++++++++++++++++++++++++++++++++++++++++++++++++++++++++++++++
 Total energy                               :      -304.79354308
 _______________________________________________________________
 Fermi energy                               :         0.51736025
 Kinetic energy                             :       303.61988608
 Coulomb energy                             :      -564.99828844
 Exchange energy                            :       -41.63638801
 Correlation energy                         :        -1.77875271
 
 DOS at Fermi energy (states/Ha/cell)       :         0.00000000
 
 Electron charges :
     core                                   :        16.00000000
     core leakage                           :         0.00340895
     valence                                :        32.00000000
     interstitial                           :        17.96363579
     charge in muffin-tin spheres :
                  atom     1     C          :         3.75444289
                  atom     2     C          :         3.75464403
                  atom     3     C          :         3.75475181
                  atom     4     C          :         3.75428276
                  atom     5     C          :         3.75712398
                  atom     6     C          :         3.75198818
                  atom     7     C          :         3.75542817
                  atom     8     C          :         3.75370239
     total charge in muffin-tins            :        30.03636421
     total charge                           :        48.00000000
 
 Estimated fundamental gap                  :         0.15272735
        valence-band maximum at    1      0.0000  0.0000  0.0000
     conduction-band minimum at  142      0.6250  0.4000  0.6000
 
 Wall time (seconds)                        :       471.25
 
 RMS change in effective potential (target) :  0.794236E-03  ( 0.100000E-05)
 Absolute change in total energy   (target) :  0.545187E-04  ( 0.100000E-05)
 Charge distance                   (target) :  0.921653E-04  ( 0.100000E-04)
 Abs. change in max-nonIBS-force   (target) :  0.230942E-02  ( 0.500000E-04)
 
++++++++++++++++++++++++++++++++++++++++++++++++++++++++++++++++++++++++++++++++
+ SCF iteration number :    4                                                  +
++++++++++++++++++++++++++++++++++++++++++++++++++++++++++++++++++++++++++++++++
 Total energy                               :      -304.79335488
 _______________________________________________________________
 Fermi energy                               :         0.51736067
 Kinetic energy                             :       303.61997076
 Coulomb energy                             :      -564.99819427
 Exchange energy                            :       -41.63637823
 Correlation energy                         :        -1.77875315
 
 DOS at Fermi energy (states/Ha/cell)       :         0.00000000
 
 Electron charges :
     core                                   :        16.00000000
     core leakage                           :         0.00340896
     valence                                :        32.00000000
     interstitial                           :        17.96364042
     charge in muffin-tin spheres :
                  atom     1     C          :         3.75491204
                  atom     2     C          :         3.75416179
                  atom     3     C          :         3.75431368
                  atom     4     C          :         3.75471595
                  atom     5     C          :         3.75565201
                  atom     6     C          :         3.75346349
                  atom     7     C          :         3.75509570
                  atom     8     C          :         3.75404492
     total charge in muffin-tins            :        30.03635958
     total charge                           :        48.00000000
 
 Estimated fundamental gap                  :         0.15272297
        valence-band maximum at    1      0.0000  0.0000  0.0000
     conduction-band minimum at  142      0.6250  0.4000  0.6000
 
 Wall time (seconds)                        :       624.24
 
 RMS change in effective potential (target) :  0.744845E-03  ( 0.100000E-05)
 Absolute change in total energy   (target) :  0.188198E-03  ( 0.100000E-05)
 Charge distance                   (target) :  0.235774E-03  ( 0.100000E-04)
 Abs. change in max-nonIBS-force   (target) :  0.191194E-02  ( 0.500000E-04)
 
++++++++++++++++++++++++++++++++++++++++++++++++++++++++++++++++++++++++++++++++
+ SCF iteration number :    5                                                  +
++++++++++++++++++++++++++++++++++++++++++++++++++++++++++++++++++++++++++++++++
 Total energy                               :      -304.79351212
 _______________________________________________________________
 Fermi energy                               :         0.51735947
 Kinetic energy                             :       303.61986028
 Coulomb energy                             :      -564.99823628
 Exchange energy                            :       -41.63638301
 Correlation energy                         :        -1.77875311
 
 DOS at Fermi energy (states/Ha/cell)       :         0.00000000
 
 Electron charges :
     core                                   :        16.00000000
     core leakage                           :         0.00340895
     valence                                :        32.00000000
     interstitial                           :        17.96363139
     charge in muffin-tin spheres :
                  atom     1     C          :         3.75430879
                  atom     2     C          :         3.75478274
                  atom     3     C          :         3.75485339
                  atom     4     C          :         3.75418111
                  atom     5     C          :         3.75653640
                  atom     6     C          :         3.75257643
                  atom     7     C          :         3.75521590
                  atom     8     C          :         3.75391385
     total charge in muffin-tins            :        30.03636861
     total charge                           :        48.00000000
 
 Estimated fundamental gap                  :         0.15272536
        valence-band maximum at    1      0.0000  0.0000  0.0000
     conduction-band minimum at  108      0.3750  0.6000  0.4000
 
 Wall time (seconds)                        :       772.28
 
 RMS change in effective potential (target) :  0.222816E-03  ( 0.100000E-05)
 Absolute change in total energy   (target) :  0.157232E-03  ( 0.100000E-05)
 Charge distance                   (target) :  0.211768E-03  ( 0.100000E-04)
 Abs. change in max-nonIBS-force   (target) :  0.569923E-02  ( 0.500000E-04)
 
++++++++++++++++++++++++++++++++++++++++++++++++++++++++++++++++++++++++++++++++
+ SCF iteration number :    6                                                  +
++++++++++++++++++++++++++++++++++++++++++++++++++++++++++++++++++++++++++++++++
 Total energy                               :      -304.79355702
 _______________________________________________________________
 Fermi energy                               :         0.51735925
 Kinetic energy                             :       303.61983894
 Coulomb energy                             :      -564.99825778
 Exchange energy                            :       -41.63638518
 Correlation energy                         :        -1.77875301
 
 DOS at Fermi energy (states/Ha/cell)       :         0.00000000
 
 Electron charges :
     core                                   :        16.00000000
     core leakage                           :         0.00340895
     valence                                :        32.00000000
     interstitial                           :        17.96362787
     charge in muffin-tin spheres :
                  atom     1     C          :         3.75453177
                  atom     2     C          :         3.75454954
                  atom     3     C          :         3.75462026
                  atom     4     C          :         3.75441259
                  atom     5     C          :         3.75665802
                  atom     6     C          :         3.75246693
                  atom     7     C          :         3.75529300
                  atom     8     C          :         3.75384002
     total charge in muffin-tins            :        30.03637213
     total charge                           :        48.00000000
 
 Estimated fundamental gap                  :         0.15272557
        valence-band maximum at    1      0.0000  0.0000  0.0000
     conduction-band minimum at  142      0.6250  0.4000  0.6000
 
 Wall time (seconds)                        :       918.70
 
 RMS change in effective potential (target) :  0.117992E-03  ( 0.100000E-05)
 Absolute change in total energy   (target) :  0.449038E-04  ( 0.100000E-05)
 Charge distance                   (target) :  0.423966E-04  ( 0.100000E-04)
 Abs. change in max-nonIBS-force   (target) :  0.277780E-03  ( 0.500000E-04)
 
++++++++++++++++++++++++++++++++++++++++++++++++++++++++++++++++++++++++++++++++
+ SCF iteration number :    7                                                  +
++++++++++++++++++++++++++++++++++++++++++++++++++++++++++++++++++++++++++++++++
 Total energy                               :      -304.79355873
 _______________________________________________________________
 Fermi energy                               :         0.51735928
 Kinetic energy                             :       303.61984215
 Coulomb energy                             :      -564.99826237
 Exchange energy                            :       -41.63638552
 Correlation energy                         :        -1.77875299
 
 DOS at Fermi energy (states/Ha/cell)       :         0.00000000
 
 Electron charges :
     core                                   :        16.00000000
     core leakage                           :         0.00340895
     valence                                :        32.00000000
     interstitial                           :        17.96362749
     charge in muffin-tin spheres :
                  atom     1     C          :         3.75448292
                  atom     2     C          :         3.75460322
                  atom     3     C          :         3.75467531
                  atom     4     C          :         3.75435772
                  atom     5     C          :         3.75664818
                  atom     6     C          :         3.75247172
                  atom     7     C          :         3.75529823
                  atom     8     C          :         3.75383521
     total charge in muffin-tins            :        30.03637251
     total charge                           :        48.00000000
 
 Estimated fundamental gap                  :         0.15272557
        valence-band maximum at    1      0.0000  0.0000  0.0000
     conduction-band minimum at  142      0.6250  0.4000  0.6000
 
 Wall time (seconds)                        :      1064.69
 
 RMS change in effective potential (target) :  0.804486E-04  ( 0.100000E-05)
 Absolute change in total energy   (target) :  0.171335E-05  ( 0.100000E-05)
 Charge distance                   (target) :  0.164266E-04  ( 0.100000E-04)
 Abs. change in max-nonIBS-force   (target) :  0.715553E-03  ( 0.500000E-04)
 
++++++++++++++++++++++++++++++++++++++++++++++++++++++++++++++++++++++++++++++++
+ SCF iteration number :    8                                                  +
++++++++++++++++++++++++++++++++++++++++++++++++++++++++++++++++++++++++++++++++
 Total energy                               :      -304.79354245
 _______________________________________________________________
 Fermi energy                               :         0.51735946
 Kinetic energy                             :       303.61985166
 Coulomb energy                             :      -564.99825621
 Exchange energy                            :       -41.63638488
 Correlation energy                         :        -1.77875302
 
 DOS at Fermi energy (states/Ha/cell)       :         0.00000000
 
 Electron charges :
     core                                   :        16.00000000
     core leakage                           :         0.00340895
     valence                                :        32.00000000
     interstitial                           :        17.96362859
     charge in muffin-tin spheres :
                  atom     1     C          :         3.75449285
                  atom     2     C          :         3.75459012
                  atom     3     C          :         3.75468757
                  atom     4     C          :         3.75434755
                  atom     5     C          :         3.75668607
                  atom     6     C          :         3.75243707
                  atom     7     C          :         3.75527063
                  atom     8     C          :         3.75385955
     total charge in muffin-tins            :        30.03637141
     total charge                           :        48.00000000
 
 Estimated fundamental gap                  :         0.15272559
        valence-band maximum at    1      0.0000  0.0000  0.0000
     conduction-band minimum at  142      0.6250  0.4000  0.6000
 
 Wall time (seconds)                        :      1210.91
 
 RMS change in effective potential (target) :  0.553461E-04  ( 0.100000E-05)
 Absolute change in total energy   (target) :  0.162875E-04  ( 0.100000E-05)
 Charge distance                   (target) :  0.103748E-04  ( 0.100000E-04)
 Abs. change in max-nonIBS-force   (target) :  0.528467E-03  ( 0.500000E-04)
 
++++++++++++++++++++++++++++++++++++++++++++++++++++++++++++++++++++++++++++++++
+ SCF iteration number :    9                                                  +
++++++++++++++++++++++++++++++++++++++++++++++++++++++++++++++++++++++++++++++++
 Total energy                               :      -304.79353188
 _______________________________________________________________
 Fermi energy                               :         0.51735962
 Kinetic energy                             :       303.61985889
 Coulomb energy                             :      -564.99825317
 Exchange energy                            :       -41.63638455
 Correlation energy                         :        -1.77875304
 
 DOS at Fermi energy (states/Ha/cell)       :         0.00000000
 
 Electron charges :
     core                                   :        16.00000000
     core leakage                           :         0.00340895
     valence                                :        32.00000000
     interstitial                           :        17.96362920
     charge in muffin-tin spheres :
                  atom     1     C          :         3.75449167
                  atom     2     C          :         3.75459462
                  atom     3     C          :         3.75467761
                  atom     4     C          :         3.75435492
                  atom     5     C          :         3.75671345
                  atom     6     C          :         3.75240551
                  atom     7     C          :         3.75530549
                  atom     8     C          :         3.75382753
     total charge in muffin-tins            :        30.03637080
     total charge                           :        48.00000000
 
 Estimated fundamental gap                  :         0.15272561
        valence-band maximum at    1      0.0000  0.0000  0.0000
     conduction-band minimum at  108      0.3750  0.6000  0.4000
 
 Wall time (seconds)                        :      1358.19
 
 RMS change in effective potential (target) :  0.228275E-04  ( 0.100000E-05)
 Absolute change in total energy   (target) :  0.105683E-04  ( 0.100000E-05)
 Charge distance                   (target) :  0.111556E-04  ( 0.100000E-04)
 Abs. change in max-nonIBS-force   (target) :  0.421501E-03  ( 0.500000E-04)
 
++++++++++++++++++++++++++++++++++++++++++++++++++++++++++++++++++++++++++++++++
+ SCF iteration number :   10                                                  +
++++++++++++++++++++++++++++++++++++++++++++++++++++++++++++++++++++++++++++++++
 Total energy                               :      -304.79353535
 _______________________________________________________________
 Fermi energy                               :         0.51735963
 Kinetic energy                             :       303.61985842
 Coulomb energy                             :      -564.99825592
 Exchange energy                            :       -41.63638483
 Correlation energy                         :        -1.77875302
 
 DOS at Fermi energy (states/Ha/cell)       :         0.00000000
 
 Electron charges :
     core                                   :        16.00000000
     core leakage                           :         0.00340895
     valence                                :        32.00000000
     interstitial                           :        17.96362881
     charge in muffin-tin spheres :
                  atom     1     C          :         3.75450123
                  atom     2     C          :         3.75458406
                  atom     3     C          :         3.75467916
                  atom     4     C          :         3.75435511
                  atom     5     C          :         3.75673134
                  atom     6     C          :         3.75238840
                  atom     7     C          :         3.75531238
                  atom     8     C          :         3.75381951
     total charge in muffin-tins            :        30.03637119
     total charge                           :        48.00000000
 
 Estimated fundamental gap                  :         0.15272566
        valence-band maximum at    1      0.0000  0.0000  0.0000
     conduction-band minimum at  108      0.3750  0.6000  0.4000
 
 Wall time (seconds)                        :      1505.51
 
 RMS change in effective potential (target) :  0.597176E-05  ( 0.100000E-05)
 Absolute change in total energy   (target) :  0.347704E-05  ( 0.100000E-05)
 Charge distance                   (target) :  0.458274E-05  ( 0.100000E-04)
 Abs. change in max-nonIBS-force   (target) :  0.169038E-03  ( 0.500000E-04)
 
++++++++++++++++++++++++++++++++++++++++++++++++++++++++++++++++++++++++++++++++
+ SCF iteration number :   11                                                  +
++++++++++++++++++++++++++++++++++++++++++++++++++++++++++++++++++++++++++++++++
 Total energy                               :      -304.79353518
 _______________________________________________________________
 Fermi energy                               :         0.51735965
 Kinetic energy                             :       303.61985889
 Coulomb energy                             :      -564.99825620
 Exchange energy                            :       -41.63638485
 Correlation energy                         :        -1.77875302
 
 DOS at Fermi energy (states/Ha/cell)       :         0.00000000
 
 Electron charges :
     core                                   :        16.00000000
     core leakage                           :         0.00340895
     valence                                :        32.00000000
     interstitial                           :        17.96362880
     charge in muffin-tin spheres :
                  atom     1     C          :         3.75449903
                  atom     2     C          :         3.75458757
                  atom     3     C          :         3.75467160
                  atom     4     C          :         3.75436079
                  atom     5     C          :         3.75673881
                  atom     6     C          :         3.75238007
                  atom     7     C          :         3.75531408
                  atom     8     C          :         3.75381927
     total charge in muffin-tins            :        30.03637120
     total charge                           :        48.00000000
 
 Estimated fundamental gap                  :         0.15272566
        valence-band maximum at    1      0.0000  0.0000  0.0000
     conduction-band minimum at  108      0.3750  0.6000  0.4000
 
 Wall time (seconds)                        :      1655.42
 
 RMS change in effective potential (target) :  0.283697E-05  ( 0.100000E-05)
 Absolute change in total energy   (target) :  0.172272E-06  ( 0.100000E-05)
 Charge distance                   (target) :  0.219906E-05  ( 0.100000E-04)
 Abs. change in max-nonIBS-force   (target) :  0.410047E-04  ( 0.500000E-04)
 
++++++++++++++++++++++++++++++++++++++++++++++++++++++++++++++++++++++++++++++++
+ SCF iteration number :   12                                                  +
++++++++++++++++++++++++++++++++++++++++++++++++++++++++++++++++++++++++++++++++
 Total energy                               :      -304.79353481
 _______________________________________________________________
 Fermi energy                               :         0.51735965
 Kinetic energy                             :       303.61985904
 Coulomb energy                             :      -564.99825600
 Exchange energy                            :       -41.63638483
 Correlation energy                         :        -1.77875302
 
 DOS at Fermi energy (states/Ha/cell)       :         0.00000000
 
 Electron charges :
     core                                   :        16.00000000
     core leakage                           :         0.00340895
     valence                                :        32.00000000
     interstitial                           :        17.96362884
     charge in muffin-tin spheres :
                  atom     1     C          :         3.75450230
                  atom     2     C          :         3.75458342
                  atom     3     C          :         3.75467579
                  atom     4     C          :         3.75435783
                  atom     5     C          :         3.75673706
                  atom     6     C          :         3.75238243
                  atom     7     C          :         3.75531355
                  atom     8     C          :         3.75381878
     total charge in muffin-tins            :        30.03637116
     total charge                           :        48.00000000
 
 Estimated fundamental gap                  :         0.15272566
        valence-band maximum at    1      0.0000  0.0000  0.0000
     conduction-band minimum at  142      0.6250  0.4000  0.6000
 
 Wall time (seconds)                        :      1799.56
 
 RMS change in effective potential (target) :  0.620458E-06  ( 0.100000E-05)
 Absolute change in total energy   (target) :  0.373990E-06  ( 0.100000E-05)
 Charge distance                   (target) :  0.711296E-06  ( 0.100000E-04)
 Abs. change in max-nonIBS-force   (target) :  0.158640E-05  ( 0.500000E-04)
 
++++++++++++++++++++++++++++++++++++++++++++++++++++++++++++++++++++++++++++++++
+ SCF iteration number :   13                                                  +
++++++++++++++++++++++++++++++++++++++++++++++++++++++++++++++++++++++++++++++++
 Total energy                               :      -304.79353518
 _______________________________________________________________
 Fermi energy                               :         0.51735965
 Kinetic energy                             :       303.61985886
 Coulomb energy                             :      -564.99825617
 Exchange energy                            :       -41.63638485
 Correlation energy                         :        -1.77875302
 
 DOS at Fermi energy (states/Ha/cell)       :         0.00000000
 
 Electron charges :
     core                                   :        16.00000000
     core leakage                           :         0.00340895
     valence                                :        32.00000000
     interstitial                           :        17.96362880
     charge in muffin-tin spheres :
                  atom     1     C          :         3.75450181
                  atom     2     C          :         3.75458410
                  atom     3     C          :         3.75467540
                  atom     4     C          :         3.75435803
                  atom     5     C          :         3.75673704
                  atom     6     C          :         3.75238221
                  atom     7     C          :         3.75531389
                  atom     8     C          :         3.75381872
     total charge in muffin-tins            :        30.03637120
     total charge                           :        48.00000000
 
 Estimated fundamental gap                  :         0.15272566
        valence-band maximum at    1      0.0000  0.0000  0.0000
     conduction-band minimum at  142      0.6250  0.4000  0.6000
 
 Wall time (seconds)                        :      1917.44
 
 RMS change in effective potential (target) :  0.273613E-06  ( 0.100000E-05)
 Absolute change in total energy   (target) :  0.373964E-06  ( 0.100000E-05)
 Charge distance                   (target) :  0.259953E-06  ( 0.100000E-04)
 Abs. change in max-nonIBS-force   (target) :  0.900231E-06  ( 0.500000E-04)
                                                                                
++++++++++++++++++++++++++++++++++++++++++++++++++++++++++++++++++++++++++++++++
| Convergency criteria checked for the last 2 iterations                       +
| Convergence targets achieved. Performing final SCF iteration                 +
++++++++++++++++++++++++++++++++++++++++++++++++++++++++++++++++++++++++++++++++
 Total energy                               :      -304.79353524
 _______________________________________________________________
 Fermi energy                               :         0.51735965
 Kinetic energy                             :       303.61985883
 Coulomb energy                             :      -564.99825619
 Exchange energy                            :       -41.63638485
 Correlation energy                         :        -1.77875302
 
 DOS at Fermi energy (states/Ha/cell)       :         0.00000000
 
 Electron charges :
     core                                   :        16.00000000
     core leakage                           :         0.00340895
     valence                                :        32.00000000
     interstitial                           :        17.96362880
     charge in muffin-tin spheres :
                  atom     1     C          :         3.75450163
                  atom     2     C          :         3.75458413
                  atom     3     C          :         3.75467534
                  atom     4     C          :         3.75435824
                  atom     5     C          :         3.75673733
                  atom     6     C          :         3.75238214
                  atom     7     C          :         3.75531409
                  atom     8     C          :         3.75381831
     total charge in muffin-tins            :        30.03637120
     total charge                           :        48.00000000
 
 Estimated fundamental gap                  :         0.15272567
        valence-band maximum at    1      0.0000  0.0000  0.0000
     conduction-band minimum at  108      0.3750  0.6000  0.4000
 
++++++++++++++++++++++++++++++++++++++++++++++++++++++++++++++++++++++++++++++++
+ Self-consistent loop stopped                                                 +
++++++++++++++++++++++++++++++++++++++++++++++++++++++++++++++++++++++++++++++++
 STATE.OUT is written
 
--------------------------------------------------------------------------------
- Writing atomic positions and forces                                          -
--------------------------------------------------------------------------------
 
 Atomic positions (lattice) :
 atom     1   C  :     0.00029621    0.99940758    0.99911137
 atom     2   C  :     0.49970379    0.00059242    0.50088863
 atom     3   C  :     0.75000000    0.50000000    0.75000000
 atom     4   C  :     0.25000000    0.50000000    0.25000000
 atom     5   C  :     0.56250000    0.87500000    0.81250000
 atom     6   C  :     0.06250000    0.87500000    0.31250000
 atom     7   C  :     0.31250000    0.37500000    0.56250000
 atom     8   C  :     0.81250000    0.37500000    0.06250000
 
 Total atomic forces including IBS (cartesian) :
 atom     1   C  :    -0.00434744    0.00023239   -0.00023239
 atom     2   C  :     0.00435987   -0.00026177    0.00026177
 atom     3   C  :     0.00001269   -0.00025010    0.00025010
 atom     4   C  :     0.00000721    0.00023103   -0.00023103
 atom     5   C  :     0.00084426    0.00020598   -0.00020598
 atom     6   C  :    -0.00086404   -0.00018828    0.00018828
 atom     7   C  :    -0.00071338   -0.00009281    0.00009281
 atom     8   C  :     0.00070083    0.00012355   -0.00012355
 
 Atomic force components including IBS (cartesian) :
 atom     1   C  :    -0.00456223    0.00029306   -0.00029306   HF force
                 :     0.00014673   -0.00005085    0.00005085   core correction
                 :     0.00006806   -0.00000981    0.00000981   IBS correction
 atom     2   C  :     0.00448234   -0.00031719    0.00031719   HF force
                 :    -0.00008411    0.00005806   -0.00005806   core correction
                 :    -0.00003836   -0.00000264    0.00000264   IBS correction
 atom     3   C  :     0.00001633   -0.00020733    0.00020733   HF force
                 :    -0.00001623   -0.00003805    0.00003805   core correction
                 :     0.00001260   -0.00000472    0.00000472   IBS correction
 atom     4   C  :    -0.00008945    0.00019758   -0.00019758   HF force
                 :     0.00007935    0.00004301   -0.00004301   core correction
                 :     0.00001732   -0.00000956    0.00000956   IBS correction
 atom     5   C  :     0.00116916    0.00027755   -0.00027755   HF force
                 :    -0.00029695   -0.00007341    0.00007341   core correction
                 :    -0.00002795    0.00000183   -0.00000183   IBS correction
 atom     6   C  :    -0.00110164   -0.00027347    0.00027347   HF force
                 :     0.00023727    0.00007133   -0.00007133   core correction
                 :     0.00000034    0.00001387   -0.00001387   IBS correction
 atom     7   C  :    -0.00064657   -0.00011244    0.00011244   HF force
                 :    -0.00006016    0.00001112   -0.00001112   core correction
                 :    -0.00000665    0.00000851   -0.00000851   IBS correction
 atom     8   C  :     0.00073206    0.00014223   -0.00014223   HF force
                 :    -0.00000589   -0.00002120    0.00002120   core correction
                 :    -0.00002535    0.00000252   -0.00000252   IBS correction
 
********************************************************************************
* Groundstate module stopped                                                   *
********************************************************************************
 
 Total time spent (seconds)                 :      2232.42
================================================================================
| EXCITING NITROGEN-13 stopped                                                 =
================================================================================
