   200 : nkpt; k-point, vkl, wkpt, nmat below
     1   0.000000000       0.000000000       0.000000000      0.5000000000E-02    1399
     2  0.1250000000       0.000000000       0.000000000      0.5000000000E-02    1390
     3  0.2500000000       0.000000000       0.000000000      0.5000000000E-02    1405
     4  0.3750000000       0.000000000       0.000000000      0.5000000000E-02    1407
     5  0.5000000000       0.000000000       0.000000000      0.5000000000E-02    1398
     6  0.6250000000       0.000000000       0.000000000      0.5000000000E-02    1407
     7  0.7500000000       0.000000000       0.000000000      0.5000000000E-02    1405
     8  0.8750000000       0.000000000       0.000000000      0.5000000000E-02    1390
     9   0.000000000      0.2000000000       0.000000000      0.5000000000E-02    1392
    10  0.1250000000      0.2000000000       0.000000000      0.5000000000E-02    1397
    11  0.2500000000      0.2000000000       0.000000000      0.5000000000E-02    1401
    12  0.3750000000      0.2000000000       0.000000000      0.5000000000E-02    1402
    13  0.5000000000      0.2000000000       0.000000000      0.5000000000E-02    1402
    14  0.6250000000      0.2000000000       0.000000000      0.5000000000E-02    1393
    15  0.7500000000      0.2000000000       0.000000000      0.5000000000E-02    1397
    16  0.8750000000      0.2000000000       0.000000000      0.5000000000E-02    1396
    17   0.000000000      0.4000000000       0.000000000      0.5000000000E-02    1390
    18  0.1250000000      0.4000000000       0.000000000      0.5000000000E-02    1394
    19  0.2500000000      0.4000000000       0.000000000      0.5000000000E-02    1392
    20  0.3750000000      0.4000000000       0.000000000      0.5000000000E-02    1406
    21  0.5000000000      0.4000000000       0.000000000      0.5000000000E-02    1402
    22  0.6250000000      0.4000000000       0.000000000      0.5000000000E-02    1394
    23  0.7500000000      0.4000000000       0.000000000      0.5000000000E-02    1397
    24  0.8750000000      0.4000000000       0.000000000      0.5000000000E-02    1395
    25   0.000000000      0.6000000000       0.000000000      0.5000000000E-02    1390
    26  0.1250000000      0.6000000000       0.000000000      0.5000000000E-02    1395
    27  0.2500000000      0.6000000000       0.000000000      0.5000000000E-02    1397
    28  0.3750000000      0.6000000000       0.000000000      0.5000000000E-02    1394
    29  0.5000000000      0.6000000000       0.000000000      0.5000000000E-02    1402
    30  0.6250000000      0.6000000000       0.000000000      0.5000000000E-02    1406
    31  0.7500000000      0.6000000000       0.000000000      0.5000000000E-02    1392
    32  0.8750000000      0.6000000000       0.000000000      0.5000000000E-02    1394
    33   0.000000000      0.8000000000       0.000000000      0.5000000000E-02    1392
    34  0.1250000000      0.8000000000       0.000000000      0.5000000000E-02    1396
    35  0.2500000000      0.8000000000       0.000000000      0.5000000000E-02    1397
    36  0.3750000000      0.8000000000       0.000000000      0.5000000000E-02    1393
    37  0.5000000000      0.8000000000       0.000000000      0.5000000000E-02    1402
    38  0.6250000000      0.8000000000       0.000000000      0.5000000000E-02    1402
    39  0.7500000000      0.8000000000       0.000000000      0.5000000000E-02    1401
    40  0.8750000000      0.8000000000       0.000000000      0.5000000000E-02    1397
    41   0.000000000       0.000000000      0.2000000000      0.5000000000E-02    1393
    42  0.1250000000       0.000000000      0.2000000000      0.5000000000E-02    1390
    43  0.2500000000       0.000000000      0.2000000000      0.5000000000E-02    1400
    44  0.3750000000       0.000000000      0.2000000000      0.5000000000E-02    1402
    45  0.5000000000       0.000000000      0.2000000000      0.5000000000E-02    1401
    46  0.6250000000       0.000000000      0.2000000000      0.5000000000E-02    1404
    47  0.7500000000       0.000000000      0.2000000000      0.5000000000E-02    1398
    48  0.8750000000       0.000000000      0.2000000000      0.5000000000E-02    1391
    49   0.000000000      0.2000000000      0.2000000000      0.5000000000E-02    1390
    50  0.1250000000      0.2000000000      0.2000000000      0.5000000000E-02    1392
    51  0.2500000000      0.2000000000      0.2000000000      0.5000000000E-02    1396
    52  0.3750000000      0.2000000000      0.2000000000      0.5000000000E-02    1408
    53  0.5000000000      0.2000000000      0.2000000000      0.5000000000E-02    1397
    54  0.6250000000      0.2000000000      0.2000000000      0.5000000000E-02    1395
    55  0.7500000000      0.2000000000      0.2000000000      0.5000000000E-02    1391
    56  0.8750000000      0.2000000000      0.2000000000      0.5000000000E-02    1389
    57   0.000000000      0.4000000000      0.2000000000      0.5000000000E-02    1391
    58  0.1250000000      0.4000000000      0.2000000000      0.5000000000E-02    1385
    59  0.2500000000      0.4000000000      0.2000000000      0.5000000000E-02    1393
    60  0.3750000000      0.4000000000      0.2000000000      0.5000000000E-02    1401
    61  0.5000000000      0.4000000000      0.2000000000      0.5000000000E-02    1402
    62  0.6250000000      0.4000000000      0.2000000000      0.5000000000E-02    1397
    63  0.7500000000      0.4000000000      0.2000000000      0.5000000000E-02    1390
    64  0.8750000000      0.4000000000      0.2000000000      0.5000000000E-02    1385
    65   0.000000000      0.6000000000      0.2000000000      0.5000000000E-02    1379
    66  0.1250000000      0.6000000000      0.2000000000      0.5000000000E-02    1382
    67  0.2500000000      0.6000000000      0.2000000000      0.5000000000E-02    1390
    68  0.3750000000      0.6000000000      0.2000000000      0.5000000000E-02    1397
    69  0.5000000000      0.6000000000      0.2000000000      0.5000000000E-02    1396
    70  0.6250000000      0.6000000000      0.2000000000      0.5000000000E-02    1398
    71  0.7500000000      0.6000000000      0.2000000000      0.5000000000E-02    1401
    72  0.8750000000      0.6000000000      0.2000000000      0.5000000000E-02    1389
    73   0.000000000      0.8000000000      0.2000000000      0.5000000000E-02    1387
    74  0.1250000000      0.8000000000      0.2000000000      0.5000000000E-02    1387
    75  0.2500000000      0.8000000000      0.2000000000      0.5000000000E-02    1403
    76  0.3750000000      0.8000000000      0.2000000000      0.5000000000E-02    1395
    77  0.5000000000      0.8000000000      0.2000000000      0.5000000000E-02    1402
    78  0.6250000000      0.8000000000      0.2000000000      0.5000000000E-02    1403
    79  0.7500000000      0.8000000000      0.2000000000      0.5000000000E-02    1401
    80  0.8750000000      0.8000000000      0.2000000000      0.5000000000E-02    1391
    81   0.000000000       0.000000000      0.4000000000      0.5000000000E-02    1401
    82  0.1250000000       0.000000000      0.4000000000      0.5000000000E-02    1395
    83  0.2500000000       0.000000000      0.4000000000      0.5000000000E-02    1397
    84  0.3750000000       0.000000000      0.4000000000      0.5000000000E-02    1400
    85  0.5000000000       0.000000000      0.4000000000      0.5000000000E-02    1396
    86  0.6250000000       0.000000000      0.4000000000      0.5000000000E-02    1399
    87  0.7500000000       0.000000000      0.4000000000      0.5000000000E-02    1396
    88  0.8750000000       0.000000000      0.4000000000      0.5000000000E-02    1392
    89   0.000000000      0.2000000000      0.4000000000      0.5000000000E-02    1402
    90  0.1250000000      0.2000000000      0.4000000000      0.5000000000E-02    1391
    91  0.2500000000      0.2000000000      0.4000000000      0.5000000000E-02    1401
    92  0.3750000000      0.2000000000      0.4000000000      0.5000000000E-02    1401
    93  0.5000000000      0.2000000000      0.4000000000      0.5000000000E-02    1399
    94  0.6250000000      0.2000000000      0.4000000000      0.5000000000E-02    1390
    95  0.7500000000      0.2000000000      0.4000000000      0.5000000000E-02    1392
    96  0.8750000000      0.2000000000      0.4000000000      0.5000000000E-02    1385
    97   0.000000000      0.4000000000      0.4000000000      0.5000000000E-02    1381
    98  0.1250000000      0.4000000000      0.4000000000      0.5000000000E-02    1387
    99  0.2500000000      0.4000000000      0.4000000000      0.5000000000E-02    1392
   100  0.3750000000      0.4000000000      0.4000000000      0.5000000000E-02    1404
   101  0.5000000000      0.4000000000      0.4000000000      0.5000000000E-02    1402
   102  0.6250000000      0.4000000000      0.4000000000      0.5000000000E-02    1389
   103  0.7500000000      0.4000000000      0.4000000000      0.5000000000E-02    1384
   104  0.8750000000      0.4000000000      0.4000000000      0.5000000000E-02    1380
   105   0.000000000      0.6000000000      0.4000000000      0.5000000000E-02    1377
   106  0.1250000000      0.6000000000      0.4000000000      0.5000000000E-02    1377
   107  0.2500000000      0.6000000000      0.4000000000      0.5000000000E-02    1382
   108  0.3750000000      0.6000000000      0.4000000000      0.5000000000E-02    1388
   109  0.5000000000      0.6000000000      0.4000000000      0.5000000000E-02    1398
   110  0.6250000000      0.6000000000      0.4000000000      0.5000000000E-02    1400
   111  0.7500000000      0.6000000000      0.4000000000      0.5000000000E-02    1387
   112  0.8750000000      0.6000000000      0.4000000000      0.5000000000E-02    1380
   113   0.000000000      0.8000000000      0.4000000000      0.5000000000E-02    1387
   114  0.1250000000      0.8000000000      0.4000000000      0.5000000000E-02    1386
   115  0.2500000000      0.8000000000      0.4000000000      0.5000000000E-02    1386
   116  0.3750000000      0.8000000000      0.4000000000      0.5000000000E-02    1389
   117  0.5000000000      0.8000000000      0.4000000000      0.5000000000E-02    1398
   118  0.6250000000      0.8000000000      0.4000000000      0.5000000000E-02    1403
   119  0.7500000000      0.8000000000      0.4000000000      0.5000000000E-02    1400
   120  0.8750000000      0.8000000000      0.4000000000      0.5000000000E-02    1391
   121   0.000000000       0.000000000      0.6000000000      0.5000000000E-02    1401
   122  0.1250000000       0.000000000      0.6000000000      0.5000000000E-02    1392
   123  0.2500000000       0.000000000      0.6000000000      0.5000000000E-02    1396
   124  0.3750000000       0.000000000      0.6000000000      0.5000000000E-02    1399
   125  0.5000000000       0.000000000      0.6000000000      0.5000000000E-02    1396
   126  0.6250000000       0.000000000      0.6000000000      0.5000000000E-02    1400
   127  0.7500000000       0.000000000      0.6000000000      0.5000000000E-02    1397
   128  0.8750000000       0.000000000      0.6000000000      0.5000000000E-02    1395
   129   0.000000000      0.2000000000      0.6000000000      0.5000000000E-02    1387
   130  0.1250000000      0.2000000000      0.6000000000      0.5000000000E-02    1391
   131  0.2500000000      0.2000000000      0.6000000000      0.5000000000E-02    1400
   132  0.3750000000      0.2000000000      0.6000000000      0.5000000000E-02    1403
   133  0.5000000000      0.2000000000      0.6000000000      0.5000000000E-02    1398
   134  0.6250000000      0.2000000000      0.6000000000      0.5000000000E-02    1389
   135  0.7500000000      0.2000000000      0.6000000000      0.5000000000E-02    1386
   136  0.8750000000      0.2000000000      0.6000000000      0.5000000000E-02    1386
   137   0.000000000      0.4000000000      0.6000000000      0.5000000000E-02    1377
   138  0.1250000000      0.4000000000      0.6000000000      0.5000000000E-02    1380
   139  0.2500000000      0.4000000000      0.6000000000      0.5000000000E-02    1387
   140  0.3750000000      0.4000000000      0.6000000000      0.5000000000E-02    1400
   141  0.5000000000      0.4000000000      0.6000000000      0.5000000000E-02    1398
   142  0.6250000000      0.4000000000      0.6000000000      0.5000000000E-02    1388
   143  0.7500000000      0.4000000000      0.6000000000      0.5000000000E-02    1382
   144  0.8750000000      0.4000000000      0.6000000000      0.5000000000E-02    1377
   145   0.000000000      0.6000000000      0.6000000000      0.5000000000E-02    1381
   146  0.1250000000      0.6000000000      0.6000000000      0.5000000000E-02    1380
   147  0.2500000000      0.6000000000      0.6000000000      0.5000000000E-02    1384
   148  0.3750000000      0.6000000000      0.6000000000      0.5000000000E-02    1389
   149  0.5000000000      0.6000000000      0.6000000000      0.5000000000E-02    1402
   150  0.6250000000      0.6000000000      0.6000000000      0.5000000000E-02    1404
   151  0.7500000000      0.6000000000      0.6000000000      0.5000000000E-02    1392
   152  0.8750000000      0.6000000000      0.6000000000      0.5000000000E-02    1387
   153   0.000000000      0.8000000000      0.6000000000      0.5000000000E-02    1402
   154  0.1250000000      0.8000000000      0.6000000000      0.5000000000E-02    1385
   155  0.2500000000      0.8000000000      0.6000000000      0.5000000000E-02    1392
   156  0.3750000000      0.8000000000      0.6000000000      0.5000000000E-02    1390
   157  0.5000000000      0.8000000000      0.6000000000      0.5000000000E-02    1399
   158  0.6250000000      0.8000000000      0.6000000000      0.5000000000E-02    1401
   159  0.7500000000      0.8000000000      0.6000000000      0.5000000000E-02    1401
   160  0.8750000000      0.8000000000      0.6000000000      0.5000000000E-02    1391
   161   0.000000000       0.000000000      0.8000000000      0.5000000000E-02    1393
   162  0.1250000000       0.000000000      0.8000000000      0.5000000000E-02    1391
   163  0.2500000000       0.000000000      0.8000000000      0.5000000000E-02    1398
   164  0.3750000000       0.000000000      0.8000000000      0.5000000000E-02    1404
   165  0.5000000000       0.000000000      0.8000000000      0.5000000000E-02    1401
   166  0.6250000000       0.000000000      0.8000000000      0.5000000000E-02    1402
   167  0.7500000000       0.000000000      0.8000000000      0.5000000000E-02    1400
   168  0.8750000000       0.000000000      0.8000000000      0.5000000000E-02    1390
   169   0.000000000      0.2000000000      0.8000000000      0.5000000000E-02    1387
   170  0.1250000000      0.2000000000      0.8000000000      0.5000000000E-02    1391
   171  0.2500000000      0.2000000000      0.8000000000      0.5000000000E-02    1401
   172  0.3750000000      0.2000000000      0.8000000000      0.5000000000E-02    1403
   173  0.5000000000      0.2000000000      0.8000000000      0.5000000000E-02    1402
   174  0.6250000000      0.2000000000      0.8000000000      0.5000000000E-02    1395
   175  0.7500000000      0.2000000000      0.8000000000      0.5000000000E-02    1403
   176  0.8750000000      0.2000000000      0.8000000000      0.5000000000E-02    1387
   177   0.000000000      0.4000000000      0.8000000000      0.5000000000E-02    1379
   178  0.1250000000      0.4000000000      0.8000000000      0.5000000000E-02    1389
   179  0.2500000000      0.4000000000      0.8000000000      0.5000000000E-02    1401
   180  0.3750000000      0.4000000000      0.8000000000      0.5000000000E-02    1398
   181  0.5000000000      0.4000000000      0.8000000000      0.5000000000E-02    1396
   182  0.6250000000      0.4000000000      0.8000000000      0.5000000000E-02    1397
   183  0.7500000000      0.4000000000      0.8000000000      0.5000000000E-02    1390
   184  0.8750000000      0.4000000000      0.8000000000      0.5000000000E-02    1382
   185   0.000000000      0.6000000000      0.8000000000      0.5000000000E-02    1391
   186  0.1250000000      0.6000000000      0.8000000000      0.5000000000E-02    1385
   187  0.2500000000      0.6000000000      0.8000000000      0.5000000000E-02    1390
   188  0.3750000000      0.6000000000      0.8000000000      0.5000000000E-02    1397
   189  0.5000000000      0.6000000000      0.8000000000      0.5000000000E-02    1402
   190  0.6250000000      0.6000000000      0.8000000000      0.5000000000E-02    1401
   191  0.7500000000      0.6000000000      0.8000000000      0.5000000000E-02    1393
   192  0.8750000000      0.6000000000      0.8000000000      0.5000000000E-02    1385
   193   0.000000000      0.8000000000      0.8000000000      0.5000000000E-02    1390
   194  0.1250000000      0.8000000000      0.8000000000      0.5000000000E-02    1389
   195  0.2500000000      0.8000000000      0.8000000000      0.5000000000E-02    1391
   196  0.3750000000      0.8000000000      0.8000000000      0.5000000000E-02    1395
   197  0.5000000000      0.8000000000      0.8000000000      0.5000000000E-02    1397
   198  0.6250000000      0.8000000000      0.8000000000      0.5000000000E-02    1408
   199  0.7500000000      0.8000000000      0.8000000000      0.5000000000E-02    1396
   200  0.8750000000      0.8000000000      0.8000000000      0.5000000000E-02    1392
