    -304.793528754    
    -304.793488732    
    -304.793543368    
    -304.793356221    
    -304.793512443    
    -304.793557014    
    -304.793558516    
    -304.793542388    
    -304.793531888    
    -304.793535310    
    -304.793535156    
    -304.793534781    
    -304.793535148    
    -304.793535203    
 
