================================================================================
| EXCITING NITROGEN-13 started                                                 =
| version hash id: de0c1dba9f665d6c60514aa9e8bf40326ac9f394                    =
|                                                                              =
|                                                                              =
| Date (DD-MM-YYYY) : 03-05-2022                                               =
| Time (hh:mm:ss)   : 15:41:56                                                 =
|                                                                              =
| All units are atomic (Hartree, Bohr, etc.)                                   =
================================================================================
 
********************************************************************************
* Ground-state run resuming from STATE.OUT                                     *
********************************************************************************
 
++++++++++++++++++++++++++++++++++++++++++++++++++++++++++++++++++++++++++++++++
+ Starting initialization                                                      +
++++++++++++++++++++++++++++++++++++++++++++++++++++++++++++++++++++++++++++++++
 
 Lattice vectors (cartesian) :
     -3.3759957000      0.0000000000     -3.3759957000
     -3.3759957000      3.3759957000      0.0000000000
    -10.1279871000    -10.1279871000      6.7519914000
 
 Reciprocal lattice vectors (cartesian) :
     -0.4652838648     -0.4652838648     -1.3958515944
     -0.6979257972      1.1632096620      0.6979257972
     -0.2326419324     -0.2326419324      0.2326419324
 
 Unit cell volume                           :     307.8191548003
 Brillouin zone volume                      :       0.8058309874
 
 Species :    1 (C)
     parameters loaded from                 :    C.xml
     name                                   :    carbon
     nuclear charge                         :      -6.00000000
     electronic charge                      :       6.00000000
     atomic mass                            :   21894.16673000
     muffin-tin radius                      :       1.25000000
     # of radial points in muffin-tin       :     250
 
     atomic positions (lattice) :
       1 :   0.00000000  0.00000000  0.00000000
       2 :   0.50029621  0.25044431  0.75014810
       3 :   0.00000000  0.50000000  0.50000000
       4 :   0.49970379  0.74955569  0.24985190
       5 :   0.37500000  0.31250000  0.93750000
       6 :   0.87500000  0.56250000  0.68750000
       7 :   0.37500000  0.81250000  0.43750000
       8 :   0.87500000  0.06250000  0.18750000
 
 Total number of atoms per unit cell        :       8
 
 Spin treatment                             :    spin-unpolarised
 
 Number of Bravais lattice symmetries       :      12
 Number of crystal symmetries               :       2
 
 Sphere radius used for k-point grid density:      33.42065234
 
 k-point grid                               :       8    8    3
 Total number of k-points                   :     192
 k-point set is reduced with crystal symmetries
 
 R^MT_min * |G+k|_max (rgkmax)              :       8.00000000
 Species with R^MT_min                      :       1 (C)
 Maximum |G+k| for APW functions            :       6.40000000
 Maximum |G| for potential and density      :      16.00000000
 
 G-vector grid sizes                        :      25    25    81
 Total number of G-vectors                  :   21163
 
 Maximum angular momentum used for
     APW functions                          :       8
     computing H and O matrix elements      :       8
     potential and density                  :       8
     inner part of muffin-tin               :       2
 
 Total nuclear charge                       :     -48.00000000
 Total electronic charge                    :      48.00000000
 Total core charge                          :      16.00000000
 Total valence charge                       :      32.00000000
 
 Number of empty states                     :      20
 Total number of valence states             :      37
 
 Maximum Hamiltonian size                   :    1423
 Maximum number of plane-waves              :    1391
 Total number of local-orbitals             :      32
 
 Exchange-correlation type                  :      20
     Perdew-Burke-Ernzerhof, Phys. Rev. Lett. 77, 3865 (1996)
     Generalised gradient approximation (GGA)
 
 Smearing scheme                            :    Gaussian
 Smearing width                             :       0.00010000
 
 Using multisecant Broyden potential mixing
 
++++++++++++++++++++++++++++++++++++++++++++++++++++++++++++++++++++++++++++++++
+ Ending initialization                                                        +
++++++++++++++++++++++++++++++++++++++++++++++++++++++++++++++++++++++++++++++++
 
********************************************************************************
* Groundstate module started                                                   *
********************************************************************************
 Output level for this task is set to normal
 
++++++++++++++++++++++++++++++++++++++++++++++++++++++++++++++++++++++++++++++++
+ Self-consistent loop started                                                 +
++++++++++++++++++++++++++++++++++++++++++++++++++++++++++++++++++++++++++++++++
 Potential read in from STATE.OUT
 
 
++++++++++++++++++++++++++++++++++++++++++++++++++++++++++++++++++++++++++++++++
+ SCF iteration number :    1                                                  +
++++++++++++++++++++++++++++++++++++++++++++++++++++++++++++++++++++++++++++++++
 Total energy                               :      -304.79377095
 _______________________________________________________________
 Fermi energy                               :         0.51747718
 Kinetic energy                             :       303.61973603
 Coulomb energy                             :      -564.99832831
 Exchange energy                            :       -41.63643193
 Correlation energy                         :        -1.77874674
 
 DOS at Fermi energy (states/Ha/cell)       :         0.00000000
 
 Electron charges :
     core                                   :        16.00000000
     core leakage                           :         0.00340896
     valence                                :        32.00000000
     interstitial                           :        17.96347770
     charge in muffin-tin spheres :
                  atom     1     C          :         3.75485388
                  atom     2     C          :         3.75443106
                  atom     3     C          :         3.75428607
                  atom     4     C          :         3.75464811
                  atom     5     C          :         3.75535570
                  atom     6     C          :         3.75514396
                  atom     7     C          :         3.75378852
                  atom     8     C          :         3.75401500
     total charge in muffin-tins            :        30.03652230
     total charge                           :        48.00000000
 
 Estimated fundamental gap                  :         0.15294085
        valence-band maximum at    1      0.0000  0.0000  0.0000
     conduction-band minimum at  134      0.6250  0.0000  0.6667
 
 Wall time (seconds)                        :       113.77
 
++++++++++++++++++++++++++++++++++++++++++++++++++++++++++++++++++++++++++++++++
+ SCF iteration number :    2                                                  +
++++++++++++++++++++++++++++++++++++++++++++++++++++++++++++++++++++++++++++++++
 Total energy                               :      -304.79355405
 _______________________________________________________________
 Fermi energy                               :         0.51748130
 Kinetic energy                             :       303.61980428
 Coulomb energy                             :      -564.99818927
 Exchange energy                            :       -41.63642153
 Correlation energy                         :        -1.77874753
 
 DOS at Fermi energy (states/Ha/cell)       :         0.00000000
 
 Electron charges :
     core                                   :        16.00000000
     core leakage                           :         0.00340896
     valence                                :        32.00000000
     interstitial                           :        17.96354347
     charge in muffin-tin spheres :
                  atom     1     C          :         3.75481443
                  atom     2     C          :         3.75432679
                  atom     3     C          :         3.75427891
                  atom     4     C          :         3.75474233
                  atom     5     C          :         3.75469595
                  atom     6     C          :         3.75357840
                  atom     7     C          :         3.75444453
                  atom     8     C          :         3.75557522
     total charge in muffin-tins            :        30.03645653
     total charge                           :        48.00000000
 
 Estimated fundamental gap                  :         0.15293380
        valence-band maximum at    1      0.0000  0.0000  0.0000
     conduction-band minimum at  134      0.6250  0.0000  0.6667
 
 Wall time (seconds)                        :       228.73
 
 RMS change in effective potential (target) :  0.249196E-02  ( 0.100000E-05)
 Absolute change in total energy   (target) :  0.216895E-03  ( 0.100000E-05)
 Charge distance                   (target) :  0.683977E-03  ( 0.100000E-04)
 Abs. change in max-nonIBS-force   (target) :  0.132039E-01  ( 0.500000E-04)
 
++++++++++++++++++++++++++++++++++++++++++++++++++++++++++++++++++++++++++++++++
+ SCF iteration number :    3                                                  +
++++++++++++++++++++++++++++++++++++++++++++++++++++++++++++++++++++++++++++++++
 Total energy                               :      -304.79348420
 _______________________________________________________________
 Fermi energy                               :         0.51748105
 Kinetic energy                             :       303.61981253
 Coulomb energy                             :      -564.99813330
 Exchange energy                            :       -41.63641563
 Correlation energy                         :        -1.77874781
 
 DOS at Fermi energy (states/Ha/cell)       :         0.00000000
 
 Electron charges :
     core                                   :        16.00000000
     core leakage                           :         0.00340897
     valence                                :        32.00000000
     interstitial                           :        17.96353424
     charge in muffin-tin spheres :
                  atom     1     C          :         3.75493054
                  atom     2     C          :         3.75445820
                  atom     3     C          :         3.75416147
                  atom     4     C          :         3.75461139
                  atom     5     C          :         3.75477747
                  atom     6     C          :         3.75373952
                  atom     7     C          :         3.75436909
                  atom     8     C          :         3.75541808
     total charge in muffin-tins            :        30.03646576
     total charge                           :        48.00000000
 
 Estimated fundamental gap                  :         0.15293501
        valence-band maximum at    1      0.0000  0.0000  0.0000
     conduction-band minimum at  134      0.6250  0.0000  0.6667
 
 Wall time (seconds)                        :       343.29
 
 RMS change in effective potential (target) :  0.176653E-02  ( 0.100000E-05)
 Absolute change in total energy   (target) :  0.698497E-04  ( 0.100000E-05)
 Charge distance                   (target) :  0.208247E-03  ( 0.100000E-04)
 Abs. change in max-nonIBS-force   (target) :  0.550437E-02  ( 0.500000E-04)
 
++++++++++++++++++++++++++++++++++++++++++++++++++++++++++++++++++++++++++++++++
+ SCF iteration number :    4                                                  +
++++++++++++++++++++++++++++++++++++++++++++++++++++++++++++++++++++++++++++++++
 Total energy                               :      -304.79372349
 _______________________________________________________________
 Fermi energy                               :         0.51747927
 Kinetic energy                             :       303.61988986
 Coulomb energy                             :      -564.99842786
 Exchange energy                            :       -41.63643885
 Correlation energy                         :        -1.77874664
 
 DOS at Fermi energy (states/Ha/cell)       :         0.00000000
 
 Electron charges :
     core                                   :        16.00000000
     core leakage                           :         0.00340895
     valence                                :        32.00000000
     interstitial                           :        17.96352754
     charge in muffin-tin spheres :
                  atom     1     C          :         3.75288033
                  atom     2     C          :         3.75454255
                  atom     3     C          :         3.75622503
                  atom     4     C          :         3.75451080
                  atom     5     C          :         3.75487070
                  atom     6     C          :         3.75574328
                  atom     7     C          :         3.75425959
                  atom     8     C          :         3.75344020
     total charge in muffin-tins            :        30.03647246
     total charge                           :        48.00000000
 
 Estimated fundamental gap                  :         0.15291411
        valence-band maximum at    1      0.0000  0.0000  0.0000
     conduction-band minimum at  134      0.6250  0.0000  0.6667
 
 Wall time (seconds)                        :       459.30
 
 RMS change in effective potential (target) :  0.322501E-02  ( 0.100000E-05)
 Absolute change in total energy   (target) :  0.239284E-03  ( 0.100000E-05)
 Charge distance                   (target) :  0.584152E-03  ( 0.100000E-04)
 Abs. change in max-nonIBS-force   (target) :  0.580341E-02  ( 0.500000E-04)
 
++++++++++++++++++++++++++++++++++++++++++++++++++++++++++++++++++++++++++++++++
+ SCF iteration number :    5                                                  +
++++++++++++++++++++++++++++++++++++++++++++++++++++++++++++++++++++++++++++++++
 Total energy                               :      -304.79362472
 _______________________________________________________________
 Fermi energy                               :         0.51747803
 Kinetic energy                             :       303.61980353
 Coulomb energy                             :      -564.99825722
 Exchange energy                            :       -41.63642335
 Correlation energy                         :        -1.77874768
 
 DOS at Fermi energy (states/Ha/cell)       :         0.00000000
 
 Electron charges :
     core                                   :        16.00000000
     core leakage                           :         0.00340896
     valence                                :        32.00000000
     interstitial                           :        17.96352095
     charge in muffin-tin spheres :
                  atom     1     C          :         3.75472983
                  atom     2     C          :         3.75456467
                  atom     3     C          :         3.75437806
                  atom     4     C          :         3.75451388
                  atom     5     C          :         3.75531398
                  atom     6     C          :         3.75438732
                  atom     7     C          :         3.75381880
                  atom     8     C          :         3.75477251
     total charge in muffin-tins            :        30.03647905
     total charge                           :        48.00000000
 
 Estimated fundamental gap                  :         0.15294019
        valence-band maximum at    1      0.0000  0.0000  0.0000
     conduction-band minimum at  134      0.6250  0.0000  0.6667
 
 Wall time (seconds)                        :       574.11
 
 RMS change in effective potential (target) :  0.509587E-03  ( 0.100000E-05)
 Absolute change in total energy   (target) :  0.987706E-04  ( 0.100000E-05)
 Charge distance                   (target) :  0.424330E-03  ( 0.100000E-04)
 Abs. change in max-nonIBS-force   (target) :  0.110863E-01  ( 0.500000E-04)
 
++++++++++++++++++++++++++++++++++++++++++++++++++++++++++++++++++++++++++++++++
+ SCF iteration number :    6                                                  +
++++++++++++++++++++++++++++++++++++++++++++++++++++++++++++++++++++++++++++++++
 Total energy                               :      -304.79358628
 _______________________________________________________________
 Fermi energy                               :         0.51747896
 Kinetic energy                             :       303.61981955
 Coulomb energy                             :      -564.99823635
 Exchange energy                            :       -41.63642178
 Correlation energy                         :        -1.77874770
 
 DOS at Fermi energy (states/Ha/cell)       :         0.00000000
 
 Electron charges :
     core                                   :        16.00000000
     core leakage                           :         0.00340896
     valence                                :        32.00000000
     interstitial                           :        17.96352203
     charge in muffin-tin spheres :
                  atom     1     C          :         3.75476047
                  atom     2     C          :         3.75455729
                  atom     3     C          :         3.75433295
                  atom     4     C          :         3.75451275
                  atom     5     C          :         3.75491905
                  atom     6     C          :         3.75433537
                  atom     7     C          :         3.75423381
                  atom     8     C          :         3.75482630
     total charge in muffin-tins            :        30.03647797
     total charge                           :        48.00000000
 
 Estimated fundamental gap                  :         0.15293913
        valence-band maximum at    1      0.0000  0.0000  0.0000
     conduction-band minimum at  134      0.6250  0.0000  0.6667
 
 Wall time (seconds)                        :       688.30
 
 RMS change in effective potential (target) :  0.185731E-03  ( 0.100000E-05)
 Absolute change in total energy   (target) :  0.384324E-04  ( 0.100000E-05)
 Charge distance                   (target) :  0.597577E-04  ( 0.100000E-04)
 Abs. change in max-nonIBS-force   (target) :  0.285250E-03  ( 0.500000E-04)
 
++++++++++++++++++++++++++++++++++++++++++++++++++++++++++++++++++++++++++++++++
+ SCF iteration number :    7                                                  +
++++++++++++++++++++++++++++++++++++++++++++++++++++++++++++++++++++++++++++++++
 Total energy                               :      -304.79355529
 _______________________________________________________________
 Fermi energy                               :         0.51747916
 Kinetic energy                             :       303.61984201
 Coulomb energy                             :      -564.99822855
 Exchange energy                            :       -41.63642101
 Correlation energy                         :        -1.77874774
 
 DOS at Fermi energy (states/Ha/cell)       :         0.00000000
 
 Electron charges :
     core                                   :        16.00000000
     core leakage                           :         0.00340896
     valence                                :        32.00000000
     interstitial                           :        17.96352292
     charge in muffin-tin spheres :
                  atom     1     C          :         3.75465214
                  atom     2     C          :         3.75460841
                  atom     3     C          :         3.75444482
                  atom     4     C          :         3.75446381
                  atom     5     C          :         3.75502564
                  atom     6     C          :         3.75426885
                  atom     7     C          :         3.75412011
                  atom     8     C          :         3.75489329
     total charge in muffin-tins            :        30.03647708
     total charge                           :        48.00000000
 
 Estimated fundamental gap                  :         0.15293954
        valence-band maximum at    1      0.0000  0.0000  0.0000
     conduction-band minimum at  134      0.6250  0.0000  0.6667
 
 Wall time (seconds)                        :       803.71
 
 RMS change in effective potential (target) :  0.138512E-03  ( 0.100000E-05)
 Absolute change in total energy   (target) :  0.309918E-04  ( 0.100000E-05)
 Charge distance                   (target) :  0.348711E-04  ( 0.100000E-04)
 Abs. change in max-nonIBS-force   (target) :  0.581055E-03  ( 0.500000E-04)
 
++++++++++++++++++++++++++++++++++++++++++++++++++++++++++++++++++++++++++++++++
+ SCF iteration number :    8                                                  +
++++++++++++++++++++++++++++++++++++++++++++++++++++++++++++++++++++++++++++++++
 Total energy                               :      -304.79354176
 _______________________________________________________________
 Fermi energy                               :         0.51747954
 Kinetic energy                             :       303.61985378
 Coulomb energy                             :      -564.99822697
 Exchange energy                            :       -41.63642083
 Correlation energy                         :        -1.77874774
 
 DOS at Fermi energy (states/Ha/cell)       :         0.00000000
 
 Electron charges :
     core                                   :        16.00000000
     core leakage                           :         0.00340896
     valence                                :        32.00000000
     interstitial                           :        17.96352309
     charge in muffin-tin spheres :
                  atom     1     C          :         3.75468678
                  atom     2     C          :         3.75453225
                  atom     3     C          :         3.75440922
                  atom     4     C          :         3.75453957
                  atom     5     C          :         3.75496674
                  atom     6     C          :         3.75430357
                  atom     7     C          :         3.75418095
                  atom     8     C          :         3.75485783
     total charge in muffin-tins            :        30.03647691
     total charge                           :        48.00000000
 
 Estimated fundamental gap                  :         0.15293917
        valence-band maximum at    1      0.0000  0.0000  0.0000
     conduction-band minimum at  134      0.6250  0.0000  0.6667
 
 Wall time (seconds)                        :       918.64
 
 RMS change in effective potential (target) :  0.783239E-04  ( 0.100000E-05)
 Absolute change in total energy   (target) :  0.135347E-04  ( 0.100000E-05)
 Charge distance                   (target) :  0.176642E-04  ( 0.100000E-04)
 Abs. change in max-nonIBS-force   (target) :  0.258069E-03  ( 0.500000E-04)
 
++++++++++++++++++++++++++++++++++++++++++++++++++++++++++++++++++++++++++++++++
+ SCF iteration number :    9                                                  +
++++++++++++++++++++++++++++++++++++++++++++++++++++++++++++++++++++++++++++++++
 Total energy                               :      -304.79353374
 _______________________________________________________________
 Fermi energy                               :         0.51747970
 Kinetic energy                             :       303.61986142
 Coulomb energy                             :      -564.99822667
 Exchange energy                            :       -41.63642075
 Correlation energy                         :        -1.77874775
 
 DOS at Fermi energy (states/Ha/cell)       :         0.00000000
 
 Electron charges :
     core                                   :        16.00000000
     core leakage                           :         0.00340896
     valence                                :        32.00000000
     interstitial                           :        17.96352322
     charge in muffin-tin spheres :
                  atom     1     C          :         3.75466379
                  atom     2     C          :         3.75457648
                  atom     3     C          :         3.75443149
                  atom     4     C          :         3.75449418
                  atom     5     C          :         3.75495800
                  atom     6     C          :         3.75424528
                  atom     7     C          :         3.75419010
                  atom     8     C          :         3.75491746
     total charge in muffin-tins            :        30.03647678
     total charge                           :        48.00000000
 
 Estimated fundamental gap                  :         0.15293912
        valence-band maximum at    1      0.0000  0.0000  0.0000
     conduction-band minimum at   68      0.3750  0.0000  0.3333
 
 Wall time (seconds)                        :      1033.20
 
 RMS change in effective potential (target) :  0.443373E-04  ( 0.100000E-05)
 Absolute change in total energy   (target) :  0.801961E-05  ( 0.100000E-05)
 Charge distance                   (target) :  0.112790E-04  ( 0.100000E-04)
 Abs. change in max-nonIBS-force   (target) :  0.143347E-03  ( 0.500000E-04)
 
++++++++++++++++++++++++++++++++++++++++++++++++++++++++++++++++++++++++++++++++
+ SCF iteration number :   10                                                  +
++++++++++++++++++++++++++++++++++++++++++++++++++++++++++++++++++++++++++++++++
 Total energy                               :      -304.79352515
 _______________________________________________________________
 Fermi energy                               :         0.51747991
 Kinetic energy                             :       303.61986934
 Coulomb energy                             :      -564.99822611
 Exchange energy                            :       -41.63642063
 Correlation energy                         :        -1.77874776
 
 DOS at Fermi energy (states/Ha/cell)       :         0.00000000
 
 Electron charges :
     core                                   :        16.00000000
     core leakage                           :         0.00340896
     valence                                :        32.00000000
     interstitial                           :        17.96352344
     charge in muffin-tin spheres :
                  atom     1     C          :         3.75464120
                  atom     2     C          :         3.75455871
                  atom     3     C          :         3.75445469
                  atom     4     C          :         3.75451319
                  atom     5     C          :         3.75496834
                  atom     6     C          :         3.75423414
                  atom     7     C          :         3.75417816
                  atom     8     C          :         3.75492814
     total charge in muffin-tins            :        30.03647656
     total charge                           :        48.00000000
 
 Estimated fundamental gap                  :         0.15293898
        valence-band maximum at    1      0.0000  0.0000  0.0000
     conduction-band minimum at   68      0.3750  0.0000  0.3333
 
 Wall time (seconds)                        :      1148.54
 
 RMS change in effective potential (target) :  0.151675E-04  ( 0.100000E-05)
 Absolute change in total energy   (target) :  0.858396E-05  ( 0.100000E-05)
 Charge distance                   (target) :  0.852599E-05  ( 0.100000E-04)
 Abs. change in max-nonIBS-force   (target) :  0.204676E-03  ( 0.500000E-04)
 
++++++++++++++++++++++++++++++++++++++++++++++++++++++++++++++++++++++++++++++++
+ SCF iteration number :   11                                                  +
++++++++++++++++++++++++++++++++++++++++++++++++++++++++++++++++++++++++++++++++
 Total energy                               :      -304.79351993
 _______________________________________________________________
 Fermi energy                               :         0.51747997
 Kinetic energy                             :       303.61987385
 Coulomb energy                             :      -564.99822547
 Exchange energy                            :       -41.63642054
 Correlation energy                         :        -1.77874777
 
 DOS at Fermi energy (states/Ha/cell)       :         0.00000000
 
 Electron charges :
     core                                   :        16.00000000
     core leakage                           :         0.00340896
     valence                                :        32.00000000
     interstitial                           :        17.96352358
     charge in muffin-tin spheres :
                  atom     1     C          :         3.75464461
                  atom     2     C          :         3.75456018
                  atom     3     C          :         3.75445085
                  atom     4     C          :         3.75451094
                  atom     5     C          :         3.75495807
                  atom     6     C          :         3.75422758
                  atom     7     C          :         3.75418907
                  atom     8     C          :         3.75493512
     total charge in muffin-tins            :        30.03647642
     total charge                           :        48.00000000
 
 Estimated fundamental gap                  :         0.15293898
        valence-band maximum at    1      0.0000  0.0000  0.0000
     conduction-band minimum at   68      0.3750  0.0000  0.3333
 
 Wall time (seconds)                        :      1263.91
 
 RMS change in effective potential (target) :  0.410644E-05  ( 0.100000E-05)
 Absolute change in total energy   (target) :  0.522351E-05  ( 0.100000E-05)
 Charge distance                   (target) :  0.492447E-05  ( 0.100000E-04)
 Abs. change in max-nonIBS-force   (target) :  0.775422E-04  ( 0.500000E-04)
 
++++++++++++++++++++++++++++++++++++++++++++++++++++++++++++++++++++++++++++++++
+ SCF iteration number :   12                                                  +
++++++++++++++++++++++++++++++++++++++++++++++++++++++++++++++++++++++++++++++++
 Total energy                               :      -304.79352033
 _______________________________________________________________
 Fermi energy                               :         0.51747999
 Kinetic energy                             :       303.61987363
 Coulomb energy                             :      -564.99822564
 Exchange energy                            :       -41.63642056
 Correlation energy                         :        -1.77874777
 
 DOS at Fermi energy (states/Ha/cell)       :         0.00000000
 
 Electron charges :
     core                                   :        16.00000000
     core leakage                           :         0.00340896
     valence                                :        32.00000000
     interstitial                           :        17.96352355
     charge in muffin-tin spheres :
                  atom     1     C          :         3.75464248
                  atom     2     C          :         3.75455971
                  atom     3     C          :         3.75445324
                  atom     4     C          :         3.75451157
                  atom     5     C          :         3.75495916
                  atom     6     C          :         3.75422542
                  atom     7     C          :         3.75418760
                  atom     8     C          :         3.75493725
     total charge in muffin-tins            :        30.03647645
     total charge                           :        48.00000000
 
 Estimated fundamental gap                  :         0.15293895
        valence-band maximum at    1      0.0000  0.0000  0.0000
     conduction-band minimum at   68      0.3750  0.0000  0.3333
 
 Wall time (seconds)                        :      1380.05
 
 RMS change in effective potential (target) :  0.720055E-06  ( 0.100000E-05)
 Absolute change in total energy   (target) :  0.401475E-06  ( 0.100000E-05)
 Charge distance                   (target) :  0.664489E-06  ( 0.100000E-04)
 Abs. change in max-nonIBS-force   (target) :  0.181406E-05  ( 0.500000E-04)
 
++++++++++++++++++++++++++++++++++++++++++++++++++++++++++++++++++++++++++++++++
+ SCF iteration number :   13                                                  +
++++++++++++++++++++++++++++++++++++++++++++++++++++++++++++++++++++++++++++++++
 Total energy                               :      -304.79352028
 _______________________________________________________________
 Fermi energy                               :         0.51747999
 Kinetic energy                             :       303.61987364
 Coulomb energy                             :      -564.99822561
 Exchange energy                            :       -41.63642055
 Correlation energy                         :        -1.77874777
 
 DOS at Fermi energy (states/Ha/cell)       :         0.00000000
 
 Electron charges :
     core                                   :        16.00000000
     core leakage                           :         0.00340896
     valence                                :        32.00000000
     interstitial                           :        17.96352355
     charge in muffin-tin spheres :
                  atom     1     C          :         3.75464224
                  atom     2     C          :         3.75456034
                  atom     3     C          :         3.75445324
                  atom     4     C          :         3.75451101
                  atom     5     C          :         3.75495932
                  atom     6     C          :         3.75422492
                  atom     7     C          :         3.75418769
                  atom     8     C          :         3.75493769
     total charge in muffin-tins            :        30.03647645
     total charge                           :        48.00000000
 
 Estimated fundamental gap                  :         0.15293896
        valence-band maximum at    1      0.0000  0.0000  0.0000
     conduction-band minimum at   68      0.3750  0.0000  0.3333
 
 Wall time (seconds)                        :      1495.28
 
 RMS change in effective potential (target) :  0.151841E-06  ( 0.100000E-05)
 Absolute change in total energy   (target) :  0.501220E-07  ( 0.100000E-05)
 Charge distance                   (target) :  0.146018E-06  ( 0.100000E-04)
 Abs. change in max-nonIBS-force   (target) :  0.281662E-05  ( 0.500000E-04)
                                                                                
++++++++++++++++++++++++++++++++++++++++++++++++++++++++++++++++++++++++++++++++
| Convergency criteria checked for the last 2 iterations                       +
| Convergence targets achieved. Performing final SCF iteration                 +
++++++++++++++++++++++++++++++++++++++++++++++++++++++++++++++++++++++++++++++++
 Total energy                               :      -304.79352023
 _______________________________________________________________
 Fermi energy                               :         0.51747999
 Kinetic energy                             :       303.61987367
 Coulomb energy                             :      -564.99822558
 Exchange energy                            :       -41.63642055
 Correlation energy                         :        -1.77874777
 
 DOS at Fermi energy (states/Ha/cell)       :         0.00000000
 
 Electron charges :
     core                                   :        16.00000000
     core leakage                           :         0.00340896
     valence                                :        32.00000000
     interstitial                           :        17.96352356
     charge in muffin-tin spheres :
                  atom     1     C          :         3.75464248
                  atom     2     C          :         3.75456008
                  atom     3     C          :         3.75445331
                  atom     4     C          :         3.75451114
                  atom     5     C          :         3.75495914
                  atom     6     C          :         3.75422516
                  atom     7     C          :         3.75418756
                  atom     8     C          :         3.75493757
     total charge in muffin-tins            :        30.03647644
     total charge                           :        48.00000000
 
 Estimated fundamental gap                  :         0.15293896
        valence-band maximum at    1      0.0000  0.0000  0.0000
     conduction-band minimum at   68      0.3750  0.0000  0.3333
 
++++++++++++++++++++++++++++++++++++++++++++++++++++++++++++++++++++++++++++++++
+ Self-consistent loop stopped                                                 +
++++++++++++++++++++++++++++++++++++++++++++++++++++++++++++++++++++++++++++++++
 STATE.OUT is written
 
--------------------------------------------------------------------------------
- Writing atomic positions and forces                                          -
--------------------------------------------------------------------------------
 
 Atomic positions (lattice) :
 atom     1   C  :     0.00000000    0.00000000    0.00000000
 atom     2   C  :     0.50029621    0.25044431    0.75014810
 atom     3   C  :     0.00000000    0.50000000    0.50000000
 atom     4   C  :     0.49970379    0.74955569    0.24985190
 atom     5   C  :     0.37500000    0.31250000    0.93750000
 atom     6   C  :     0.87500000    0.56250000    0.68750000
 atom     7   C  :     0.37500000    0.81250000    0.43750000
 atom     8   C  :     0.87500000    0.06250000    0.18750000
 
 Total atomic forces including IBS (cartesian) :
 atom     1   C  :     0.00001513   -0.00000340    0.00000340
 atom     2   C  :     0.00169258    0.00013728   -0.00013728
 atom     3   C  :     0.00000829   -0.00000758    0.00000758
 atom     4   C  :    -0.00166688   -0.00014535    0.00014535
 atom     5   C  :    -0.00036320   -0.00006867    0.00006867
 atom     6   C  :    -0.00114561    0.00007351   -0.00007351
 atom     7   C  :     0.00032638    0.00007191   -0.00007191
 atom     8   C  :     0.00113331   -0.00005770    0.00005770
 
 Atomic force components including IBS (cartesian) :
 atom     1   C  :    -0.00000811   -0.00008631    0.00008631   HF force
                 :     0.00000905    0.00008759   -0.00008759   core correction
                 :     0.00001419   -0.00000468    0.00000468   IBS correction
 atom     2   C  :     0.00173548    0.00017039   -0.00017039   HF force
                 :    -0.00003425   -0.00002287    0.00002287   core correction
                 :    -0.00000865   -0.00001024    0.00001024   IBS correction
 atom     3   C  :    -0.00005362    0.00004176   -0.00004176   HF force
                 :     0.00004861   -0.00004085    0.00004085   core correction
                 :     0.00001331   -0.00000849    0.00000849   IBS correction
 atom     4   C  :    -0.00179551   -0.00021099    0.00021099   HF force
                 :     0.00009186    0.00006844   -0.00006844   core correction
                 :     0.00003676   -0.00000280    0.00000280   IBS correction
 atom     5   C  :    -0.00031245   -0.00002599    0.00002599   HF force
                 :    -0.00004162   -0.00004827    0.00004827   core correction
                 :    -0.00000914    0.00000559   -0.00000559   IBS correction
 atom     6   C  :    -0.00121665    0.00006618   -0.00006618   HF force
                 :     0.00007407    0.00000275   -0.00000275   core correction
                 :    -0.00000303    0.00000458   -0.00000458   IBS correction
 atom     7   C  :     0.00035213    0.00006277   -0.00006277   HF force
                 :    -0.00000984    0.00000180   -0.00000180   core correction
                 :    -0.00001591    0.00000734   -0.00000734   IBS correction
 atom     8   C  :     0.00129873   -0.00001781    0.00001781   HF force
                 :    -0.00013788   -0.00004859    0.00004859   core correction
                 :    -0.00002754    0.00000869   -0.00000869   IBS correction
 
********************************************************************************
* Groundstate module stopped                                                   *
********************************************************************************
 
 Total time spent (seconds)                 :      1804.01
================================================================================
| EXCITING NITROGEN-13 stopped                                                 =
================================================================================
