================================================================================
| EXCITING NITROGEN-13 started                                                 =
| version hash id: de0c1dba9f665d6c60514aa9e8bf40326ac9f394                    =
|                                                                              =
|                                                                              =
| Date (DD-MM-YYYY) : 03-05-2022                                               =
| Time (hh:mm:ss)   : 14:41:04                                                 =
|                                                                              =
| All units are atomic (Hartree, Bohr, etc.)                                   =
================================================================================
 
********************************************************************************
* Ground-state run resuming from STATE.OUT                                     *
********************************************************************************
 
++++++++++++++++++++++++++++++++++++++++++++++++++++++++++++++++++++++++++++++++
+ Starting initialization                                                      +
++++++++++++++++++++++++++++++++++++++++++++++++++++++++++++++++++++++++++++++++
 
 Lattice vectors (cartesian) :
     -3.3759957000      0.0000000000     -3.3759957000
     -3.3759957000      3.3759957000      0.0000000000
    -10.1279871000    -10.1279871000      6.7519914000
 
 Reciprocal lattice vectors (cartesian) :
     -0.4652838648     -0.4652838648     -1.3958515944
     -0.6979257972      1.1632096620      0.6979257972
     -0.2326419324     -0.2326419324      0.2326419324
 
 Unit cell volume                           :     307.8191548003
 Brillouin zone volume                      :       0.8058309874
 
 Species :    1 (C)
     parameters loaded from                 :    C.xml
     name                                   :    carbon
     nuclear charge                         :      -6.00000000
     electronic charge                      :       6.00000000
     atomic mass                            :   21894.16673000
     muffin-tin radius                      :       1.25000000
     # of radial points in muffin-tin       :     250
 
     atomic positions (lattice) :
       1 :   0.99970379  0.99955569  0.99985190
       2 :   0.50000000  0.25000000  0.75000000
       3 :   0.00029621  0.50044431  0.50014810
       4 :   0.50000000  0.75000000  0.25000000
       5 :   0.37500000  0.31250000  0.93750000
       6 :   0.87500000  0.56250000  0.68750000
       7 :   0.37500000  0.81250000  0.43750000
       8 :   0.87500000  0.06250000  0.18750000
 
 Total number of atoms per unit cell        :       8
 
 Spin treatment                             :    spin-unpolarised
 
 Number of Bravais lattice symmetries       :      12
 Number of crystal symmetries               :       2
 
 Sphere radius used for k-point grid density:      33.42065234
 
 k-point grid                               :       8    8    3
 Total number of k-points                   :     192
 k-point set is reduced with crystal symmetries
 
 R^MT_min * |G+k|_max (rgkmax)              :       8.00000000
 Species with R^MT_min                      :       1 (C)
 Maximum |G+k| for APW functions            :       6.40000000
 Maximum |G| for potential and density      :      16.00000000
 
 G-vector grid sizes                        :      25    25    81
 Total number of G-vectors                  :   21163
 
 Maximum angular momentum used for
     APW functions                          :       8
     computing H and O matrix elements      :       8
     potential and density                  :       8
     inner part of muffin-tin               :       2
 
 Total nuclear charge                       :     -48.00000000
 Total electronic charge                    :      48.00000000
 Total core charge                          :      16.00000000
 Total valence charge                       :      32.00000000
 
 Number of empty states                     :      20
 Total number of valence states             :      37
 
 Maximum Hamiltonian size                   :    1423
 Maximum number of plane-waves              :    1391
 Total number of local-orbitals             :      32
 
 Exchange-correlation type                  :      20
     Perdew-Burke-Ernzerhof, Phys. Rev. Lett. 77, 3865 (1996)
     Generalised gradient approximation (GGA)
 
 Smearing scheme                            :    Gaussian
 Smearing width                             :       0.00010000
 
 Using multisecant Broyden potential mixing
 
++++++++++++++++++++++++++++++++++++++++++++++++++++++++++++++++++++++++++++++++
+ Ending initialization                                                        +
++++++++++++++++++++++++++++++++++++++++++++++++++++++++++++++++++++++++++++++++
 
********************************************************************************
* Groundstate module started                                                   *
********************************************************************************
 Output level for this task is set to normal
 
++++++++++++++++++++++++++++++++++++++++++++++++++++++++++++++++++++++++++++++++
+ Self-consistent loop started                                                 +
++++++++++++++++++++++++++++++++++++++++++++++++++++++++++++++++++++++++++++++++
 Supercell potential constructed from STATE.OUT
 
 
++++++++++++++++++++++++++++++++++++++++++++++++++++++++++++++++++++++++++++++++
+ SCF iteration number :    1                                                  +
++++++++++++++++++++++++++++++++++++++++++++++++++++++++++++++++++++++++++++++++
 Total energy                               :      -304.83361372
 _______________________________________________________________
 Fermi energy                               :         0.51598240
 Kinetic energy                             :       303.52025402
 Coulomb energy                             :      -564.94366612
 Exchange energy                            :       -41.63102750
 Correlation energy                         :        -1.77917412
 
 DOS at Fermi energy (states/Ha/cell)       :         0.00000000
 
 Electron charges :
     core                                   :        16.00000000
     core leakage                           :         0.00340894
     valence                                :        32.00000000
     interstitial                           :        17.97911038
     charge in muffin-tin spheres :
                  atom     1     C          :         3.75278890
                  atom     2     C          :         3.75280787
                  atom     3     C          :         3.75218192
                  atom     4     C          :         3.75258801
                  atom     5     C          :         3.75294952
                  atom     6     C          :         3.75313495
                  atom     7     C          :         3.75244690
                  atom     8     C          :         3.75199152
     total charge in muffin-tins            :        30.02088962
     total charge                           :        48.00000000
 
 Estimated fundamental gap                  :         0.15170589
        valence-band maximum at    1      0.0000  0.0000  0.0000
     conduction-band minimum at   68      0.3750  0.0000  0.3333
 
 Wall time (seconds)                        :       127.53
 
++++++++++++++++++++++++++++++++++++++++++++++++++++++++++++++++++++++++++++++++
+ SCF iteration number :    2                                                  +
++++++++++++++++++++++++++++++++++++++++++++++++++++++++++++++++++++++++++++++++
 Total energy                               :      -304.83378082
 _______________________________________________________________
 Fermi energy                               :         0.51629164
 Kinetic energy                             :       303.53937882
 Coulomb energy                             :      -564.96128771
 Exchange energy                            :       -41.63283814
 Correlation energy                         :        -1.77903378
 
 DOS at Fermi energy (states/Ha/cell)       :         0.00000000
 
 Electron charges :
     core                                   :        16.00000000
     core leakage                           :         0.00340851
     valence                                :        32.00000000
     interstitial                           :        17.97450143
     charge in muffin-tin spheres :
                  atom     1     C          :         3.75314287
                  atom     2     C          :         3.75337586
                  atom     3     C          :         3.75315758
                  atom     4     C          :         3.75297796
                  atom     5     C          :         3.75367420
                  atom     6     C          :         3.75386554
                  atom     7     C          :         3.75276377
                  atom     8     C          :         3.75254077
     total charge in muffin-tins            :        30.02549857
     total charge                           :        48.00000000
 
 Estimated fundamental gap                  :         0.15203262
        valence-band maximum at    1      0.0000  0.0000  0.0000
     conduction-band minimum at   68      0.3750  0.0000  0.3333
 
 Wall time (seconds)                        :       251.25
 
 RMS change in effective potential (target) :  0.103237E-01  ( 0.100000E-05)
 Absolute change in total energy   (target) :  0.167097E-03  ( 0.100000E-05)
 Charge distance                   (target) :  0.299759E-03  ( 0.100000E-04)
 Abs. change in max-nonIBS-force   (target) :  0.906639E-02  ( 0.500000E-04)
 
++++++++++++++++++++++++++++++++++++++++++++++++++++++++++++++++++++++++++++++++
+ SCF iteration number :    3                                                  +
++++++++++++++++++++++++++++++++++++++++++++++++++++++++++++++++++++++++++++++++
 Total energy                               :      -304.83037010
 _______________________________________________________________
 Fermi energy                               :         0.51657081
 Kinetic energy                             :       303.55700392
 Coulomb energy                             :      -564.97429138
 Exchange energy                            :       -41.63415098
 Correlation energy                         :        -1.77893167
 
 DOS at Fermi energy (states/Ha/cell)       :         0.00000000
 
 Electron charges :
     core                                   :        16.00000000
     core leakage                           :         0.00340829
     valence                                :        32.00000000
     interstitial                           :        17.97100882
     charge in muffin-tin spheres :
                  atom     1     C          :         3.75359813
                  atom     2     C          :         3.75373880
                  atom     3     C          :         3.75365256
                  atom     4     C          :         3.75342240
                  atom     5     C          :         3.75411107
                  atom     6     C          :         3.75419906
                  atom     7     C          :         3.75319622
                  atom     8     C          :         3.75307293
     total charge in muffin-tins            :        30.02899118
     total charge                           :        48.00000000
 
 Estimated fundamental gap                  :         0.15229131
        valence-band maximum at    1      0.0000  0.0000  0.0000
     conduction-band minimum at  134      0.6250  0.0000  0.6667
 
 Wall time (seconds)                        :       373.67
 
 RMS change in effective potential (target) :  0.755470E-02  ( 0.100000E-05)
 Absolute change in total energy   (target) :  0.341072E-02  ( 0.100000E-05)
 Charge distance                   (target) :  0.221147E-03  ( 0.100000E-04)
 Abs. change in max-nonIBS-force   (target) :  0.991957E-03  ( 0.500000E-04)
 
++++++++++++++++++++++++++++++++++++++++++++++++++++++++++++++++++++++++++++++++
+ SCF iteration number :    4                                                  +
++++++++++++++++++++++++++++++++++++++++++++++++++++++++++++++++++++++++++++++++
 Total energy                               :      -304.78608072
 _______________________________________________________________
 Fermi energy                               :         0.51755227
 Kinetic energy                             :       303.62367378
 Coulomb energy                             :      -564.99492990
 Exchange energy                            :       -41.63605076
 Correlation energy                         :        -1.77877383
 
 DOS at Fermi energy (states/Ha/cell)       :         0.00000000
 
 Electron charges :
     core                                   :        16.00000000
     core leakage                           :         0.00340926
     valence                                :        32.00000000
     interstitial                           :        17.96412501
     charge in muffin-tin spheres :
                  atom     1     C          :         3.75369336
                  atom     2     C          :         3.75527226
                  atom     3     C          :         3.75503091
                  atom     4     C          :         3.75379561
                  atom     5     C          :         3.75509613
                  atom     6     C          :         3.75591911
                  atom     7     C          :         3.75376210
                  atom     8     C          :         3.75330551
     total charge in muffin-tins            :        30.03587499
     total charge                           :        48.00000000
 
 Estimated fundamental gap                  :         0.15285814
        valence-band maximum at    1      0.0000  0.0000  0.0000
     conduction-band minimum at   68      0.3750  0.0000  0.3333
 
 Wall time (seconds)                        :       495.46
 
 RMS change in effective potential (target) :  0.232910E-02  ( 0.100000E-05)
 Absolute change in total energy   (target) :  0.442894E-01  ( 0.100000E-05)
 Charge distance                   (target) :  0.504713E-03  ( 0.100000E-04)
 Abs. change in max-nonIBS-force   (target) :  0.347150E-03  ( 0.500000E-04)
 
++++++++++++++++++++++++++++++++++++++++++++++++++++++++++++++++++++++++++++++++
+ SCF iteration number :    5                                                  +
++++++++++++++++++++++++++++++++++++++++++++++++++++++++++++++++++++++++++++++++
 Total energy                               :      -304.79203915
 _______________________________________________________________
 Fermi energy                               :         0.51749425
 Kinetic energy                             :       303.62072910
 Coulomb energy                             :      -564.99765923
 Exchange energy                            :       -41.63635695
 Correlation energy                         :        -1.77875208
 
 DOS at Fermi energy (states/Ha/cell)       :         0.00000000
 
 Electron charges :
     core                                   :        16.00000000
     core leakage                           :         0.00340902
     valence                                :        32.00000000
     interstitial                           :        17.96364276
     charge in muffin-tin spheres :
                  atom     1     C          :         3.75575831
                  atom     2     C          :         3.75338802
                  atom     3     C          :         3.75343830
                  atom     4     C          :         3.75555343
                  atom     5     C          :         3.75436375
                  atom     6     C          :         3.75334791
                  atom     7     C          :         3.75483194
                  atom     8     C          :         3.75567559
     total charge in muffin-tins            :        30.03635724
     total charge                           :        48.00000000
 
 Estimated fundamental gap                  :         0.15289720
        valence-band maximum at    1      0.0000  0.0000  0.0000
     conduction-band minimum at   68      0.3750  0.0000  0.3333
 
 Wall time (seconds)                        :       619.15
 
 RMS change in effective potential (target) :  0.350373E-02  ( 0.100000E-05)
 Absolute change in total energy   (target) :  0.595844E-02  ( 0.100000E-05)
 Charge distance                   (target) :  0.674820E-03  ( 0.100000E-04)
 Abs. change in max-nonIBS-force   (target) :  0.920500E-02  ( 0.500000E-04)
 
++++++++++++++++++++++++++++++++++++++++++++++++++++++++++++++++++++++++++++++++
+ SCF iteration number :    6                                                  +
++++++++++++++++++++++++++++++++++++++++++++++++++++++++++++++++++++++++++++++++
 Total energy                               :      -304.79337247
 _______________________________________________________________
 Fermi energy                               :         0.51748001
 Kinetic energy                             :       303.61992124
 Coulomb energy                             :      -564.99813477
 Exchange energy                            :       -41.63641047
 Correlation energy                         :        -1.77874847
 
 DOS at Fermi energy (states/Ha/cell)       :         0.00000000
 
 Electron charges :
     core                                   :        16.00000000
     core leakage                           :         0.00340897
     valence                                :        32.00000000
     interstitial                           :        17.96354165
     charge in muffin-tin spheres :
                  atom     1     C          :         3.75458488
                  atom     2     C          :         3.75465129
                  atom     3     C          :         3.75454554
                  atom     4     C          :         3.75443196
                  atom     5     C          :         3.75496363
                  atom     6     C          :         3.75488905
                  atom     7     C          :         3.75430527
                  atom     8     C          :         3.75408672
     total charge in muffin-tins            :        30.03645835
     total charge                           :        48.00000000
 
 Estimated fundamental gap                  :         0.15293813
        valence-band maximum at    1      0.0000  0.0000  0.0000
     conduction-band minimum at  134      0.6250  0.0000  0.6667
 
 Wall time (seconds)                        :       733.41
 
 RMS change in effective potential (target) :  0.103344E-03  ( 0.100000E-05)
 Absolute change in total energy   (target) :  0.133331E-02  ( 0.100000E-05)
 Charge distance                   (target) :  0.440238E-03  ( 0.100000E-04)
 Abs. change in max-nonIBS-force   (target) :  0.159998E-01  ( 0.500000E-04)
 
++++++++++++++++++++++++++++++++++++++++++++++++++++++++++++++++++++++++++++++++
+ SCF iteration number :    7                                                  +
++++++++++++++++++++++++++++++++++++++++++++++++++++++++++++++++++++++++++++++++
 Total energy                               :      -304.79355776
 _______________________________________________________________
 Fermi energy                               :         0.51747939
 Kinetic energy                             :       303.61984993
 Coulomb energy                             :      -564.99823808
 Exchange energy                            :       -41.63642194
 Correlation energy                         :        -1.77874767
 
 DOS at Fermi energy (states/Ha/cell)       :         0.00000000
 
 Electron charges :
     core                                   :        16.00000000
     core leakage                           :         0.00340896
     valence                                :        32.00000000
     interstitial                           :        17.96352192
     charge in muffin-tin spheres :
                  atom     1     C          :         3.75449393
                  atom     2     C          :         3.75456518
                  atom     3     C          :         3.75459158
                  atom     4     C          :         3.75444486
                  atom     5     C          :         3.75490223
                  atom     6     C          :         3.75508216
                  atom     7     C          :         3.75407859
                  atom     8     C          :         3.75431955
     total charge in muffin-tins            :        30.03647808
     total charge                           :        48.00000000
 
 Estimated fundamental gap                  :         0.15293922
        valence-band maximum at    1      0.0000  0.0000  0.0000
     conduction-band minimum at  134      0.6250  0.0000  0.6667
 
 Wall time (seconds)                        :       848.83
 
 RMS change in effective potential (target) :  0.105142E-03  ( 0.100000E-05)
 Absolute change in total energy   (target) :  0.185294E-03  ( 0.100000E-05)
 Charge distance                   (target) :  0.350839E-04  ( 0.100000E-04)
 Abs. change in max-nonIBS-force   (target) :  0.305960E-03  ( 0.500000E-04)
 
++++++++++++++++++++++++++++++++++++++++++++++++++++++++++++++++++++++++++++++++
+ SCF iteration number :    8                                                  +
++++++++++++++++++++++++++++++++++++++++++++++++++++++++++++++++++++++++++++++++
 Total energy                               :      -304.79355653
 _______________________________________________________________
 Fermi energy                               :         0.51747951
 Kinetic energy                             :       303.61985379
 Coulomb energy                             :      -564.99824048
 Exchange energy                            :       -41.63642219
 Correlation energy                         :        -1.77874765
 
 DOS at Fermi energy (states/Ha/cell)       :         0.00000000
 
 Electron charges :
     core                                   :        16.00000000
     core leakage                           :         0.00340896
     valence                                :        32.00000000
     interstitial                           :        17.96352129
     charge in muffin-tin spheres :
                  atom     1     C          :         3.75452637
                  atom     2     C          :         3.75462232
                  atom     3     C          :         3.75454956
                  atom     4     C          :         3.75447210
                  atom     5     C          :         3.75494170
                  atom     6     C          :         3.75495533
                  atom     7     C          :         3.75422991
                  atom     8     C          :         3.75418141
     total charge in muffin-tins            :        30.03647871
     total charge                           :        48.00000000
 
 Estimated fundamental gap                  :         0.15293927
        valence-band maximum at    1      0.0000  0.0000  0.0000
     conduction-band minimum at  134      0.6250  0.0000  0.6667
 
 Wall time (seconds)                        :       963.05
 
 RMS change in effective potential (target) :  0.185305E-04  ( 0.100000E-05)
 Absolute change in total energy   (target) :  0.123323E-05  ( 0.100000E-05)
 Charge distance                   (target) :  0.228821E-04  ( 0.100000E-04)
 Abs. change in max-nonIBS-force   (target) :  0.171117E-03  ( 0.500000E-04)
 
++++++++++++++++++++++++++++++++++++++++++++++++++++++++++++++++++++++++++++++++
+ SCF iteration number :    9                                                  +
++++++++++++++++++++++++++++++++++++++++++++++++++++++++++++++++++++++++++++++++
 Total energy                               :      -304.79353481
 _______________________________________________________________
 Fermi energy                               :         0.51747981
 Kinetic energy                             :       303.61986486
 Coulomb energy                             :      -564.99823084
 Exchange energy                            :       -41.63642110
 Correlation energy                         :        -1.77874773
 
 DOS at Fermi energy (states/Ha/cell)       :         0.00000000
 
 Electron charges :
     core                                   :        16.00000000
     core leakage                           :         0.00340896
     valence                                :        32.00000000
     interstitial                           :        17.96352300
     charge in muffin-tin spheres :
                  atom     1     C          :         3.75455516
                  atom     2     C          :         3.75460984
                  atom     3     C          :         3.75456061
                  atom     4     C          :         3.75444349
                  atom     5     C          :         3.75493440
                  atom     6     C          :         3.75496616
                  atom     7     C          :         3.75420839
                  atom     8     C          :         3.75419896
     total charge in muffin-tins            :        30.03647700
     total charge                           :        48.00000000
 
 Estimated fundamental gap                  :         0.15293892
        valence-band maximum at    1      0.0000  0.0000  0.0000
     conduction-band minimum at   68      0.3750  0.0000  0.3333
 
 Wall time (seconds)                        :      1077.35
 
 RMS change in effective potential (target) :  0.121583E-04  ( 0.100000E-05)
 Absolute change in total energy   (target) :  0.217189E-04  ( 0.100000E-05)
 Charge distance                   (target) :  0.560367E-05  ( 0.100000E-04)
 Abs. change in max-nonIBS-force   (target) :  0.482067E-04  ( 0.500000E-04)
 
++++++++++++++++++++++++++++++++++++++++++++++++++++++++++++++++++++++++++++++++
+ SCF iteration number :   10                                                  +
++++++++++++++++++++++++++++++++++++++++++++++++++++++++++++++++++++++++++++++++
 Total energy                               :      -304.79352078
 _______________________________________________________________
 Fermi energy                               :         0.51747990
 Kinetic energy                             :       303.61987239
 Coulomb energy                             :      -564.99822495
 Exchange energy                            :       -41.63642044
 Correlation energy                         :        -1.77874777
 
 DOS at Fermi energy (states/Ha/cell)       :         0.00000000
 
 Electron charges :
     core                                   :        16.00000000
     core leakage                           :         0.00340896
     valence                                :        32.00000000
     interstitial                           :        17.96352400
     charge in muffin-tin spheres :
                  atom     1     C          :         3.75454257
                  atom     2     C          :         3.75460606
                  atom     3     C          :         3.75456312
                  atom     4     C          :         3.75445268
                  atom     5     C          :         3.75493021
                  atom     6     C          :         3.75497043
                  atom     7     C          :         3.75421301
                  atom     8     C          :         3.75419792
     total charge in muffin-tins            :        30.03647600
     total charge                           :        48.00000000
 
 Estimated fundamental gap                  :         0.15293892
        valence-band maximum at    1      0.0000  0.0000  0.0000
     conduction-band minimum at   68      0.3750  0.0000  0.3333
 
 Wall time (seconds)                        :      1193.80
 
 RMS change in effective potential (target) :  0.756972E-05  ( 0.100000E-05)
 Absolute change in total energy   (target) :  0.140225E-04  ( 0.100000E-05)
 Charge distance                   (target) :  0.219161E-05  ( 0.100000E-04)
 Abs. change in max-nonIBS-force   (target) :  0.770534E-05  ( 0.500000E-04)
 
++++++++++++++++++++++++++++++++++++++++++++++++++++++++++++++++++++++++++++++++
+ SCF iteration number :   11                                                  +
++++++++++++++++++++++++++++++++++++++++++++++++++++++++++++++++++++++++++++++++
 Total energy                               :      -304.79352054
 _______________________________________________________________
 Fermi energy                               :         0.51747992
 Kinetic energy                             :       303.61987252
 Coulomb energy                             :      -564.99822486
 Exchange energy                            :       -41.63642043
 Correlation energy                         :        -1.77874777
 
 DOS at Fermi energy (states/Ha/cell)       :         0.00000000
 
 Electron charges :
     core                                   :        16.00000000
     core leakage                           :         0.00340896
     valence                                :        32.00000000
     interstitial                           :        17.96352401
     charge in muffin-tin spheres :
                  atom     1     C          :         3.75454029
                  atom     2     C          :         3.75461257
                  atom     3     C          :         3.75455691
                  atom     4     C          :         3.75445510
                  atom     5     C          :         3.75493643
                  atom     6     C          :         3.75496606
                  atom     7     C          :         3.75421250
                  atom     8     C          :         3.75419613
     total charge in muffin-tins            :        30.03647599
     total charge                           :        48.00000000
 
 Estimated fundamental gap                  :         0.15293888
        valence-band maximum at    1      0.0000  0.0000  0.0000
     conduction-band minimum at   68      0.3750  0.0000  0.3333
 
 Wall time (seconds)                        :      1307.36
 
 RMS change in effective potential (target) :  0.151019E-05  ( 0.100000E-05)
 Absolute change in total energy   (target) :  0.240699E-06  ( 0.100000E-05)
 Charge distance                   (target) :  0.132836E-05  ( 0.100000E-04)
 Abs. change in max-nonIBS-force   (target) :  0.146091E-04  ( 0.500000E-04)
 
++++++++++++++++++++++++++++++++++++++++++++++++++++++++++++++++++++++++++++++++
+ SCF iteration number :   12                                                  +
++++++++++++++++++++++++++++++++++++++++++++++++++++++++++++++++++++++++++++++++
 Total energy                               :      -304.79352040
 _______________________________________________________________
 Fermi energy                               :         0.51747990
 Kinetic energy                             :       303.61987263
 Coulomb energy                             :      -564.99822483
 Exchange energy                            :       -41.63642043
 Correlation energy                         :        -1.77874777
 
 DOS at Fermi energy (states/Ha/cell)       :         0.00000000
 
 Electron charges :
     core                                   :        16.00000000
     core leakage                           :         0.00340896
     valence                                :        32.00000000
     interstitial                           :        17.96352401
     charge in muffin-tin spheres :
                  atom     1     C          :         3.75454244
                  atom     2     C          :         3.75461207
                  atom     3     C          :         3.75455760
                  atom     4     C          :         3.75445434
                  atom     5     C          :         3.75493489
                  atom     6     C          :         3.75496555
                  atom     7     C          :         3.75421369
                  atom     8     C          :         3.75419540
     total charge in muffin-tins            :        30.03647599
     total charge                           :        48.00000000
 
 Estimated fundamental gap                  :         0.15293892
        valence-band maximum at    1      0.0000  0.0000  0.0000
     conduction-band minimum at  134      0.6250  0.0000  0.6667
 
 Wall time (seconds)                        :      1422.04
 
 RMS change in effective potential (target) :  0.269121E-06  ( 0.100000E-05)
 Absolute change in total energy   (target) :  0.143870E-06  ( 0.100000E-05)
 Charge distance                   (target) :  0.298763E-06  ( 0.100000E-04)
 Abs. change in max-nonIBS-force   (target) :  0.345811E-05  ( 0.500000E-04)
 
++++++++++++++++++++++++++++++++++++++++++++++++++++++++++++++++++++++++++++++++
+ SCF iteration number :   13                                                  +
++++++++++++++++++++++++++++++++++++++++++++++++++++++++++++++++++++++++++++++++
 Total energy                               :      -304.79352028
 _______________________________________________________________
 Fermi energy                               :         0.51747990
 Kinetic energy                             :       303.61987269
 Coulomb energy                             :      -564.99822477
 Exchange energy                            :       -41.63642042
 Correlation energy                         :        -1.77874777
 
 DOS at Fermi energy (states/Ha/cell)       :         0.00000000
 
 Electron charges :
     core                                   :        16.00000000
     core leakage                           :         0.00340896
     valence                                :        32.00000000
     interstitial                           :        17.96352402
     charge in muffin-tin spheres :
                  atom     1     C          :         3.75454230
                  atom     2     C          :         3.75461166
                  atom     3     C          :         3.75455788
                  atom     4     C          :         3.75445403
                  atom     5     C          :         3.75493528
                  atom     6     C          :         3.75496567
                  atom     7     C          :         3.75421363
                  atom     8     C          :         3.75419553
     total charge in muffin-tins            :        30.03647598
     total charge                           :        48.00000000
 
 Estimated fundamental gap                  :         0.15293893
        valence-band maximum at    1      0.0000  0.0000  0.0000
     conduction-band minimum at  134      0.6250  0.0000  0.6667
 
 Wall time (seconds)                        :      1536.80
 
 RMS change in effective potential (target) :  0.135668E-06  ( 0.100000E-05)
 Absolute change in total energy   (target) :  0.122620E-06  ( 0.100000E-05)
 Charge distance                   (target) :  0.867450E-07  ( 0.100000E-04)
 Abs. change in max-nonIBS-force   (target) :  0.221291E-06  ( 0.500000E-04)
                                                                                
++++++++++++++++++++++++++++++++++++++++++++++++++++++++++++++++++++++++++++++++
| Convergency criteria checked for the last 2 iterations                       +
| Convergence targets achieved. Performing final SCF iteration                 +
++++++++++++++++++++++++++++++++++++++++++++++++++++++++++++++++++++++++++++++++
 Total energy                               :      -304.79352021
 _______________________________________________________________
 Fermi energy                               :         0.51747990
 Kinetic energy                             :       303.61987273
 Coulomb energy                             :      -564.99822474
 Exchange energy                            :       -41.63642042
 Correlation energy                         :        -1.77874777
 
 DOS at Fermi energy (states/Ha/cell)       :         0.00000000
 
 Electron charges :
     core                                   :        16.00000000
     core leakage                           :         0.00340896
     valence                                :        32.00000000
     interstitial                           :        17.96352403
     charge in muffin-tin spheres :
                  atom     1     C          :         3.75454239
                  atom     2     C          :         3.75461182
                  atom     3     C          :         3.75455780
                  atom     4     C          :         3.75445414
                  atom     5     C          :         3.75493507
                  atom     6     C          :         3.75496567
                  atom     7     C          :         3.75421360
                  atom     8     C          :         3.75419550
     total charge in muffin-tins            :        30.03647597
     total charge                           :        48.00000000
 
 Estimated fundamental gap                  :         0.15293893
        valence-band maximum at    1      0.0000  0.0000  0.0000
     conduction-band minimum at   68      0.3750  0.0000  0.3333
 
++++++++++++++++++++++++++++++++++++++++++++++++++++++++++++++++++++++++++++++++
+ Self-consistent loop stopped                                                 +
++++++++++++++++++++++++++++++++++++++++++++++++++++++++++++++++++++++++++++++++
 STATE.OUT is written
 
--------------------------------------------------------------------------------
- Writing atomic positions and forces                                          -
--------------------------------------------------------------------------------
 
 Atomic positions (lattice) :
 atom     1   C  :     0.99970379    0.99955569    0.99985190
 atom     2   C  :     0.50000000    0.25000000    0.75000000
 atom     3   C  :     0.00029621    0.50044431    0.50014810
 atom     4   C  :     0.50000000    0.75000000    0.25000000
 atom     5   C  :     0.37500000    0.31250000    0.93750000
 atom     6   C  :     0.87500000    0.56250000    0.68750000
 atom     7   C  :     0.37500000    0.81250000    0.43750000
 atom     8   C  :     0.87500000    0.06250000    0.18750000
 
 Total atomic forces including IBS (cartesian) :
 atom     1   C  :    -0.00166398   -0.00014558    0.00014558
 atom     2   C  :     0.00001245   -0.00000514    0.00000514
 atom     3   C  :     0.00168844    0.00013479   -0.00013479
 atom     4   C  :     0.00001372   -0.00000310    0.00000310
 atom     5   C  :     0.00111518   -0.00006625    0.00006625
 atom     6   C  :    -0.00034746   -0.00006374    0.00006374
 atom     7   C  :    -0.00114877    0.00007285   -0.00007285
 atom     8   C  :     0.00033042    0.00007617   -0.00007617
 
 Atomic force components including IBS (cartesian) :
 atom     1   C  :    -0.00178316   -0.00020966    0.00020966   HF force
                 :     0.00008502    0.00006714   -0.00006714   core correction
                 :     0.00003416   -0.00000306    0.00000306   IBS correction
 atom     2   C  :    -0.00000155   -0.00008391    0.00008391   HF force
                 :     0.00000266    0.00008484   -0.00008484   core correction
                 :     0.00001134   -0.00000607    0.00000607   IBS correction
 atom     3   C  :     0.00172466    0.00016549   -0.00016549   HF force
                 :    -0.00002874   -0.00002068    0.00002068   core correction
                 :    -0.00000748   -0.00001002    0.00001002   IBS correction
 atom     4   C  :    -0.00005814    0.00004283   -0.00004283   HF force
                 :     0.00005489   -0.00003893    0.00003893   core correction
                 :     0.00001696   -0.00000699    0.00000699   IBS correction
 atom     5   C  :     0.00127991   -0.00001485    0.00001485   HF force
                 :    -0.00013755   -0.00005669    0.00005669   core correction
                 :    -0.00002718    0.00000528   -0.00000528   IBS correction
 atom     6   C  :    -0.00027717   -0.00002222    0.00002222   HF force
                 :    -0.00005617   -0.00004830    0.00004830   core correction
                 :    -0.00001411    0.00000679   -0.00000679   IBS correction
 atom     7   C  :    -0.00123780    0.00005509   -0.00005509   HF force
                 :     0.00008658    0.00001016   -0.00001016   core correction
                 :     0.00000244    0.00000759   -0.00000759   IBS correction
 atom     8   C  :     0.00035325    0.00006724   -0.00006724   HF force
                 :    -0.00000668    0.00000245   -0.00000245   core correction
                 :    -0.00001614    0.00000648   -0.00000648   IBS correction
 
********************************************************************************
* Groundstate module stopped                                                   *
********************************************************************************
 
 Total time spent (seconds)                 :      1847.39
================================================================================
| EXCITING NITROGEN-13 stopped                                                 =
================================================================================
