 
+----------------------------+
| Real-space lattice vectors |
+----------------------------+
 
vector a1 :   -3.375995700       0.000000000      -3.375995700    
vector a2 :   -3.375995700       3.375995700       0.000000000    
vector a3 :   -10.12798710      -10.12798710       6.751991400    
 
Stored column-wise as a matrix :
  -3.375995700      -3.375995700      -10.12798710    
   0.000000000       3.375995700      -10.12798710    
  -3.375995700       0.000000000       6.751991400    
 
Inverse of matrix :
 -0.7405222702E-01 -0.7405222702E-01 -0.2221566811    
 -0.1110783405      0.1851305676      0.1110783405    
 -0.3702611351E-01 -0.3702611351E-01  0.3702611351E-01
 
Unit cell volume :    307.8191548    
 
 
+----------------------------------+
| Reciprocal-space lattice vectors |
+----------------------------------+
 
vector b1 :  -0.4652838648     -0.4652838648      -1.395851594    
vector b2 :  -0.6979257972       1.163209662      0.6979257972    
vector b3 :  -0.2326419324     -0.2326419324      0.2326419324    
 
Stored column-wise as a matrix :
 -0.4652838648     -0.6979257972     -0.2326419324    
 -0.4652838648       1.163209662     -0.2326419324    
  -1.395851594      0.6979257972      0.2326419324    
 
Inverse of matrix :
 -0.5373064035       0.000000000     -0.5373064035    
 -0.5373064035      0.5373064035       0.000000000    
  -1.611919211      -1.611919211       1.074612807    
 
Brillouin zone volume :   0.8058309874    
