  0.1163492956E-07 -0.1831786587E-01 : is =    1, ia =    1, ip =    1
  0.1163492951E-07 -0.1831786587E-01 : is =    1, ia =    1, ip =    2
  0.2516457320      0.3659867277E-08 : is =    1, ia =    1, ip =    3
 -0.6501947954E-01 -0.2531553044E-08 : is =    2, ia =    1, ip =    1
 -0.6501947954E-01 -0.2531553002E-08 : is =    2, ia =    1, ip =    2
 -0.1486777923E-08 -0.9588567031E-01 : is =    2, ia =    1, ip =    3
