 -0.3241640081E-01 -0.1355679282E-01 : is =    1, ia =    1, ip =    1
 -0.5936869893E-01 -0.6624430003E-01 : is =    1, ia =    1, ip =    2
  0.3241640081E-01  0.1355679282E-01 : is =    1, ia =    1, ip =    3
 -0.1439582184E-01 -0.1566986412E-01 : is =    2, ia =    1, ip =    1
  0.2770323154      0.3996818879E-04 : is =    2, ia =    1, ip =    2
  0.1439582184E-01  0.1566986412E-01 : is =    2, ia =    1, ip =    3
