 -0.6104326084E-01  0.1223825725E-07 : is =    1, ia =    1, ip =    1
 -0.6104326086E-01  0.1223825724E-07 : is =    1, ia =    1, ip =    2
  0.2648583553     -0.2114697361E-07 : is =    1, ia =    1, ip =    3
 -0.4923059084E-01  0.3340549719E-07 : is =    2, ia =    1, ip =    1
 -0.4923059087E-01  0.3340549719E-07 : is =    2, ia =    1, ip =    2
 -0.9990056302E-01 -0.8321111611E-07 : is =    2, ia =    1, ip =    3
