  0.2247361190      0.7319402197E-04 : is =    1, ia =    1, ip =    1
 -0.2119478761E-01 -0.5304584634E-04 : is =    1, ia =    1, ip =    2
 -0.2459257272E-01 -0.1253910536E-01 : is =    1, ia =    1, ip =    3
 -0.4666440771E-01 -0.4512125399E-01 : is =    2, ia =    1, ip =    1
 -0.7454174085E-01  0.2160930093E-01 : is =    2, ia =    1, ip =    2
 -0.3295683958E-01 -0.1407750887E-01 : is =    2, ia =    1, ip =    3
