  0.2516458058     -0.1798037967E-07 : is =    1, ia =    1, ip =    1
  0.5455961510E-07 -0.1831791970E-01 : is =    1, ia =    1, ip =    2
 -0.5455961511E-07  0.1831791970E-01 : is =    1, ia =    1, ip =    3
 -0.9588567652E-01  0.6699720396E-07 : is =    2, ia =    1, ip =    1
  0.1077943469E-06  0.6501952409E-01 : is =    2, ia =    1, ip =    2
 -0.1077943469E-06 -0.6501952409E-01 : is =    2, ia =    1, ip =    3
