 -0.1595723396      0.5861040385E-01 : is =    1, ia =    1, ip =    1
 -0.5776378312E-02 -0.3498278172E-01 : is =    1, ia =    1, ip =    2
  0.5776378290E-02  0.3498278172E-01 : is =    1, ia =    1, ip =    3
  0.2287067085      0.1465089732E-03 : is =    2, ia =    1, ip =    1
 -0.3280569788E-01 -0.2648789111E-03 : is =    2, ia =    1, ip =    2
  0.3280569788E-01  0.2648789101E-03 : is =    2, ia =    1, ip =    3
