 -0.7298605629E-01 -0.2120798472E-01 : is =    1, ia =    1, ip =    1
 -0.4694750450E-01  0.4546096588E-01 : is =    1, ia =    1, ip =    2
  0.2043898013E-01 -0.2034816386E-01 : is =    1, ia =    1, ip =    3
 -0.2201742501E-01 -0.2789661433E-04 : is =    2, ia =    1, ip =    1
  0.2335418745     -0.5769394323E-04 : is =    2, ia =    1, ip =    2
  0.1444223941E-01  0.1574843205E-01 : is =    2, ia =    1, ip =    3
