 -0.4595863360E-09  0.1073858804     : is =    1, ia =    1, ip =    1
 -0.6340237796E-01 -0.9453688245E-08 : is =    1, ia =    1, ip =    2
  0.7066993329E-08 -0.2927815983E-01 : is =    1, ia =    1, ip =    3
  0.2444261413      0.2992161019E-07 : is =    2, ia =    1, ip =    1
  0.3085216492E-07  0.1654403995E-01 : is =    2, ia =    1, ip =    2
  0.4387702009E-01  0.2761353042E-07 : is =    2, ia =    1, ip =    3
