  0.4694753060E-01  0.4546098374E-01 : is =    1, ia =    1, ip =    1
 -0.7298606683E-01  0.2120796045E-01 : is =    1, ia =    1, ip =    2
 -0.2043893512E-01 -0.2034813372E-01 : is =    1, ia =    1, ip =    3
  0.2335419516      0.5773868273E-04 : is =    2, ia =    1, ip =    1
  0.2201743465E-01 -0.2789415314E-04 : is =    2, ia =    1, ip =    2
  0.1444232670E-01 -0.1574839869E-01 : is =    2, ia =    1, ip =    3
