 -0.1888607326E-11   0.000000000     : is =    1, ia =    1, ip =    1
 -0.1064571215      0.1187291898E-06 : is =    1, ia =    1, ip =    2
   0.000000000       0.000000000     : is =    1, ia =    1, ip =    3
  0.2221372833     -0.1435557428E-06 : is =    2, ia =    1, ip =    1
  0.3369973745E-10  0.4898165207E-11 : is =    2, ia =    1, ip =    2
   0.000000000       0.000000000     : is =    2, ia =    1, ip =    3
