 -0.4729659824E-06  0.6340204111E-01 : is =    1, ia =    1, ip =    1
 -0.1073849754      0.1870499525E-06 : is =    1, ia =    1, ip =    2
 -0.2927935179E-01  0.9059730391E-06 : is =    1, ia =    1, ip =    3
  0.2249991297E-06 -0.1654438663E-01 : is =    2, ia =    1, ip =    1
  0.2444258895      0.7646241418E-07 : is =    2, ia =    1, ip =    2
 -0.4387791648E-01 -0.7410519063E-06 : is =    2, ia =    1, ip =    3
