  0.4694787012E-01 -0.4545999884E-01 : is =    1, ia =    1, ip =    1
 -0.7298567934E-01 -0.2120755938E-01 : is =    1, ia =    1, ip =    2
 -0.2043957757E-01  0.2034941637E-01 : is =    1, ia =    1, ip =    3
  0.2335415324     -0.5765954110E-04 : is =    2, ia =    1, ip =    1
  0.2201722241E-01  0.2760535084E-04 : is =    2, ia =    1, ip =    2
  0.1444253916E-01  0.1574812448E-01 : is =    2, ia =    1, ip =    3
