 -0.2465104090E-01  0.1255107436E-01 : is =    1, ia =    1, ip =    1
  0.3249446093      0.6148069096E-04 : is =    1, ia =    1, ip =    2
 -0.2465104090E-01  0.1255107436E-01 : is =    1, ia =    1, ip =    3
 -0.2091097370E-01  0.2111094140E-01 : is =    2, ia =    1, ip =    1
 -0.6616510914E-01  0.5888174140E-01 : is =    2, ia =    1, ip =    2
 -0.2091097370E-01  0.2111094140E-01 : is =    2, ia =    1, ip =    3
