  0.7280283311E-06 -0.4119134480E-01 : is =    1, ia =    1, ip =    1
 -0.9721713568E-01  0.5487739695E-06 : is =    1, ia =    1, ip =    2
 -0.7280283311E-06  0.4119134480E-01 : is =    1, ia =    1, ip =    3
 -0.1256208759E-07 -0.1731879669E-01 : is =    2, ia =    1, ip =    1
  0.2475279265      0.7980383515E-08 : is =    2, ia =    1, ip =    2
  0.1256208758E-07  0.1731879669E-01 : is =    2, ia =    1, ip =    3
