 -0.5777292055E-02  0.3498296825E-01 : is =    1, ia =    1, ip =    1
 -0.1595716116     -0.5860982375E-01 : is =    1, ia =    1, ip =    2
 -0.5777292059E-02  0.3498296825E-01 : is =    1, ia =    1, ip =    3
 -0.3280590376E-01  0.2646057444E-03 : is =    2, ia =    1, ip =    1
  0.2287060001     -0.1465565930E-03 : is =    2, ia =    1, ip =    2
 -0.3280590376E-01  0.2646057461E-03 : is =    2, ia =    1, ip =    3
