 -0.2120754258E-01 -0.7298563944E-01 : is =    1, ia =    1, ip =    1
 -0.2034938244E-01  0.2043956328E-01 : is =    1, ia =    1, ip =    2
 -0.4546003601E-01  0.4694785239E-01 : is =    1, ia =    1, ip =    3
  0.2201723556E-01 -0.2752040481E-04 : is =    2, ia =    1, ip =    1
 -0.1444239774E-01  0.1574809630E-01 : is =    2, ia =    1, ip =    2
  0.2335414272      0.5775752022E-04 : is =    2, ia =    1, ip =    3
