 -0.4894895282E-01  0.2045443839E-07 : is =    1, ia =    1, ip =    1
  0.2503365292     -0.3607564315E-08 : is =    1, ia =    1, ip =    2
  0.3719736540E-07  0.1879649136E-01 : is =    1, ia =    1, ip =    3
 -0.2984929559E-01 -0.1238542689E-06 : is =    2, ia =    1, ip =    1
 -0.1068623531      0.6115157133E-07 : is =    2, ia =    1, ip =    2
  0.8670742578E-07  0.4207936847E-01 : is =    2, ia =    1, ip =    3
