 -0.4894898999E-01  0.3840572722E-07 : is =    1, ia =    1, ip =    1
  0.2509953607E-07  0.1879647246E-01 : is =    1, ia =    1, ip =    2
  0.2503365664     -0.2153070596E-07 : is =    1, ia =    1, ip =    3
 -0.2984929492E-01 -0.1184459126E-06 : is =    2, ia =    1, ip =    1
  0.8763946523E-07  0.4207937152E-01 : is =    2, ia =    1, ip =    2
 -0.1068623537      0.5577148625E-07 : is =    2, ia =    1, ip =    3
