  0.5286041868E-08  0.1879650381E-01 : is =    1, ia =    1, ip =    1
  0.4894899445E-01  0.1757671547E-08 : is =    1, ia =    1, ip =    2
  0.2503365135      0.1525812767E-08 : is =    1, ia =    1, ip =    3
 -0.4207933989E-01  0.3752426044E-09 : is =    2, ia =    1, ip =    1
  0.2509982562E-08  0.2984911559E-01 : is =    2, ia =    1, ip =    2
 -0.1328650960E-08 -0.1068623610     : is =    2, ia =    1, ip =    3
