  0.5903651167E-07  0.1879650565E-01 : is =    1, ia =    1, ip =    1
 -0.4894899858E-01  0.7858436611E-07 : is =    1, ia =    1, ip =    2
  0.2503365977     -0.6335515032E-07 : is =    1, ia =    1, ip =    3
  0.6743542903E-07  0.4207935932E-01 : is =    2, ia =    1, ip =    1
 -0.2984927882E-01 -0.1387784965E-06 : is =    2, ia =    1, ip =    2
 -0.1068623792      0.1276721631E-06 : is =    2, ia =    1, ip =    3
