 -0.7298605028E-01 -0.2120798421E-01 : is =    1, ia =    1, ip =    1
 -0.4694752882E-01  0.4546094195E-01 : is =    1, ia =    1, ip =    2
 -0.2043898589E-01  0.2034817641E-01 : is =    1, ia =    1, ip =    3
 -0.2201742521E-01 -0.2789451046E-04 : is =    2, ia =    1, ip =    1
  0.2335418970     -0.5767633451E-04 : is =    2, ia =    1, ip =    2
 -0.1444223179E-01 -0.1574842031E-01 : is =    2, ia =    1, ip =    3
