  0.4209059040E-07  0.1831787820E-01 : is =    1, ia =    1, ip =    1
  0.4209059035E-07  0.1831787820E-01 : is =    1, ia =    1, ip =    2
  0.2516457653      0.2476031513E-07 : is =    1, ia =    1, ip =    3
 -0.6501949598E-01 -0.1008512181E-06 : is =    2, ia =    1, ip =    1
 -0.6501949598E-01 -0.1008512182E-06 : is =    2, ia =    1, ip =    2
 -0.6039537055E-07  0.9588565753E-01 : is =    2, ia =    1, ip =    3
