 -0.4119075802E-01  0.4827474913E-08 : is =    1, ia =    1, ip =    1
 -0.1049207217E-07  0.9721801993E-01 : is =    1, ia =    1, ip =    2
 -0.4119075802E-01  0.4827474899E-08 : is =    1, ia =    1, ip =    3
  0.2714725172E-07 -0.1731977759E-01 : is =    2, ia =    1, ip =    1
  0.2475290575      0.1040377961E-07 : is =    2, ia =    1, ip =    2
  0.2714725170E-07 -0.1731977759E-01 : is =    2, ia =    1, ip =    3
