  0.2465102689E-01 -0.1255105638E-01 : is =    1, ia =    1, ip =    1
  0.2465102689E-01 -0.1255105638E-01 : is =    1, ia =    1, ip =    2
  0.3249446122      0.6150859154E-04 : is =    1, ia =    1, ip =    3
 -0.2111105064E-01 -0.2091102125E-01 : is =    2, ia =    1, ip =    1
 -0.2111105064E-01 -0.2091102125E-01 : is =    2, ia =    1, ip =    2
  0.5888169673E-01  0.6616503762E-01 : is =    2, ia =    1, ip =    3
