  0.2247361434      0.7317642992E-04 : is =    1, ia =    1, ip =    1
  0.2119480620E-01  0.5306932728E-04 : is =    1, ia =    1, ip =    2
  0.2459255253E-01  0.1253911129E-01 : is =    1, ia =    1, ip =    3
  0.4666436444E-01  0.4512114536E-01 : is =    2, ia =    1, ip =    1
 -0.7454176148E-01  0.2160932552E-01 : is =    2, ia =    1, ip =    2
 -0.3295691995E-01 -0.1407763190E-01 : is =    2, ia =    1, ip =    3
