 -0.1595715596     -0.5860996778E-01 : is =    1, ia =    1, ip =    1
 -0.5777239464E-02  0.3498300313E-01 : is =    1, ia =    1, ip =    2
 -0.5777239461E-02  0.3498300313E-01 : is =    1, ia =    1, ip =    3
  0.2287060088     -0.1464259518E-03 : is =    2, ia =    1, ip =    1
 -0.3280600633E-01  0.2646066533E-03 : is =    2, ia =    1, ip =    2
 -0.3280600631E-01  0.2646066589E-03 : is =    2, ia =    1, ip =    3
