  0.2459258111E-01 -0.1253910436E-01 : is =    1, ia =    1, ip =    1
  0.2119478335E-01 -0.5304610829E-04 : is =    1, ia =    1, ip =    2
  0.2247361190     -0.7319445653E-04 : is =    1, ia =    1, ip =    3
 -0.3295683662E-01  0.1407750222E-01 : is =    2, ia =    1, ip =    1
 -0.7454174744E-01 -0.2160930357E-01 : is =    2, ia =    1, ip =    2
  0.4666440678E-01 -0.4512125837E-01 : is =    2, ia =    1, ip =    3
