 -0.4800662608E-01  0.9992240067E-04 : is =    1, ia =    1, ip =    1
  0.2439229308     -0.1315458473E-03 : is =    1, ia =    1, ip =    2
  0.4800662606E-01 -0.9992240067E-04 : is =    1, ia =    1, ip =    3
 -0.6424472836E-02  0.3572578783E-01 : is =    2, ia =    1, ip =    1
 -0.1586269078     -0.5854946004E-01 : is =    2, ia =    1, ip =    2
  0.6424472830E-02 -0.3572578783E-01 : is =    2, ia =    1, ip =    3
