   0.000000000       0.000000000     : is =    1, ia =    1, ip =    1
  0.4525483405E-08 -0.5131322488E-04 : is =    1, ia =    1, ip =    2
  0.1964555482      0.1658306823E-09 : is =    1, ia =    1, ip =    3
   0.000000000       0.000000000     : is =    2, ia =    1, ip =    1
 -0.4692625233E-01 -0.4692626042E-01 : is =    2, ia =    1, ip =    2
 -0.9096622291E-01  0.9096621314E-01 : is =    2, ia =    1, ip =    3
