  0.4894899675E-01 -0.2895189594E-08 : is =    1, ia =    1, ip =    1
 -0.7483017261E-08  0.1879649394E-01 : is =    1, ia =    1, ip =    2
  0.2503365159     -0.3127057411E-08 : is =    1, ia =    1, ip =    3
  0.5420108987E-08  0.2984911697E-01 : is =    2, ia =    1, ip =    1
 -0.4207934152E-01  0.2241767591E-08 : is =    2, ia =    1, ip =    2
  0.1581739448E-08 -0.1068623596     : is =    2, ia =    1, ip =    3
