 -0.9137623034E-01 -0.9137622158E-01 : is =    1, ia =    1, ip =    1
 -0.4589113293E-01  0.4589112619E-01 : is =    1, ia =    1, ip =    2
   0.000000000       0.000000000     : is =    1, ia =    1, ip =    3
  0.2101562937      0.3641720131E-07 : is =    2, ia =    1, ip =    1
  0.2948635276E-07  0.1451937389E-03 : is =    2, ia =    1, ip =    2
   0.000000000       0.000000000     : is =    2, ia =    1, ip =    3
