 -0.6131862979E-06  0.2927941970E-01 : is =    1, ia =    1, ip =    1
 -0.6340206639E-01  0.3613057337E-06 : is =    1, ia =    1, ip =    2
  0.2516835569E-06 -0.1073848625     : is =    1, ia =    1, ip =    3
  0.4387762345E-01 -0.2411557855E-06 : is =    2, ia =    1, ip =    1
 -0.4570905160E-07 -0.1654429957E-01 : is =    2, ia =    1, ip =    2
  0.2444263066      0.4726973133E-07 : is =    2, ia =    1, ip =    3
