 -0.5144604233E-01 -0.2933537331E-03 : is =    1, ia =    1, ip =    1
 -0.5144604233E-01 -0.2933537331E-03 : is =    1, ia =    1, ip =    2
  0.2389720199     -0.1026267858E-03 : is =    1, ia =    1, ip =    3
 -0.4336129960E-02  0.3530981301E-01 : is =    2, ia =    1, ip =    1
 -0.4336129960E-02  0.3530981301E-01 : is =    2, ia =    1, ip =    2
 -0.1558900497     -0.5777761691E-01 : is =    2, ia =    1, ip =    3
