 -0.6748926318E-01 -0.6644025344E-01 : is =    1, ia =    1, ip =    1
 -0.2998089028E-01 -0.1340699775E-01 : is =    1, ia =    1, ip =    2
  0.2998089028E-01  0.1340699775E-01 : is =    1, ia =    1, ip =    3
  0.2744258869     -0.2188581127E-03 : is =    2, ia =    1, ip =    1
 -0.1273143241E-01 -0.1623889929E-01 : is =    2, ia =    1, ip =    2
  0.1273143241E-01  0.1623889929E-01 : is =    2, ia =    1, ip =    3
