   0.000000000       0.000000000     : is =    1, ia =    1, ip =    1
   0.000000000       0.000000000     : is =    1, ia =    1, ip =    2
  0.2057226118       0.000000000     : is =    1, ia =    1, ip =    3
  0.1694361440E-03   0.000000000     : is =    2, ia =    1, ip =    1
 -0.1036490971       0.000000000     : is =    2, ia =    1, ip =    2
   0.000000000       0.000000000     : is =    2, ia =    1, ip =    3
