  0.6224739704E-01   0.000000000     : is =    1, ia =    1, ip =    1
  0.2622452810       0.000000000     : is =    1, ia =    1, ip =    2
 -0.6224739704E-01   0.000000000     : is =    1, ia =    1, ip =    3
  0.4819681496E-01   0.000000000     : is =    2, ia =    1, ip =    1
 -0.1010211737       0.000000000     : is =    2, ia =    1, ip =    2
 -0.4819681496E-01   0.000000000     : is =    2, ia =    1, ip =    3
