   0.000000000       0.000000000     : is =    1, ia =    1, ip =    1
 -0.4906252072E-01 -0.4906252072E-01 : is =    1, ia =    1, ip =    2
   0.000000000       0.000000000     : is =    1, ia =    1, ip =    3
  0.2648233863       0.000000000     : is =    2, ia =    1, ip =    1
   0.000000000       0.000000000     : is =    2, ia =    1, ip =    2
   0.000000000      0.3139360627E-01 : is =    2, ia =    1, ip =    3
