  0.2689848783       0.000000000     : is =    1, ia =    1, ip =    1
  0.5800873378E-01   0.000000000     : is =    1, ia =    1, ip =    2
 -0.5800873378E-01   0.000000000     : is =    1, ia =    1, ip =    3
 -0.1018793246       0.000000000     : is =    2, ia =    1, ip =    1
  0.4862425468E-01   0.000000000     : is =    2, ia =    1, ip =    2
 -0.4862425468E-01   0.000000000     : is =    2, ia =    1, ip =    3
