 
+----------------------------+
| Real-space lattice vectors |
+----------------------------+
 
vector a1 :   -3.375995700       0.000000000       3.375995700    
vector a2 :    0.000000000      -6.751991400       0.000000000    
vector a3 :   -6.751991400       0.000000000      -6.751991400    
 
Stored column-wise as a matrix :
  -3.375995700       0.000000000      -6.751991400    
   0.000000000      -6.751991400       0.000000000    
   3.375995700       0.000000000      -6.751991400    
 
Inverse of matrix :
 -0.1481044540       0.000000000      0.1481044540    
   0.000000000     -0.1481044540       0.000000000    
 -0.7405222702E-01   0.000000000     -0.7405222702E-01
 
Unit cell volume :    307.8191548    
 
 
+----------------------------------+
| Reciprocal-space lattice vectors |
+----------------------------------+
 
vector b1 :  -0.9305677296       0.000000000      0.9305677296    
vector b2 :    0.000000000     -0.9305677296       0.000000000    
vector b3 :  -0.4652838648       0.000000000     -0.4652838648    
 
Stored column-wise as a matrix :
 -0.9305677296       0.000000000     -0.4652838648    
   0.000000000     -0.9305677296       0.000000000    
  0.9305677296       0.000000000     -0.4652838648    
 
Inverse of matrix :
 -0.5373064035       0.000000000      0.5373064035    
   0.000000000      -1.074612807       0.000000000    
  -1.074612807       0.000000000      -1.074612807    
 
Brillouin zone volume :   0.8058309874    
